ID,LID,Height,Width,Dir,LinkID
1,1,0.15,0.15,1,0
2,2,0.15,0.15,1,0
3,3,0.15,0.15,1,0
4,4,0.15,0.15,1,0
5,5,0.15,0.15,1,0
6,6,0.15,0.15,1,0
7,7,0.15,0.15,1,0
8,8,0.15,0.15,1,0
9,9,0.15,0.15,1,0
10,10,0.15,0.15,1,0
11,11,0.15,0.15,1,0
12,12,0.15,0.15,1,0
13,13,0.15,0.15,1,0
14,14,0.15,0.15,1,0
15,15,0.15,0.15,1,0
16,16,0.15,0.15,1,0
17,17,0.15,0.15,1,0
18,18,0.15,0.15,1,0
19,19,0.15,0.15,1,0
20,20,0.15,0.15,1,0
21,21,0.15,0.15,1,0
22,22,0.15,0.15,1,0
23,23,0.15,0.15,1,0
24,24,0.15,0.15,1,0
25,25,0.15,0.15,1,0
26,26,0.15,0.15,1,0
27,27,0.15,0.15,1,0
28,28,0.15,0.15,1,0
29,29,0.15,0.15,1,0
30,30,0.15,0.15,1,0
31,31,0.15,0.15,1,0
32,32,0.15,0.15,1,0
33,33,0.15,0.15,1,0
34,34,0.15,0.15,1,0
35,35,0.15,0.15,1,0
36,36,0.15,0.15,1,0
37,37,0.15,0.15,1,0
38,38,0.15,0.15,1,0
39,39,0.15,0.15,1,0
40,40,0.15,0.15,1,0
41,41,0.15,0.15,1,0
42,42,0.15,0.15,1,0
43,43,0.15,0.15,1,0
44,44,0.15,0.15,1,0
45,45,0.15,0.15,1,0
46,46,0.15,0.15,1,0
47,47,0.15,0.15,1,0
48,48,0.15,0.15,1,0
49,49,0.15,0.15,1,0
50,50,0.15,0.15,1,0
51,51,0.15,0.15,1,0
52,52,0.15,0.15,1,0
53,53,0.15,0.15,1,0
54,54,0.15,0.15,1,0
55,55,0.15,0.15,1,0
56,56,0.15,0.15,1,0
57,57,0.15,0.15,1,0
58,58,0.15,0.15,1,0
59,59,0.15,0.15,1,0
60,60,0.15,0.15,1,0
61,61,0.15,0.15,1,0
62,62,0.15,0.15,1,0
63,63,0.15,0.15,1,0
64,64,0.15,0.15,1,0
65,65,0.15,0.15,1,0
66,66,0.15,0.15,1,0
67,67,0.15,0.15,1,0
68,68,0.15,0.15,1,0
69,69,0.15,0.15,1,0
70,70,0.15,0.15,1,0
71,71,0.15,0.15,1,0
72,72,0.15,0.15,1,0
73,73,0.15,0.15,1,0
74,74,0.15,0.15,1,0
75,75,0.15,0.15,1,0
76,76,0.15,0.15,1,0
77,77,0.15,0.15,1,0
78,78,0.15,0.15,1,0
79,79,0.15,0.15,1,0
80,80,0.15,0.15,1,0
81,81,0.15,0.15,1,0
82,82,0.15,0.15,1,0
83,83,0.15,0.15,1,0
84,84,0.15,0.15,1,0
85,85,0.15,0.15,1,0
86,86,0.15,0.15,1,0
87,87,0.15,0.15,1,0
88,88,0.15,0.15,1,0
89,89,0.15,0.15,1,0
90,90,0.15,0.15,1,0
91,91,0.15,0.15,1,0
92,92,0.15,0.15,1,0
93,93,0.15,0.15,1,0
94,94,0.15,0.15,1,0
95,95,0.15,0.15,1,0
96,96,0.15,0.15,1,0
97,97,0.15,0.15,1,0
98,98,0.15,0.15,1,0
99,99,0.15,0.15,1,0
100,100,0.15,0.15,1,0
101,101,0.15,0.15,1,0
102,102,0.15,0.15,1,0
103,103,0.15,0.15,1,0
104,104,0.15,0.15,1,0
105,105,0.15,0.15,1,0
106,106,0.15,0.15,1,0
107,107,0.15,0.15,1,0
108,108,0.15,0.15,1,0
109,109,0.15,0.15,1,0
110,110,0.15,0.15,1,0
111,111,0.15,0.15,1,0
112,112,0.15,0.15,1,0
113,113,0.15,0.15,1,0
114,114,0.15,0.15,1,0
115,115,0.15,0.15,1,0
116,116,0.15,0.15,1,0
117,117,0.15,0.15,1,0
118,118,0.15,0.15,1,0
119,119,0.15,0.15,1,0
120,120,0.15,0.15,1,0
121,121,0.15,0.15,1,0
122,122,0.15,0.15,1,0
123,123,0.15,0.15,1,0
124,124,0.15,0.15,1,0
125,125,0.15,0.15,1,0
126,126,0.15,0.15,1,0
127,127,0.15,0.15,1,0
128,128,0.15,0.15,1,0
129,129,0.15,0.15,1,0
130,130,0.15,0.15,1,0
131,131,0.15,0.15,1,0
132,132,0.15,0.15,1,0
133,133,0.15,0.15,1,0
134,134,0.15,0.15,1,0
135,135,0.15,0.15,1,0
136,136,0.15,0.15,1,0
137,137,0.15,0.15,1,0
138,138,0.15,0.15,1,0
139,139,0.15,0.15,1,0
140,140,0.15,0.15,1,0
141,141,0.15,0.15,1,0
142,142,0.15,0.15,1,0
143,143,0.15,0.15,1,0
144,144,0.15,0.15,1,0
145,145,0.15,0.15,1,0
146,146,0.15,0.15,1,0
147,147,0.15,0.15,1,0
148,148,0.15,0.15,1,0
149,149,0.15,0.15,1,0
150,150,0.15,0.15,1,0
151,151,0.15,0.15,1,0
152,152,0.15,0.15,1,0
153,153,0.15,0.15,1,0
154,154,0.15,0.15,1,0
155,155,0.15,0.15,1,0
156,156,0.15,0.15,1,0
157,157,0.15,0.15,1,0
158,158,0.15,0.15,1,0
159,159,0.15,0.15,1,0
160,160,0.15,0.15,1,0
161,161,0.15,0.15,1,0
162,162,0.15,0.15,1,0
163,163,0.15,0.15,1,0
164,164,0.15,0.15,1,0
165,165,0.15,0.15,1,0
166,166,0.15,0.15,1,0
167,167,0.15,0.15,1,0
168,168,0.15,0.15,1,0
169,169,0.15,0.15,1,0
170,170,0.15,0.15,1,0
171,171,0.15,0.15,1,0
172,172,0.15,0.15,1,0
173,173,0.15,0.15,1,0
174,174,0.15,0.15,1,0
175,175,0.15,0.15,1,0
176,176,0.15,0.15,1,0
177,177,0.15,0.15,1,0
178,178,0.15,0.15,1,0
179,179,0.15,0.15,1,0
180,180,0.15,0.15,1,0
181,181,0.15,0.15,1,0
182,182,0.15,0.15,1,0
183,183,0.15,0.15,1,0
184,184,0.15,0.15,1,0
185,185,0.15,0.15,1,0
186,186,0.15,0.15,1,0
187,187,0.15,0.15,1,0
188,188,0.15,0.15,1,0
189,189,0.15,0.15,1,0
190,190,0.15,0.15,1,0
191,191,0.15,0.15,1,0
192,192,0.15,0.15,1,0
193,193,0.15,0.15,1,0
194,194,0.15,0.15,1,0
195,195,0.15,0.15,1,0
196,196,0.15,0.15,1,0
197,197,0.15,0.15,1,0
198,198,0.15,0.15,1,0
199,199,0.15,0.15,1,0
200,200,0.15,0.15,1,0
201,201,0.15,0.15,1,0
202,202,0.15,0.15,1,0
203,203,0.15,0.15,1,0
204,204,0.15,0.15,1,0
205,205,0.15,0.15,1,0
206,206,0.15,0.15,1,0
207,207,0.15,0.15,1,0
208,208,0.15,0.15,1,0
209,209,0.15,0.15,1,0
210,210,0.15,0.15,1,0
211,211,0.15,0.15,1,0
212,212,0.15,0.15,1,0
213,213,0.15,0.15,1,0
214,214,0.15,0.15,1,0
215,215,0.15,0.15,1,0
216,216,0.15,0.15,1,0
217,217,0.15,0.15,1,0
218,218,0.15,0.15,1,0
219,219,0.15,0.15,1,0
220,220,0.15,0.15,1,0
221,221,0.15,0.15,1,0
222,222,0.15,0.15,1,0
223,223,0.15,0.15,1,0
224,224,0.15,0.15,1,0
225,225,0.15,0.15,1,0
226,226,0.15,0.15,1,0
227,227,0.15,0.15,1,0
228,228,0.15,0.15,1,0
229,229,0.15,0.15,1,0
230,230,0.15,0.15,1,0
231,231,0.15,0.15,1,0
232,232,0.15,0.15,1,0
233,233,0.15,0.15,1,0
234,234,0.15,0.15,1,0
235,235,0.15,0.15,1,0
236,236,0.15,0.15,1,0
237,237,0.15,0.15,1,0
238,238,0.15,0.15,1,0
239,239,0.15,0.15,1,0
240,240,0.15,0.15,1,0
241,241,0.15,0.15,1,0
242,242,0.15,0.15,1,0
243,243,0.15,0.15,1,0
244,244,0.15,0.15,1,0
245,245,0.15,0.15,1,0
246,246,0.15,0.15,1,0
247,247,0.15,0.15,1,0
248,248,0.15,0.15,1,0
249,249,0.15,0.15,1,0
250,250,0.15,0.15,1,0
251,251,0.15,0.15,1,0
252,252,0.15,0.15,1,0
253,253,0.15,0.15,1,0
254,254,0.15,0.15,1,0
255,255,0.15,0.15,1,0
256,256,0.15,0.15,1,0
257,257,0.15,0.15,1,0
258,258,0.15,0.15,1,0
259,259,0.15,0.15,1,0
260,260,0.15,0.15,1,0
261,261,0.15,0.15,1,0
262,262,0.15,0.15,1,0
263,263,0.15,0.15,1,0
264,264,0.15,0.15,1,0
265,265,0.15,0.15,1,0
266,266,0.15,0.15,1,0
267,267,0.15,0.15,1,0
268,268,0.15,0.15,1,0
269,269,0.15,0.15,1,0
270,270,0.15,0.15,1,0
271,271,0.15,0.15,1,0
272,272,0.15,0.15,1,0
273,273,0.15,0.15,1,0
274,274,0.15,0.15,1,0
275,275,0.15,0.15,1,0
276,276,0.15,0.15,1,0
277,277,0.15,0.15,1,0
278,278,0.15,0.15,1,0
279,279,0.15,0.15,1,0
280,280,0.15,0.15,1,0
281,281,0.15,0.15,1,0
282,282,0.15,0.15,1,0
283,283,0.15,0.15,1,0
284,284,0.15,0.15,1,0
285,285,0.15,0.15,1,0
286,286,0.15,0.15,1,0
287,287,0.15,0.15,1,0
288,288,0.15,0.15,1,0
289,289,0.15,0.15,1,0
290,290,0.15,0.15,1,0
291,291,0.15,0.15,1,0
292,292,0.15,0.15,1,0
293,293,0.15,0.15,1,0
294,294,0.15,0.15,1,0
295,295,0.15,0.15,1,0
296,296,0.15,0.15,1,0
297,297,0.15,0.15,1,0
298,298,0.15,0.15,1,0
299,299,0.15,0.15,1,0
300,300,0.15,0.15,1,0
301,301,0.15,0.15,1,0
302,302,0.15,0.15,1,0
303,303,0.15,0.15,1,0
304,304,0.15,0.15,1,0
305,305,0.15,0.15,1,0
306,306,0.15,0.15,1,0
307,307,0.15,0.15,1,0
308,308,0.15,0.15,1,0
309,309,0.15,0.15,1,0
310,310,0.15,0.15,1,0
311,311,0.15,0.15,1,0
312,312,0.15,0.15,1,0
313,313,0.15,0.15,1,0
314,314,0.15,0.15,1,0
315,315,0.15,0.15,1,0
316,316,0.15,0.15,1,0
317,317,0.15,0.15,1,0
318,318,0.15,0.15,1,0
319,319,0.15,0.15,1,0
320,320,0.15,0.15,1,0
321,321,0.15,0.15,1,0
322,322,0.15,0.15,1,0
323,323,0.15,0.15,1,0
324,324,0.15,0.15,1,0
325,325,0.15,0.15,1,0
326,326,0.15,0.15,1,0
327,327,0.15,0.15,1,0
328,328,0.15,0.15,1,0
329,329,0.15,0.15,1,0
330,330,0.15,0.15,1,0
331,331,0.15,0.15,1,0
332,332,0.15,0.15,1,0
333,333,0.15,0.15,1,0
334,334,0.15,0.15,1,0
335,335,0.15,0.15,1,0
336,336,0.15,0.15,1,0
337,337,0.15,0.15,1,0
338,338,0.15,0.15,1,0
339,339,0.15,0.15,1,0
340,340,0.15,0.15,1,0
341,341,0.15,0.15,1,0
342,342,0.15,0.15,1,0
343,343,0.15,0.15,1,0
344,344,0.15,0.15,1,0
345,345,0.15,0.15,1,0
346,346,0.15,0.15,1,0
347,347,0.15,0.15,1,0
348,348,0.15,0.15,1,0
349,349,0.15,0.15,1,0
350,350,0.15,0.15,1,0
351,351,0.15,0.15,1,0
352,352,0.15,0.15,1,0
353,353,0.15,0.15,1,0
354,354,0.15,0.15,1,0
355,355,0.15,0.15,1,0
356,356,0.15,0.15,1,0
357,357,0.15,0.15,1,0
358,358,0.15,0.15,1,0
359,359,0.15,0.15,1,0
360,360,0.15,0.15,1,0
361,361,0.15,0.15,1,0
362,362,0.15,0.15,1,0
363,363,0.15,0.15,1,0
364,364,0.15,0.15,1,0
365,365,0.15,0.15,1,0
366,366,0.15,0.15,1,0
367,367,0.15,0.15,1,0
368,368,0.15,0.15,1,0
369,369,0.15,0.15,1,0
370,370,0.15,0.15,1,0
371,371,0.15,0.15,1,0
372,372,0.15,0.15,1,0
373,373,0.15,0.15,1,0
374,374,0.15,0.15,1,0
375,375,0.15,0.15,1,0
376,376,0.15,0.15,1,0
377,377,0.15,0.15,1,0
378,378,0.15,0.15,1,0
379,379,0.15,0.15,1,0
380,380,0.15,0.15,1,0
381,381,0.15,0.15,1,0
382,382,0.15,0.15,1,0
383,383,0.15,0.15,1,0
384,384,0.15,0.15,1,0
385,385,0.15,0.15,1,0
386,386,0.15,0.15,1,0
387,387,0.15,0.15,1,0
388,388,0.15,0.15,1,0
389,389,0.15,0.15,1,0
390,390,0.15,0.15,1,0
391,391,0.15,0.15,1,0
392,392,0.15,0.15,1,0
393,393,0.15,0.15,1,0
394,394,0.15,0.15,1,0
395,395,0.15,0.15,1,0
396,396,0.15,0.15,1,0
397,397,0.15,0.15,1,0
398,398,0.15,0.15,1,0
399,399,0.15,0.15,1,0
400,400,0.15,0.15,1,0
401,401,0.15,0.15,1,0
402,402,0.15,0.15,1,0
403,403,0.15,0.15,1,0
404,404,0.15,0.15,1,0
405,405,0.15,0.15,1,0
406,406,0.15,0.15,1,0
407,407,0.15,0.15,1,0
408,408,0.15,0.15,1,0
409,409,0.15,0.15,1,0
410,410,0.15,0.15,1,0
411,411,0.15,0.15,1,0
412,412,0.15,0.15,1,0
413,413,0.15,0.15,1,0
414,414,0.15,0.15,1,0
415,415,0.15,0.15,1,0
416,416,0.15,0.15,1,0
417,417,0.15,0.15,1,0
418,418,0.15,0.15,1,0
419,419,0.15,0.15,1,0
420,420,0.15,0.15,1,0
421,421,0.15,0.15,1,0
422,422,0.15,0.15,1,0
423,423,0.15,0.15,1,0
424,424,0.15,0.15,1,0
425,425,0.15,0.15,1,0
426,426,0.15,0.15,1,0
427,427,0.15,0.15,1,0
428,428,0.15,0.15,1,0
429,429,0.15,0.15,1,0
430,430,0.15,0.15,1,0
431,431,0.15,0.15,1,0
432,432,0.15,0.15,1,0
433,433,0.15,0.15,1,0
434,434,0.15,0.15,1,0
435,435,0.15,0.15,1,0
436,436,0.15,0.15,1,0
437,437,0.15,0.15,1,0
438,438,0.15,0.15,1,0
439,439,0.15,0.15,1,0
440,440,0.15,0.15,1,0
441,441,0.15,0.15,1,0
442,442,0.15,0.15,1,0
443,443,0.15,0.15,1,0
444,444,0.15,0.15,1,0
445,445,0.15,0.15,1,0
446,446,0.15,0.15,1,0
447,447,0.15,0.15,1,0
448,448,0.15,0.15,1,0
449,449,0.15,0.15,1,0
450,450,0.15,0.15,1,0
451,451,0.15,0.15,1,0
452,452,0.15,0.15,1,0
453,453,0.15,0.15,1,0
454,454,0.15,0.15,1,0
455,455,0.15,0.15,1,0
456,456,0.15,0.15,1,0
457,457,0.15,0.15,1,0
458,458,0.15,0.15,1,0
459,459,0.15,0.15,1,0
460,460,0.15,0.15,1,0
461,461,0.15,0.15,1,0
462,462,0.15,0.15,1,0
463,463,0.15,0.15,1,0
464,464,0.15,0.15,1,0
465,465,0.15,0.15,1,0
466,466,0.15,0.15,1,0
467,467,0.15,0.15,1,0
468,468,0.15,0.15,1,0
469,469,0.15,0.15,1,0
470,470,0.15,0.15,1,0
471,471,0.15,0.15,1,0
472,472,0.15,0.15,1,0
473,473,0.15,0.15,1,0
474,474,0.15,0.15,1,0
475,475,0.15,0.15,1,0
476,476,0.15,0.15,1,0
477,477,0.15,0.15,1,0
478,478,0.15,0.15,1,0
479,479,0.15,0.15,1,0
480,480,0.15,0.15,1,0
481,481,0.15,0.15,1,0
482,482,0.15,0.15,1,0
483,483,0.15,0.15,1,0
484,484,0.15,0.15,1,0
485,485,0.15,0.15,1,0
486,486,0.15,0.15,1,0
487,487,0.15,0.15,1,0
488,488,0.15,0.15,1,0
489,489,0.15,0.15,1,0
490,490,0.15,0.15,1,0
491,491,0.15,0.15,1,0
492,492,0.15,0.15,1,0
493,493,0.15,0.15,1,0
494,494,0.15,0.15,1,0
495,495,0.15,0.15,1,0
496,496,0.15,0.15,1,0
497,497,0.15,0.15,1,0
498,498,0.15,0.15,1,0
499,499,0.15,0.15,1,0
500,500,0.15,0.15,1,0
501,501,0.15,0.15,1,0
502,502,0.15,0.15,1,0
503,503,0.15,0.15,1,0
504,504,0.15,0.15,1,0
505,505,0.15,0.15,1,0
506,506,0.15,0.15,1,0
507,507,0.15,0.15,1,0
508,508,0.15,0.15,1,0
509,509,0.15,0.15,1,0
510,510,0.15,0.15,1,0
511,511,0.15,0.15,1,0
512,512,0.15,0.15,1,0
513,513,0.15,0.15,1,0
514,514,0.15,0.15,1,0
515,515,0.15,0.15,1,0
516,516,0.15,0.15,1,0
517,517,0.15,0.15,1,0
518,518,0.15,0.15,1,0
519,519,0.15,0.15,1,0
520,520,0.15,0.15,1,0
521,521,0.15,0.15,1,0
522,522,0.15,0.15,1,0
523,523,0.15,0.15,1,0
524,524,0.15,0.15,1,0
525,525,0.15,0.15,1,0
526,526,0.15,0.15,1,0
527,527,0.15,0.15,1,0
528,528,0.15,0.15,1,0
529,529,0.15,0.15,1,0
530,530,0.15,0.15,1,0
531,531,0.15,0.15,1,0
532,532,0.15,0.15,1,0
533,533,0.15,0.15,1,0
534,534,0.15,0.15,1,0
535,535,0.15,0.15,1,0
536,536,0.15,0.15,1,0
537,537,0.15,0.15,1,0
538,538,0.15,0.15,1,0
539,539,0.15,0.15,1,0
540,540,0.15,0.15,1,0
541,541,0.15,0.15,1,0
542,542,0.15,0.15,1,0
543,543,0.15,0.15,1,0
544,544,0.15,0.15,1,0
545,545,0.15,0.15,1,0
546,546,0.15,0.15,1,0
547,547,0.15,0.15,1,0
548,548,0.15,0.15,1,0
549,549,0.15,0.15,1,0
550,550,0.15,0.15,1,0
551,551,0.15,0.15,1,0
552,552,0.15,0.15,1,0
553,553,0.15,0.15,1,0
554,554,0.15,0.15,1,0
555,555,0.15,0.15,1,0
556,556,0.15,0.15,1,0
557,557,0.15,0.15,1,0
558,558,0.15,0.15,1,0
559,559,0.15,0.15,1,0
560,560,0.15,0.15,1,0
561,561,0.15,0.15,1,0
562,562,0.15,0.15,1,0
563,563,0.15,0.15,1,0
564,564,0.15,0.15,1,0
565,565,0.15,0.15,1,0
566,566,0.15,0.15,1,0
567,567,0.15,0.15,1,0
568,568,0.15,0.15,1,0
569,569,0.15,0.15,1,0
570,570,0.15,0.15,1,0
571,571,0.15,0.15,1,0
572,572,0.15,0.15,1,0
573,573,0.15,0.15,1,0
574,574,0.15,0.15,1,0
575,575,0.15,0.15,1,0
576,576,0.15,0.15,1,0
577,577,0.15,0.15,1,0
578,578,0.15,0.15,1,0
579,579,0.15,0.15,1,0
580,580,0.15,0.15,1,0
581,581,0.15,0.15,1,0
582,582,0.15,0.15,1,0
583,583,0.15,0.15,1,0
584,584,0.15,0.15,1,0
585,585,0.15,0.15,1,0
586,586,0.15,0.15,1,0
587,587,0.15,0.15,1,0
588,588,0.15,0.15,1,0
589,589,0.15,0.15,1,0
590,590,0.15,0.15,1,0
