PID,B,L,H,Bx,Ly,ReF,MCODE1,MCODE2,MCODE3
1,0,0,-2.97,2.28,33.45,0,0,0,0
2,0,0,-2.82,3.83,33.40,0,0,0,0
3,0,0,-3.68,5.30,33.29,0,0,0,0
4,0,0,-2.98,6.71,33.12,0,0,0,0
5,0,0,-2.67,8.04,32.89,0,0,0,0
6,0,0,-2.96,9.31,32.60,0,0,0,0
7,0,0,-3.70,10.51,32.26,0,0,0,0
8,0,0,-3.00,11.65,31.86,0,0,0,0
9,0,0,-2.43,12.73,31.42,0,0,0,0
10,0,0,-2.43,13.75,30.92,0,0,0,0
11,0,0,-2.96,14.71,30.37,0,0,0,0
12,0,0,-2.88,15.61,29.78,0,0,0,0
13,0,0,-2.71,16.46,29.14,0,0,0,0
14,0,0,-2.89,17.26,28.46,0,0,0,0
15,0,0,-2.61,18.00,27.74,0,0,0,0
16,0,0,-3.69,18.70,26.98,0,0,0,0
17,0,0,-2.71,19.34,26.18,0,0,0,0
18,0,0,-3.59,19.94,25.34,0,0,0,0
19,0,0,-2.53,20.49,24.47,0,0,0,0
20,0,0,-2.43,21.01,23.56,0,0,0,0
21,0,0,-2.43,21.47,22.62,0,0,0,0
22,0,0,-2.44,21.90,21.66,0,0,0,0
23,0,0,-2.44,22.30,20.66,0,0,0,0
24,0,0,-2.55,22.65,19.64,0,0,0,0
25,0,0,-2.54,22.97,18.59,0,0,0,0
26,0,0,-2.52,23.26,17.52,0,0,0,0
27,0,0,-3.27,23.52,16.42,0,0,0,0
28,0,0,-2.89,23.74,15.31,0,0,0,0
29,0,0,-2.60,23.94,14.18,0,0,0,0
30,0,0,-2.51,24.11,13.03,0,0,0,0
31,0,0,-2.72,24.26,11.87,0,0,0,0
32,0,0,-2.48,24.38,10.69,0,0,0,0
33,0,0,-2.45,24.49,9.50,0,0,0,0
34,0,0,-2.49,24.57,8.30,0,0,0,0
35,0,0,-2.46,24.64,7.09,0,0,0,0
36,0,0,-2.51,24.69,5.88,0,0,0,0
37,0,0,-2.51,24.72,4.66,0,0,0,0
38,0,0,-2.83,24.74,3.44,0,0,0,0
39,0,0,-2.98,24.75,2.21,0,0,0,0
40,0,0,-2.45,24.76,0.99,0,0,0,0
41,0,0,-2.46,24.75,-0.23,0,0,0,0
42,0,0,-2.46,24.74,-1.45,0,0,0,0
43,0,0,-2.77,24.72,-2.67,0,0,0,0
44,0,0,-3.21,24.70,-3.88,0,0,0,0
45,0,0,-3.10,24.68,-5.08,0,0,0,0
46,0,0,-4.15,24.66,-6.27,0,0,0,0
47,0,0,-4.11,24.64,-7.45,0,0,0,0
48,0,0,-2.88,24.63,-8.61,0,0,0,0
49,0,0,-2.63,-216.71,-81.55,0,0,0,0
50,0,0,-2.78,-216.29,-82.36,0,0,0,0
51,0,0,-2.86,-215.89,-83.19,0,0,0,0
52,0,0,-3.09,-215.51,-84.06,0,0,0,0
53,0,0,-2.50,-215.15,-84.95,0,0,0,0
54,0,0,-2.71,-214.81,-85.88,0,0,0,0
55,0,0,-2.76,-214.49,-86.83,0,0,0,0
56,0,0,-2.55,-214.19,-87.80,0,0,0,0
57,0,0,-2.89,-213.92,-88.80,0,0,0,0
58,0,0,-2.73,-213.67,-89.83,0,0,0,0
59,0,0,-2.69,-213.44,-90.87,0,0,0,0
60,0,0,-2.66,-213.23,-91.93,0,0,0,0
61,0,0,-2.89,-213.05,-93.01,0,0,0,0
62,0,0,-2.65,-212.89,-94.11,0,0,0,0
63,0,0,-2.73,-212.75,-95.23,0,0,0,0
64,0,0,-2.68,-212.64,-96.35,0,0,0,0
65,0,0,-2.76,-212.56,-97.49,0,0,0,0
66,0,0,-2.68,-212.50,-98.65,0,0,0,0
67,0,0,-2.70,-212.46,-99.81,0,0,0,0
68,0,0,-2.68,-212.45,-100.98,0,0,0,0
69,0,0,-2.65,-212.47,-102.15,0,0,0,0
70,0,0,-2.62,-212.52,-103.33,0,0,0,0
71,0,0,-2.46,-212.59,-104.52,0,0,0,0
72,0,0,-2.45,-212.69,-105.70,0,0,0,0
73,0,0,-2.46,-212.82,-106.89,0,0,0,0
74,0,0,-2.45,-212.98,-108.08,0,0,0,0
75,0,0,-2.45,-213.17,-109.26,0,0,0,0
76,0,0,-2.44,-213.38,-110.45,0,0,0,0
77,0,0,-2.54,-213.63,-111.62,0,0,0,0
78,0,0,-2.62,-213.90,-112.80,0,0,0,0
79,0,0,-2.64,-214.21,-113.96,0,0,0,0
80,0,0,-2.46,-214.55,-115.11,0,0,0,0
81,0,0,-2.61,-214.92,-116.26,0,0,0,0
82,0,0,-2.55,-215.32,-117.39,0,0,0,0
83,0,0,-2.58,-215.76,-118.51,0,0,0,0
84,0,0,-2.64,-216.22,-119.61,0,0,0,0
85,0,0,-2.54,-216.72,-120.70,0,0,0,0
86,0,0,-2.47,-217.25,-121.77,0,0,0,0
87,0,0,-2.76,-217.82,-122.82,0,0,0,0
88,0,0,-2.53,-218.42,-123.85,0,0,0,0
89,0,0,-2.54,-219.06,-124.86,0,0,0,0
90,0,0,-2.59,-219.73,-125.85,0,0,0,0
91,0,0,-2.57,-220.44,-126.81,0,0,0,0
92,0,0,-2.71,-221.18,-127.74,0,0,0,0
93,0,0,-2.51,-221.96,-128.65,0,0,0,0
94,0,0,-2.51,-222.77,-129.52,0,0,0,0
95,0,0,-2.61,-223.63,-130.37,0,0,0,0
96,0,0,-2.59,-224.52,-131.18,0,0,0,0
97,0,0,-2.51,-225.45,-131.96,0,0,0,0
98,0,0,-2.73,-226.41,-132.71,0,0,0,0
99,0,0,-2.82,-227.42,-133.42,0,0,0,0
100,0,0,-2.55,-228.46,-134.09,0,0,0,0
101,0,0,-2.51,-229.55,-134.72,0,0,0,0
102,0,0,-2.52,-230.67,-135.31,0,0,0,0
103,0,0,-2.51,-231.83,-135.86,0,0,0,0
104,0,0,-2.63,-233.04,-136.37,0,0,0,0
105,0,0,-2.51,-234.28,-136.83,0,0,0,0
106,0,0,-2.50,-235.57,-137.24,0,0,0,0
107,0,0,-2.52,-236.90,-137.61,0,0,0,0
108,0,0,-2.45,-238.27,-137.93,0,0,0,0
109,0,0,-2.67,-239.69,-138.19,0,0,0,0
110,0,0,-2.47,-241.15,-138.41,0,0,0,0
111,0,0,-2.69,-242.65,-138.57,0,0,0,0
112,0,0,-2.53,-244.19,-138.67,0,0,0,0
113,0,0,-2.48,-245.78,-138.72,0,0,0,0
114,0,0,-2.46,-212.10,-2.05,0,0,0,0
115,0,0,-2.56,-212.74,-3.18,0,0,0,0
116,0,0,-2.45,-213.37,-4.29,0,0,0,0
117,0,0,-2.45,-213.98,-5.40,0,0,0,0
118,0,0,-2.46,-214.59,-6.50,0,0,0,0
119,0,0,-2.53,-215.18,-7.58,0,0,0,0
120,0,0,-2.48,-215.76,-8.66,0,0,0,0
121,0,0,-2.44,-216.33,-9.72,0,0,0,0
122,0,0,-2.44,-216.89,-10.78,0,0,0,0
123,0,0,-2.43,-217.43,-11.83,0,0,0,0
124,0,0,-2.43,-217.97,-12.87,0,0,0,0
125,0,0,-2.43,-218.49,-13.90,0,0,0,0
126,0,0,-2.43,-218.99,-14.92,0,0,0,0
127,0,0,-2.43,-219.48,-15.94,0,0,0,0
128,0,0,-2.46,-219.96,-16.95,0,0,0,0
129,0,0,-2.44,-220.43,-17.95,0,0,0,0
130,0,0,-2.45,-220.88,-18.94,0,0,0,0
131,0,0,-2.45,-221.32,-19.93,0,0,0,0
132,0,0,-2.45,-221.75,-20.91,0,0,0,0
133,0,0,-2.46,-222.16,-21.89,0,0,0,0
134,0,0,-2.44,-222.56,-22.86,0,0,0,0
135,0,0,-3.45,-222.95,-23.82,0,0,0,0
136,0,0,-2.71,-223.32,-24.78,0,0,0,0
137,0,0,-2.44,-223.67,-25.74,0,0,0,0
138,0,0,-2.43,-224.01,-26.69,0,0,0,0
139,0,0,-2.43,-224.34,-27.64,0,0,0,0
140,0,0,-2.44,-224.65,-28.58,0,0,0,0
141,0,0,-2.49,-224.95,-29.52,0,0,0,0
142,0,0,-2.44,-225.23,-30.46,0,0,0,0
143,0,0,-2.44,-225.50,-31.40,0,0,0,0
144,0,0,-2.43,-225.75,-32.33,0,0,0,0
145,0,0,-2.44,-225.99,-33.26,0,0,0,0
146,0,0,-2.43,-226.21,-34.19,0,0,0,0
147,0,0,-2.54,-226.41,-35.11,0,0,0,0
148,0,0,-2.44,-226.60,-36.04,0,0,0,0
149,0,0,-2.44,-226.78,-36.96,0,0,0,0
150,0,0,-2.44,-226.94,-37.89,0,0,0,0
151,0,0,-2.45,-227.08,-38.81,0,0,0,0
152,0,0,-2.45,-227.20,-39.74,0,0,0,0
153,0,0,-2.44,-227.31,-40.66,0,0,0,0
154,0,0,-2.51,-227.40,-41.59,0,0,0,0
155,0,0,-2.44,-227.48,-42.51,0,0,0,0
156,0,0,-2.54,-227.54,-43.44,0,0,0,0
157,0,0,-2.45,-227.58,-44.37,0,0,0,0
158,0,0,-2.58,-227.61,-45.30,0,0,0,0
159,0,0,-2.61,-227.61,-46.23,0,0,0,0
160,0,0,-2.54,-227.60,-47.17,0,0,0,0
161,0,0,-2.48,-227.58,-48.11,0,0,0,0
162,0,0,-2.74,-227.53,-49.05,0,0,0,0
163,0,0,-2.56,-227.47,-50.00,0,0,0,0
164,0,0,-2.63,-227.39,-50.95,0,0,0,0
165,0,0,-2.69,-227.29,-51.90,0,0,0,0
166,0,0,-2.77,-227.18,-52.86,0,0,0,0
167,0,0,-2.71,-227.04,-53.82,0,0,0,0
168,0,0,-2.52,-226.89,-54.79,0,0,0,0
169,0,0,-2.65,-226.72,-55.76,0,0,0,0
170,0,0,-2.78,-226.53,-56.74,0,0,0,0
171,0,0,-3.01,-226.32,-57.73,0,0,0,0
172,0,0,-3.22,-226.09,-58.72,0,0,0,0
173,0,0,-2.54,-225.84,-59.72,0,0,0,0
174,0,0,-2.63,-225.58,-60.72,0,0,0,0
175,0,0,-2.59,-225.29,-61.74,0,0,0,0
176,0,0,-2.50,-224.99,-62.76,0,0,0,0
177,0,0,-2.93,-224.66,-63.78,0,0,0,0
178,0,0,-2.71,-224.32,-64.82,0,0,0,0
179,0,0,-2.49,-223.95,-65.86,0,0,0,0
180,0,0,-2.53,-223.57,-66.92,0,0,0,0
181,0,0,-2.47,-223.17,-67.98,0,0,0,0
182,0,0,-2.85,-222.74,-69.05,0,0,0,0
183,0,0,-2.63,-222.30,-70.13,0,0,0,0
184,0,0,-2.65,-221.83,-71.22,0,0,0,0
185,0,0,-2.54,-221.35,-72.33,0,0,0,0
186,0,0,-2.59,-220.84,-73.44,0,0,0,0
187,0,0,-2.65,-220.31,-74.56,0,0,0,0
188,0,0,-3.29,-219.77,-75.70,0,0,0,0
189,0,0,-2.58,-219.20,-76.84,0,0,0,0
190,0,0,-2.83,-218.61,-78.00,0,0,0,0
191,0,0,-2.52,-217.99,-79.17,0,0,0,0
192,0,0,-2.86,-217.36,-80.36,0,0,0,0
193,0,0,-2.63,-216.71,-81.55,0,0,0,0
194,0,0,-2.46,-163.85,32.49,0,0,0,0
195,0,0,-2.44,-163.50,32.49,0,0,0,0
196,0,0,-2.45,-163.13,32.49,0,0,0,0
197,0,0,-2.46,-162.74,32.49,0,0,0,0
198,0,0,-2.46,-162.32,32.49,0,0,0,0
199,0,0,-2.45,-161.89,32.50,0,0,0,0
200,0,0,-2.43,-161.43,32.50,0,0,0,0
201,0,0,-2.45,-160.95,32.50,0,0,0,0
202,0,0,-2.47,-160.46,32.50,0,0,0,0
203,0,0,-2.48,-159.94,32.50,0,0,0,0
204,0,0,-2.46,-159.41,32.51,0,0,0,0
205,0,0,-2.47,-158.85,32.51,0,0,0,0
206,0,0,-2.47,-158.28,32.51,0,0,0,0
207,0,0,-2.46,-157.69,32.51,0,0,0,0
208,0,0,-2.47,-157.08,32.52,0,0,0,0
209,0,0,-2.47,-156.45,32.52,0,0,0,0
210,0,0,-2.45,-155.80,32.52,0,0,0,0
211,0,0,-2.46,-155.14,32.53,0,0,0,0
212,0,0,-2.49,-154.46,32.53,0,0,0,0
213,0,0,-2.45,-153.76,32.54,0,0,0,0
214,0,0,-2.43,-153.04,32.54,0,0,0,0
215,0,0,-2.43,-152.31,32.54,0,0,0,0
216,0,0,-2.43,-151.56,32.55,0,0,0,0
217,0,0,-2.44,-150.79,32.55,0,0,0,0
218,0,0,-2.43,-150.01,32.56,0,0,0,0
219,0,0,-2.43,-149.22,32.57,0,0,0,0
220,0,0,-2.43,-148.40,32.57,0,0,0,0
221,0,0,-2.43,-147.58,32.58,0,0,0,0
222,0,0,-2.45,-146.73,32.58,0,0,0,0
223,0,0,-2.42,-145.88,32.59,0,0,0,0
224,0,0,-2.42,-145.00,32.59,0,0,0,0
225,0,0,-2.43,-144.12,32.60,0,0,0,0
226,0,0,-2.43,-143.22,32.61,0,0,0,0
227,0,0,-2.43,-142.30,32.61,0,0,0,0
228,0,0,-2.43,-141.38,32.62,0,0,0,0
229,0,0,-2.43,-140.44,32.63,0,0,0,0
230,0,0,-2.46,-139.48,32.63,0,0,0,0
231,0,0,-2.50,-138.52,32.64,0,0,0,0
232,0,0,-2.45,-137.54,32.65,0,0,0,0
233,0,0,-2.46,-136.55,32.66,0,0,0,0
234,0,0,-2.43,-135.55,32.66,0,0,0,0
235,0,0,-2.53,-134.53,32.67,0,0,0,0
236,0,0,-2.47,-133.50,32.68,0,0,0,0
237,0,0,-2.50,-132.47,32.69,0,0,0,0
238,0,0,-2.44,-131.42,32.70,0,0,0,0
239,0,0,-2.43,-130.36,32.70,0,0,0,0
240,0,0,-2.43,-129.29,32.71,0,0,0,0
241,0,0,-2.42,-128.21,32.72,0,0,0,0
242,0,0,-2.42,-127.12,32.73,0,0,0,0
243,0,0,-2.42,-126.02,32.74,0,0,0,0
244,0,0,-2.42,-124.91,32.75,0,0,0,0
245,0,0,-2.42,-123.79,32.75,0,0,0,0
246,0,0,-2.42,-122.66,32.76,0,0,0,0
247,0,0,-2.42,-121.53,32.77,0,0,0,0
248,0,0,-2.43,-120.38,32.78,0,0,0,0
249,0,0,-2.43,-119.23,32.79,0,0,0,0
250,0,0,-2.42,-118.07,32.80,0,0,0,0
251,0,0,-2.49,-116.90,32.81,0,0,0,0
252,0,0,-2.61,-115.72,32.82,0,0,0,0
253,0,0,-2.42,-114.54,32.83,0,0,0,0
254,0,0,-2.45,-113.35,32.84,0,0,0,0
255,0,0,-2.46,-112.15,32.85,0,0,0,0
256,0,0,-2.43,-110.95,32.86,0,0,0,0
257,0,0,-2.42,-109.74,32.86,0,0,0,0
258,0,0,-2.43,-108.52,32.87,0,0,0,0
259,0,0,-2.43,-107.30,32.88,0,0,0,0
260,0,0,-2.42,-106.07,32.89,0,0,0,0
261,0,0,-2.42,-104.84,32.90,0,0,0,0
262,0,0,-2.42,-103.60,32.91,0,0,0,0
263,0,0,-2.42,-102.36,32.92,0,0,0,0
264,0,0,-2.42,-101.11,32.93,0,0,0,0
265,0,0,-2.43,-99.86,32.94,0,0,0,0
266,0,0,-2.43,-98.60,32.95,0,0,0,0
267,0,0,-2.42,-97.34,32.96,0,0,0,0
268,0,0,-2.43,-96.08,32.97,0,0,0,0
269,0,0,-2.45,-94.81,32.98,0,0,0,0
270,0,0,-2.42,-93.54,32.99,0,0,0,0
271,0,0,-2.43,-92.27,33.00,0,0,0,0
272,0,0,-2.42,-90.99,33.01,0,0,0,0
273,0,0,-2.42,-89.71,33.02,0,0,0,0
274,0,0,-2.42,-88.43,33.03,0,0,0,0
275,0,0,-2.43,-87.15,33.04,0,0,0,0
276,0,0,-2.42,-85.87,33.05,0,0,0,0
277,0,0,-2.43,-84.58,33.06,0,0,0,0
278,0,0,-2.43,-83.30,33.07,0,0,0,0
279,0,0,-2.43,-82.01,33.08,0,0,0,0
280,0,0,-2.43,-80.72,33.09,0,0,0,0
281,0,0,-2.43,-79.44,33.10,0,0,0,0
282,0,0,-2.61,-78.15,33.11,0,0,0,0
283,0,0,-2.43,-76.86,33.12,0,0,0,0
284,0,0,-2.44,-75.58,33.13,0,0,0,0
285,0,0,-2.43,-74.29,33.14,0,0,0,0
286,0,0,-2.71,-73.00,33.15,0,0,0,0
287,0,0,-2.42,-71.72,33.15,0,0,0,0
288,0,0,-2.43,-70.44,33.16,0,0,0,0
289,0,0,-2.43,-69.15,33.17,0,0,0,0
290,0,0,-2.43,-67.87,33.18,0,0,0,0
291,0,0,-2.43,-66.60,33.19,0,0,0,0
292,0,0,-2.43,-65.32,33.20,0,0,0,0
293,0,0,-2.43,-64.05,33.21,0,0,0,0
294,0,0,-2.42,-62.78,33.22,0,0,0,0
295,0,0,-2.85,-61.51,33.23,0,0,0,0
296,0,0,-2.98,-60.25,33.24,0,0,0,0
297,0,0,-3.10,-58.99,33.24,0,0,0,0
298,0,0,-2.86,-57.73,33.25,0,0,0,0
299,0,0,-3.09,-56.48,33.26,0,0,0,0
300,0,0,-3.14,-55.24,33.27,0,0,0,0
301,0,0,-2.54,-53.99,33.28,0,0,0,0
302,0,0,-2.53,-52.76,33.29,0,0,0,0
303,0,0,-2.59,-51.52,33.29,0,0,0,0
304,0,0,-2.57,-50.29,33.30,0,0,0,0
305,0,0,-2.88,-49.07,33.31,0,0,0,0
306,0,0,-2.81,-47.86,33.32,0,0,0,0
307,0,0,-2.68,-46.65,33.32,0,0,0,0
308,0,0,-2.97,-45.44,33.33,0,0,0,0
309,0,0,-2.67,-44.25,33.34,0,0,0,0
310,0,0,-2.74,-43.06,33.35,0,0,0,0
311,0,0,-2.89,-41.87,33.35,0,0,0,0
312,0,0,-2.81,-40.70,33.36,0,0,0,0
313,0,0,-2.64,-39.53,33.37,0,0,0,0
314,0,0,-2.58,-38.37,33.37,0,0,0,0
315,0,0,-2.87,-37.22,33.38,0,0,0,0
316,0,0,-2.76,-36.07,33.39,0,0,0,0
317,0,0,-2.69,-34.94,33.39,0,0,0,0
318,0,0,-2.64,-33.81,33.40,0,0,0,0
319,0,0,-2.69,-32.69,33.40,0,0,0,0
320,0,0,-2.91,-31.58,33.41,0,0,0,0
321,0,0,-2.70,-30.48,33.41,0,0,0,0
322,0,0,-2.56,-29.40,33.42,0,0,0,0
323,0,0,-2.76,-28.32,33.42,0,0,0,0
324,0,0,-2.73,-27.25,33.43,0,0,0,0
325,0,0,-2.44,-26.19,33.43,0,0,0,0
326,0,0,-2.78,-25.14,33.44,0,0,0,0
327,0,0,-2.82,-24.11,33.44,0,0,0,0
328,0,0,-2.78,-23.08,33.45,0,0,0,0
329,0,0,-2.83,-22.07,33.45,0,0,0,0
330,0,0,-2.83,-21.07,33.45,0,0,0,0
331,0,0,-2.87,-20.08,33.46,0,0,0,0
332,0,0,-2.90,-19.10,33.46,0,0,0,0
333,0,0,-2.87,-18.13,33.46,0,0,0,0
334,0,0,-2.94,-17.18,33.47,0,0,0,0
335,0,0,-2.98,-16.24,33.47,0,0,0,0
336,0,0,-3.02,-15.32,33.47,0,0,0,0
337,0,0,-3.06,-14.40,33.47,0,0,0,0
338,0,0,-3.08,-13.50,33.48,0,0,0,0
339,0,0,-3.16,-12.62,33.48,0,0,0,0
340,0,0,-3.18,-11.75,33.48,0,0,0,0
341,0,0,-3.16,-10.89,33.48,0,0,0,0
342,0,0,-3.12,-10.05,33.48,0,0,0,0
343,0,0,-3.28,-9.23,33.48,0,0,0,0
344,0,0,-3.29,-8.42,33.48,0,0,0,0
345,0,0,-3.22,-7.62,33.48,0,0,0,0
346,0,0,-3.08,-6.84,33.48,0,0,0,0
347,0,0,-3.40,-6.08,33.48,0,0,0,0
348,0,0,-3.25,-5.33,33.48,0,0,0,0
349,0,0,-3.17,-4.60,33.48,0,0,0,0
350,0,0,-3.05,-3.88,33.48,0,0,0,0
351,0,0,-3.47,-3.19,33.48,0,0,0,0
352,0,0,-3.32,-2.51,33.48,0,0,0,0
353,0,0,-3.06,-1.84,33.47,0,0,0,0
354,0,0,-3.01,-1.20,33.47,0,0,0,0
355,0,0,-3.33,-0.57,33.47,0,0,0,0
356,0,0,-3.68,0.04,33.47,0,0,0,0
357,0,0,-3.42,0.63,33.46,0,0,0,0
358,0,0,-3.29,1.20,33.46,0,0,0,0
359,0,0,-2.94,1.75,33.46,0,0,0,0
360,0,0,-2.97,2.28,33.45,0,0,0,0
361,0,0,-2.42,-107.59,22.30,0,0,0,0
362,0,0,-2.42,-109.62,22.37,0,0,0,0
363,0,0,-2.44,-111.63,22.44,0,0,0,0
364,0,0,-2.42,-113.60,22.51,0,0,0,0
365,0,0,-2.42,-115.55,22.58,0,0,0,0
366,0,0,-2.42,-117.47,22.64,0,0,0,0
367,0,0,-2.42,-119.37,22.69,0,0,0,0
368,0,0,-2.42,-121.23,22.74,0,0,0,0
369,0,0,-2.42,-123.07,22.79,0,0,0,0
370,0,0,-2.43,-124.88,22.83,0,0,0,0
371,0,0,-2.42,-126.67,22.87,0,0,0,0
372,0,0,-2.43,-128.42,22.90,0,0,0,0
373,0,0,-2.44,-130.16,22.93,0,0,0,0
374,0,0,-2.65,-131.86,22.95,0,0,0,0
375,0,0,-2.42,-133.54,22.97,0,0,0,0
376,0,0,-2.47,-135.20,22.99,0,0,0,0
377,0,0,-2.46,-136.83,23.00,0,0,0,0
378,0,0,-2.42,-138.43,23.00,0,0,0,0
379,0,0,-2.42,-140.01,23.00,0,0,0,0
380,0,0,-2.43,-141.57,23.00,0,0,0,0
381,0,0,-2.48,-143.10,22.99,0,0,0,0
382,0,0,-2.45,-144.61,22.98,0,0,0,0
383,0,0,-2.44,-146.09,22.96,0,0,0,0
384,0,0,-2.53,-147.55,22.93,0,0,0,0
385,0,0,-2.43,-148.99,22.90,0,0,0,0
386,0,0,-2.45,-150.40,22.87,0,0,0,0
387,0,0,-2.46,-151.80,22.83,0,0,0,0
388,0,0,-2.49,-153.16,22.78,0,0,0,0
389,0,0,-2.46,-154.51,22.73,0,0,0,0
390,0,0,-2.49,-155.84,22.68,0,0,0,0
391,0,0,-2.48,-157.14,22.61,0,0,0,0
392,0,0,-2.43,-158.42,22.55,0,0,0,0
393,0,0,-2.45,-159.68,22.48,0,0,0,0
394,0,0,-2.44,-160.92,22.40,0,0,0,0
395,0,0,-2.52,-162.14,22.32,0,0,0,0
396,0,0,-2.53,-163.34,22.23,0,0,0,0
397,0,0,-2.45,-164.52,22.13,0,0,0,0
398,0,0,-2.46,-165.68,22.03,0,0,0,0
399,0,0,-2.46,-166.82,21.93,0,0,0,0
400,0,0,-2.71,-167.94,21.81,0,0,0,0
401,0,0,-2.56,-169.04,21.70,0,0,0,0
402,0,0,-2.46,-170.12,21.57,0,0,0,0
403,0,0,-2.59,-171.18,21.44,0,0,0,0
404,0,0,-2.46,-172.22,21.31,0,0,0,0
405,0,0,-2.46,-173.25,21.16,0,0,0,0
406,0,0,-2.46,-174.26,21.02,0,0,0,0
407,0,0,-2.46,-175.25,20.86,0,0,0,0
408,0,0,-2.46,-176.22,20.70,0,0,0,0
409,0,0,-2.45,-177.18,20.54,0,0,0,0
410,0,0,-2.45,-178.11,20.36,0,0,0,0
411,0,0,-2.46,-179.04,20.18,0,0,0,0
412,0,0,-2.46,-179.94,20.00,0,0,0,0
413,0,0,-2.45,-180.83,19.81,0,0,0,0
414,0,0,-2.45,-181.70,19.61,0,0,0,0
415,0,0,-2.45,-182.56,19.40,0,0,0,0
416,0,0,-2.45,-183.40,19.19,0,0,0,0
417,0,0,-2.46,-184.23,18.97,0,0,0,0
418,0,0,-2.52,-185.04,18.75,0,0,0,0
419,0,0,-2.52,-185.84,18.52,0,0,0,0
420,0,0,-2.51,-186.62,18.28,0,0,0,0
421,0,0,-2.45,-187.39,18.03,0,0,0,0
422,0,0,-2.43,-188.15,17.78,0,0,0,0
423,0,0,-2.43,-188.89,17.52,0,0,0,0
424,0,0,-2.43,-189.62,17.26,0,0,0,0
425,0,0,-2.44,-190.33,16.99,0,0,0,0
426,0,0,-2.43,-191.03,16.71,0,0,0,0
427,0,0,-2.43,-191.72,16.42,0,0,0,0
428,0,0,-2.45,-192.40,16.12,0,0,0,0
429,0,0,-2.48,-193.06,15.82,0,0,0,0
430,0,0,-2.49,-193.71,15.51,0,0,0,0
431,0,0,-2.48,-194.35,15.20,0,0,0,0
432,0,0,-2.44,-194.98,14.88,0,0,0,0
433,0,0,-2.43,-195.60,14.54,0,0,0,0
434,0,0,-2.43,-196.21,14.21,0,0,0,0
435,0,0,-2.43,-196.80,13.86,0,0,0,0
436,0,0,-2.44,-197.39,13.51,0,0,0,0
437,0,0,-2.45,-197.96,13.15,0,0,0,0
438,0,0,-2.45,-198.53,12.78,0,0,0,0
439,0,0,-2.44,-199.09,12.40,0,0,0,0
440,0,0,-2.44,-199.63,12.02,0,0,0,0
441,0,0,-2.44,-200.17,11.63,0,0,0,0
442,0,0,-2.43,-200.70,11.23,0,0,0,0
443,0,0,-2.43,-201.22,10.82,0,0,0,0
444,0,0,-2.44,-201.73,10.41,0,0,0,0
445,0,0,-2.44,-202.23,9.98,0,0,0,0
446,0,0,-2.43,-202.72,9.55,0,0,0,0
447,0,0,-2.43,-203.21,9.11,0,0,0,0
448,0,0,-2.43,-203.69,8.67,0,0,0,0
449,0,0,-2.43,-204.16,8.21,0,0,0,0
450,0,0,-2.43,-204.63,7.75,0,0,0,0
451,0,0,-2.43,-205.09,7.28,0,0,0,0
452,0,0,-2.43,-205.54,6.80,0,0,0,0
453,0,0,-2.43,-205.99,6.31,0,0,0,0
454,0,0,-2.44,-206.43,5.81,0,0,0,0
455,0,0,-2.44,-206.86,5.31,0,0,0,0
456,0,0,-2.44,-207.29,4.79,0,0,0,0
457,0,0,-2.43,-207.71,4.27,0,0,0,0
458,0,0,-2.43,-208.13,3.74,0,0,0,0
459,0,0,-2.43,-208.54,3.20,0,0,0,0
460,0,0,-2.44,-208.95,2.65,0,0,0,0
461,0,0,-2.44,-209.36,2.10,0,0,0,0
462,0,0,-2.43,-209.76,1.53,0,0,0,0
463,0,0,-2.43,-210.16,0.96,0,0,0,0
464,0,0,-2.44,-210.55,0.37,0,0,0,0
465,0,0,-2.44,-210.94,-0.22,0,0,0,0
466,0,0,-2.45,-211.33,-0.82,0,0,0,0
467,0,0,-2.46,-211.72,-1.43,0,0,0,0
468,0,0,-2.46,-212.10,-2.05,0,0,0,0
469,0,0,-3.38,2.02,-66.84,0,0,0,0
470,0,0,-3.39,2.02,-66.18,0,0,0,0
471,0,0,-3.26,2.02,-65.51,0,0,0,0
472,0,0,-3.20,2.01,-64.81,0,0,0,0
473,0,0,-3.50,2.01,-64.10,0,0,0,0
474,0,0,-3.55,2.01,-63.38,0,0,0,0
475,0,0,-3.50,2.01,-62.64,0,0,0,0
476,0,0,-3.42,2.00,-61.88,0,0,0,0
477,0,0,-3.45,2.00,-61.11,0,0,0,0
478,0,0,-3.63,1.99,-60.32,0,0,0,0
479,0,0,-3.61,1.98,-59.52,0,0,0,0
480,0,0,-3.40,1.98,-58.70,0,0,0,0
481,0,0,-3.19,1.97,-57.87,0,0,0,0
482,0,0,-3.20,1.96,-57.03,0,0,0,0
483,0,0,-3.79,1.95,-56.17,0,0,0,0
484,0,0,-3.87,1.94,-55.30,0,0,0,0
485,0,0,-3.87,1.94,-54.41,0,0,0,0
486,0,0,-3.54,1.93,-53.52,0,0,0,0
487,0,0,-3.06,1.92,-52.61,0,0,0,0
488,0,0,-3.26,1.90,-51.69,0,0,0,0
489,0,0,-4.00,1.89,-50.75,0,0,0,0
490,0,0,-3.46,1.88,-49.81,0,0,0,0
491,0,0,-3.45,1.87,-48.86,0,0,0,0
492,0,0,-4.06,1.86,-47.89,0,0,0,0
493,0,0,-3.32,1.85,-46.91,0,0,0,0
494,0,0,-3.46,1.83,-45.93,0,0,0,0
495,0,0,-4.61,1.82,-44.94,0,0,0,0
496,0,0,-3.76,1.81,-43.93,0,0,0,0
497,0,0,-5.74,1.79,-42.92,0,0,0,0
498,0,0,-2.49,1.78,-41.90,0,0,0,0
499,0,0,-2.49,1.77,-40.87,0,0,0,0
500,0,0,-2.47,1.75,-39.83,0,0,0,0
501,0,0,-3.02,1.74,-38.78,0,0,0,0
502,0,0,-3.09,1.72,-37.73,0,0,0,0
503,0,0,-4.36,1.71,-36.67,0,0,0,0
504,0,0,-3.58,1.69,-35.61,0,0,0,0
505,0,0,-3.50,1.68,-34.53,0,0,0,0
506,0,0,-3.06,1.66,-33.45,0,0,0,0
507,0,0,-3.76,1.65,-32.37,0,0,0,0
508,0,0,-3.93,1.63,-31.28,0,0,0,0
509,0,0,-4.31,1.62,-30.19,0,0,0,0
510,0,0,-2.61,1.60,-29.09,0,0,0,0
511,0,0,-3.35,1.59,-27.98,0,0,0,0
512,0,0,-2.62,1.57,-26.87,0,0,0,0
513,0,0,-2.76,1.56,-25.76,0,0,0,0
514,0,0,-2.57,1.54,-24.65,0,0,0,0
515,0,0,-3.40,1.53,-23.53,0,0,0,0
516,0,0,-2.79,1.51,-22.41,0,0,0,0
517,0,0,-2.82,1.50,-21.29,0,0,0,0
518,0,0,-2.76,1.48,-20.16,0,0,0,0
519,0,0,-2.49,1.47,-19.03,0,0,0,0
520,0,0,-2.87,1.45,-17.90,0,0,0,0
521,0,0,-2.60,1.44,-16.77,0,0,0,0
522,0,0,-2.75,1.43,-15.64,0,0,0,0
523,0,0,-2.93,1.41,-14.51,0,0,0,0
524,0,0,-3.47,1.40,-13.38,0,0,0,0
525,0,0,-3.22,1.39,-12.25,0,0,0,0
526,0,0,-5.20,1.37,-11.12,0,0,0,0
527,0,0,-3.76,1.36,-9.99,0,0,0,0
528,0,0,-3.99,1.35,-8.86,0,0,0,0
529,0,0,-2.85,1.33,-7.74,0,0,0,0
530,0,0,-2.44,1.32,-6.61,0,0,0,0
531,0,0,-2.72,1.31,-5.49,0,0,0,0
532,0,0,-2.56,1.30,-4.37,0,0,0,0
533,0,0,-2.43,1.29,-3.25,0,0,0,0
534,0,0,-2.42,1.28,-2.13,0,0,0,0
535,0,0,-2.43,1.27,-1.02,0,0,0,0
536,0,0,-2.80,1.26,0.09,0,0,0,0
537,0,0,-3.31,1.25,1.19,0,0,0,0
538,0,0,-3.01,1.24,2.29,0,0,0,0
539,0,0,-4.40,1.24,3.38,0,0,0,0
540,0,0,-3.58,1.23,4.47,0,0,0,0
541,0,0,-3.28,1.22,5.56,0,0,0,0
542,0,0,-3.45,1.22,6.63,0,0,0,0
543,0,0,-2.92,1.21,7.71,0,0,0,0
544,0,0,-2.79,1.20,8.77,0,0,0,0
545,0,0,-3.48,1.20,9.83,0,0,0,0
546,0,0,-3.02,1.20,10.89,0,0,0,0
547,0,0,-2.94,1.19,11.93,0,0,0,0
548,0,0,-2.54,1.19,12.97,0,0,0,0
549,0,0,-2.53,1.19,14.00,0,0,0,0
550,0,0,-3.07,1.19,15.02,0,0,0,0
551,0,0,-2.81,1.19,16.03,0,0,0,0
552,0,0,-2.48,-245.78,-138.72,0,0,0,0
553,0,0,-2.51,-247.52,-139.06,0,0,0,0
554,0,0,-2.45,-249.22,-139.36,0,0,0,0
555,0,0,-2.51,-250.88,-139.60,0,0,0,0
556,0,0,-2.50,-252.50,-139.79,0,0,0,0
557,0,0,-2.46,-254.08,-139.93,0,0,0,0
558,0,0,-2.45,-255.63,-140.02,0,0,0,0
559,0,0,-2.61,-257.14,-140.07,0,0,0,0
560,0,0,-2.45,-258.62,-140.07,0,0,0,0
561,0,0,-2.44,-260.06,-140.03,0,0,0,0
562,0,0,-2.46,-261.46,-139.94,0,0,0,0
563,0,0,-2.69,-262.83,-139.81,0,0,0,0
564,0,0,-2.43,-264.16,-139.64,0,0,0,0
565,0,0,-2.53,-265.46,-139.42,0,0,0,0
566,0,0,-2.50,-266.72,-139.17,0,0,0,0
567,0,0,-2.44,-267.95,-138.88,0,0,0,0
568,0,0,-2.51,-269.15,-138.55,0,0,0,0
569,0,0,-2.80,-270.31,-138.18,0,0,0,0
570,0,0,-2.44,-271.44,-137.78,0,0,0,0
571,0,0,-2.45,-272.54,-137.34,0,0,0,0
572,0,0,-2.67,-273.61,-136.87,0,0,0,0
573,0,0,-2.50,-274.64,-136.37,0,0,0,0
574,0,0,-2.56,-275.65,-135.83,0,0,0,0
575,0,0,-2.49,-276.62,-135.26,0,0,0,0
576,0,0,-2.54,-277.57,-134.66,0,0,0,0
577,0,0,-2.55,-278.48,-134.04,0,0,0,0
578,0,0,-2.43,-279.36,-133.38,0,0,0,0
579,0,0,-2.45,-280.22,-132.70,0,0,0,0
580,0,0,-2.44,-281.04,-131.99,0,0,0,0
581,0,0,-2.45,-281.84,-131.26,0,0,0,0
582,0,0,-2.47,-282.61,-130.50,0,0,0,0
583,0,0,-2.47,-283.35,-129.72,0,0,0,0
584,0,0,-2.51,-284.07,-128.92,0,0,0,0
585,0,0,-2.54,-284.75,-128.09,0,0,0,0
586,0,0,-2.58,-285.41,-127.25,0,0,0,0
587,0,0,-2.57,-286.05,-126.38,0,0,0,0
588,0,0,-2.51,-286.66,-125.50,0,0,0,0
589,0,0,-2.55,-287.24,-124.60,0,0,0,0
590,0,0,-2.51,-287.80,-123.68,0,0,0,0
591,0,0,-2.54,-288.33,-122.75,0,0,0,0
592,0,0,-2.47,-288.84,-121.80,0,0,0,0
593,0,0,-2.65,-289.33,-120.84,0,0,0,0
594,0,0,-2.70,-289.79,-119.87,0,0,0,0
595,0,0,-2.53,-290.23,-118.89,0,0,0,0
596,0,0,-2.77,-290.64,-117.89,0,0,0,0
597,0,0,-2.52,-291.03,-116.89,0,0,0,0
598,0,0,-2.47,-291.41,-115.87,0,0,0,0
599,0,0,-2.44,-291.75,-114.85,0,0,0,0
600,0,0,-2.49,-292.08,-113.83,0,0,0,0
601,0,0,-2.52,-292.39,-112.79,0,0,0,0
602,0,0,-2.50,-292.68,-111.76,0,0,0,0
603,0,0,-2.49,-292.94,-110.72,0,0,0,0
604,0,0,-2.55,-293.19,-109.67,0,0,0,0
605,0,0,-2.53,-293.42,-108.63,0,0,0,0
606,0,0,-2.59,-293.62,-107.58,0,0,0,0
607,0,0,-2.51,-293.81,-106.53,0,0,0,0
608,0,0,-2.47,-293.98,-105.49,0,0,0,0
609,0,0,-2.46,-294.14,-104.45,0,0,0,0
610,0,0,-2.45,-294.27,-103.41,0,0,0,0
611,0,0,-2.41,-294.39,-102.37,0,0,0,0
612,0,0,-2.43,-294.49,-101.34,0,0,0,0
613,0,0,-2.46,-294.58,-100.32,0,0,0,0
614,0,0,-2.22,-294.65,-99.30,0,0,0,0
615,0,0,-2.40,-294.70,-98.29,0,0,0,0
616,0,0,-2.37,-294.74,-97.29,0,0,0,0
617,0,0,-2.37,-294.74,-97.29,0,0,0,0
618,0,0,-2.40,-294.69,-96.49,0,0,0,0
619,0,0,-2.46,-294.61,-95.67,0,0,0,0
620,0,0,-2.45,-294.50,-94.85,0,0,0,0
621,0,0,-2.48,-294.36,-94.03,0,0,0,0
622,0,0,-2.51,-294.20,-93.20,0,0,0,0
623,0,0,-2.51,-294.02,-92.36,0,0,0,0
624,0,0,-2.50,-293.81,-91.51,0,0,0,0
625,0,0,-2.51,-293.57,-90.66,0,0,0,0
626,0,0,-2.49,-293.31,-89.81,0,0,0,0
627,0,0,-2.49,-293.02,-88.94,0,0,0,0
628,0,0,-2.60,-292.71,-88.08,0,0,0,0
629,0,0,-2.48,-292.38,-87.21,0,0,0,0
630,0,0,-2.53,-292.03,-86.33,0,0,0,0
631,0,0,-2.03,-291.65,-85.45,0,0,0,0
632,0,0,-1.79,-291.26,-84.56,0,0,0,0
633,0,0,-1.94,-290.84,-83.67,0,0,0,0
634,0,0,-0.90,-290.40,-82.78,0,0,0,0
635,0,0,-0.14,-289.95,-81.89,0,0,0,0
636,0,0,-1.07,-289.47,-80.99,0,0,0,0
637,0,0,-0.04,-288.98,-80.08,0,0,0,0
638,0,0,-1.18,-288.47,-79.18,0,0,0,0
639,0,0,-2.16,-287.94,-78.27,0,0,0,0
640,0,0,-2.83,-287.39,-77.36,0,0,0,0
641,0,0,-1.94,-286.83,-76.44,0,0,0,0
642,0,0,-0.76,-286.25,-75.53,0,0,0,0
643,0,0,-0.13,-285.66,-74.61,0,0,0,0
644,0,0,-0.78,-285.05,-73.69,0,0,0,0
645,0,0,-0.89,-284.43,-72.77,0,0,0,0
646,0,0,-0.38,-283.79,-71.85,0,0,0,0
647,0,0,-2.01,-283.14,-70.93,0,0,0,0
648,0,0,-1.32,-282.48,-70.01,0,0,0,0
649,0,0,-2.53,-281.81,-69.08,0,0,0,0
650,0,0,-2.58,-281.12,-68.16,0,0,0,0
651,0,0,-2.49,-280.42,-67.23,0,0,0,0
652,0,0,-2.51,-279.72,-66.31,0,0,0,0
653,0,0,-2.49,-279.00,-65.39,0,0,0,0
654,0,0,-2.49,-278.27,-64.46,0,0,0,0
655,0,0,-2.44,-277.54,-63.54,0,0,0,0
656,0,0,-2.43,-276.79,-62.62,0,0,0,0
657,0,0,-2.50,-276.04,-61.70,0,0,0,0
658,0,0,-2.43,-275.28,-60.78,0,0,0,0
659,0,0,-2.52,-274.52,-59.86,0,0,0,0
660,0,0,-2.50,-273.74,-58.95,0,0,0,0
661,0,0,-2.45,-272.97,-58.03,0,0,0,0
662,0,0,-2.45,-272.18,-57.12,0,0,0,0
663,0,0,-2.47,-271.40,-56.22,0,0,0,0
664,0,0,-2.48,-270.60,-55.31,0,0,0,0
665,0,0,-2.45,-269.81,-54.41,0,0,0,0
666,0,0,-2.59,-269.01,-53.51,0,0,0,0
667,0,0,-2.40,-268.21,-52.61,0,0,0,0
668,0,0,-2.47,-267.40,-51.72,0,0,0,0
669,0,0,-2.43,-266.60,-50.83,0,0,0,0
670,0,0,-2.49,-265.79,-49.95,0,0,0,0
671,0,0,-2.47,-264.99,-49.07,0,0,0,0
672,0,0,-2.62,-264.18,-48.19,0,0,0,0
673,0,0,-2.56,-263.38,-47.32,0,0,0,0
674,0,0,-2.53,-262.57,-46.46,0,0,0,0
675,0,0,-2.54,-261.77,-45.60,0,0,0,0
676,0,0,-2.54,-260.97,-44.74,0,0,0,0
677,0,0,-2.53,-260.17,-43.89,0,0,0,0
678,0,0,-2.50,-259.38,-43.05,0,0,0,0
679,0,0,-2.47,-258.59,-42.21,0,0,0,0
680,0,0,-2.46,-257.80,-41.38,0,0,0,0
681,0,0,-2.48,-257.02,-40.55,0,0,0,0
682,0,0,-2.47,-256.25,-39.73,0,0,0,0
683,0,0,-2.50,-255.48,-38.92,0,0,0,0
684,0,0,-2.54,-254.72,-38.12,0,0,0,0
685,0,0,-2.50,-253.96,-37.32,0,0,0,0
686,0,0,-2.49,-253.21,-36.53,0,0,0,0
687,0,0,-2.48,-252.47,-35.75,0,0,0,0
688,0,0,-2.50,-251.74,-34.98,0,0,0,0
689,0,0,-2.53,-251.02,-34.21,0,0,0,0
690,0,0,-2.56,-250.30,-33.45,0,0,0,0
691,0,0,-2.58,-249.60,-32.71,0,0,0,0
692,0,0,-2.54,-248.91,-31.97,0,0,0,0
693,0,0,-2.49,-248.23,-31.24,0,0,0,0
694,0,0,-2.47,-247.56,-30.52,0,0,0,0
695,0,0,-2.47,-246.90,-29.80,0,0,0,0
696,0,0,-2.53,-246.26,-29.10,0,0,0,0
697,0,0,-2.54,-245.63,-28.41,0,0,0,0
698,0,0,-2.51,-245.01,-27.73,0,0,0,0
699,0,0,-2.53,-244.41,-27.06,0,0,0,0
700,0,0,-2.55,-243.82,-26.40,0,0,0,0
701,0,0,-2.52,-243.25,-25.75,0,0,0,0
702,0,0,-2.51,-242.70,-25.11,0,0,0,0
703,0,0,-2.51,-242.16,-24.48,0,0,0,0
704,0,0,-2.50,-241.64,-23.87,0,0,0,0
705,0,0,-2.55,-241.13,-23.26,0,0,0,0
706,0,0,-2.56,-240.65,-22.67,0,0,0,0
707,0,0,-2.52,-240.18,-22.09,0,0,0,0
708,0,0,-2.50,-239.73,-21.52,0,0,0,0
709,0,0,-2.49,-239.30,-20.97,0,0,0,0
710,0,0,-2.52,-238.90,-20.43,0,0,0,0
711,0,0,-2.52,-238.51,-19.90,0,0,0,0
712,0,0,-2.53,-238.14,-19.38,0,0,0,0
713,0,0,-2.52,-237.80,-18.88,0,0,0,0
714,0,0,-2.81,1.19,16.03,0,0,0,0
715,0,0,-2.92,0.93,16.41,0,0,0,0
716,0,0,-3.17,0.64,16.77,0,0,0,0
717,0,0,-2.79,0.32,17.12,0,0,0,0
718,0,0,-2.81,-0.02,17.46,0,0,0,0
719,0,0,-2.79,-0.40,17.79,0,0,0,0
720,0,0,-2.83,-0.80,18.11,0,0,0,0
721,0,0,-2.83,-1.23,18.42,0,0,0,0
722,0,0,-2.79,-1.68,18.72,0,0,0,0
723,0,0,-2.74,-2.16,19.00,0,0,0,0
724,0,0,-2.81,-2.67,19.28,0,0,0,0
725,0,0,-3.06,-3.20,19.55,0,0,0,0
726,0,0,-3.01,-3.75,19.81,0,0,0,0
727,0,0,-2.76,-4.33,20.05,0,0,0,0
728,0,0,-2.75,-4.94,20.29,0,0,0,0
729,0,0,-3.52,-5.56,20.52,0,0,0,0
730,0,0,-2.84,-6.21,20.74,0,0,0,0
731,0,0,-3.67,-6.89,20.95,0,0,0,0
732,0,0,-3.01,-7.58,21.15,0,0,0,0
733,0,0,-2.70,-8.30,21.35,0,0,0,0
734,0,0,-3.67,-9.04,21.53,0,0,0,0
735,0,0,-3.04,-9.80,21.71,0,0,0,0
736,0,0,-2.63,-10.58,21.87,0,0,0,0
737,0,0,-2.57,-11.38,22.03,0,0,0,0
738,0,0,-2.51,-12.20,22.18,0,0,0,0
739,0,0,-2.46,-13.03,22.33,0,0,0,0
740,0,0,-2.47,-13.89,22.46,0,0,0,0
741,0,0,-2.45,-14.77,22.59,0,0,0,0
742,0,0,-2.44,-15.66,22.71,0,0,0,0
743,0,0,-2.44,-16.57,22.82,0,0,0,0
744,0,0,-2.45,-17.50,22.93,0,0,0,0
745,0,0,-2.46,-18.45,23.03,0,0,0,0
746,0,0,-2.46,-19.41,23.12,0,0,0,0
747,0,0,-2.53,-20.39,23.21,0,0,0,0
748,0,0,-2.59,-21.38,23.29,0,0,0,0
749,0,0,-2.65,-22.39,23.36,0,0,0,0
750,0,0,-2.67,-23.41,23.43,0,0,0,0
751,0,0,-2.67,-24.44,23.49,0,0,0,0
752,0,0,-2.69,-25.49,23.55,0,0,0,0
753,0,0,-2.71,-26.56,23.60,0,0,0,0
754,0,0,-2.74,-27.63,23.64,0,0,0,0
755,0,0,-2.75,-28.72,23.68,0,0,0,0
756,0,0,-2.82,-29.82,23.71,0,0,0,0
757,0,0,-2.46,-30.93,23.74,0,0,0,0
758,0,0,-2.74,-32.06,23.77,0,0,0,0
759,0,0,-2.84,-33.19,23.79,0,0,0,0
760,0,0,-2.75,-34.33,23.80,0,0,0,0
761,0,0,-2.43,-35.49,23.81,0,0,0,0
762,0,0,-2.75,-36.65,23.82,0,0,0,0
763,0,0,-2.76,-37.82,23.82,0,0,0,0
764,0,0,-3.05,-39.00,23.82,0,0,0,0
765,0,0,-2.47,-40.19,23.81,0,0,0,0
766,0,0,-2.53,-41.39,23.80,0,0,0,0
767,0,0,-2.55,-42.59,23.79,0,0,0,0
768,0,0,-2.53,-43.80,23.77,0,0,0,0
769,0,0,-3.06,-45.02,23.75,0,0,0,0
770,0,0,-2.44,-46.25,23.73,0,0,0,0
771,0,0,-2.83,-47.47,23.71,0,0,0,0
772,0,0,-2.67,-48.71,23.68,0,0,0,0
773,0,0,-2.43,-49.95,23.65,0,0,0,0
774,0,0,-2.47,-51.19,23.61,0,0,0,0
775,0,0,-2.65,-52.44,23.58,0,0,0,0
776,0,0,-2.43,-53.69,23.54,0,0,0,0
777,0,0,-2.42,-54.94,23.50,0,0,0,0
778,0,0,-2.47,-56.20,23.46,0,0,0,0
779,0,0,-2.75,-57.46,23.42,0,0,0,0
780,0,0,-2.74,-58.72,23.38,0,0,0,0
781,0,0,-2.46,-59.98,23.33,0,0,0,0
782,0,0,-2.94,-61.24,23.28,0,0,0,0
783,0,0,-2.42,-62.50,23.24,0,0,0,0
784,0,0,-2.43,-63.77,23.19,0,0,0,0
785,0,0,-2.42,-65.03,23.14,0,0,0,0
786,0,0,-2.54,-66.29,23.09,0,0,0,0
787,0,0,-3.19,-67.55,23.04,0,0,0,0
788,0,0,-2.69,-68.81,22.99,0,0,0,0
789,0,0,-2.42,-70.07,22.94,0,0,0,0
790,0,0,-2.43,-71.32,22.89,0,0,0,0
791,0,0,-2.53,-72.57,22.84,0,0,0,0
792,0,0,-2.47,-73.82,22.79,0,0,0,0
793,0,0,-2.72,-75.06,22.75,0,0,0,0
794,0,0,-2.42,-76.30,22.70,0,0,0,0
795,0,0,-2.51,-77.54,22.65,0,0,0,0
796,0,0,-2.56,-78.77,22.60,0,0,0,0
797,0,0,-2.42,-79.99,22.56,0,0,0,0
798,0,0,-2.42,-81.21,22.52,0,0,0,0
799,0,0,-2.44,-82.43,22.48,0,0,0,0
800,0,0,-2.42,-83.63,22.44,0,0,0,0
801,0,0,-2.42,-84.83,22.40,0,0,0,0
802,0,0,-2.42,-86.02,22.36,0,0,0,0
803,0,0,-2.42,-87.21,22.33,0,0,0,0
804,0,0,-2.84,-88.38,22.30,0,0,0,0
805,0,0,-3.11,-89.55,22.27,0,0,0,0
806,0,0,-2.48,-90.70,22.24,0,0,0,0
807,0,0,-2.42,-91.85,22.22,0,0,0,0
808,0,0,-2.42,-92.98,22.19,0,0,0,0
809,0,0,-2.42,-94.11,22.18,0,0,0,0
810,0,0,-2.42,-95.23,22.16,0,0,0,0
811,0,0,-2.42,-96.33,22.15,0,0,0,0
812,0,0,-2.42,-97.42,22.14,0,0,0,0
813,0,0,-2.42,-98.50,22.14,0,0,0,0
814,0,0,-2.42,-99.57,22.14,0,0,0,0
815,0,0,-2.42,-100.62,22.14,0,0,0,0
816,0,0,-2.42,-101.66,22.15,0,0,0,0
817,0,0,-2.42,-102.69,22.16,0,0,0,0
818,0,0,-2.42,-103.70,22.18,0,0,0,0
819,0,0,-2.42,-104.69,22.20,0,0,0,0
820,0,0,-2.42,-105.67,22.23,0,0,0,0
821,0,0,-2.42,-106.64,22.26,0,0,0,0
822,0,0,-2.42,-107.59,22.30,0,0,0,0
823,0,0,-2.52,-237.80,-18.88,0,0,0,0
824,0,0,-2.47,-237.18,-17.54,0,0,0,0
825,0,0,-2.50,-236.56,-16.23,0,0,0,0
826,0,0,-2.59,-235.92,-14.94,0,0,0,0
827,0,0,-2.49,-235.29,-13.67,0,0,0,0
828,0,0,-2.49,-234.64,-12.42,0,0,0,0
829,0,0,-2.47,-233.99,-11.20,0,0,0,0
830,0,0,-2.48,-233.34,-9.99,0,0,0,0
831,0,0,-2.49,-232.68,-8.81,0,0,0,0
832,0,0,-2.48,-232.01,-7.65,0,0,0,0
833,0,0,-2.49,-231.34,-6.51,0,0,0,0
834,0,0,-2.56,-230.66,-5.38,0,0,0,0
835,0,0,-2.52,-229.98,-4.29,0,0,0,0
836,0,0,-2.56,-229.29,-3.21,0,0,0,0
837,0,0,-2.52,-228.60,-2.15,0,0,0,0
838,0,0,-2.61,-227.90,-1.11,0,0,0,0
839,0,0,-2.52,-227.19,-0.09,0,0,0,0
840,0,0,-2.53,-226.48,0.91,0,0,0,0
841,0,0,-2.50,-225.77,1.89,0,0,0,0
842,0,0,-2.48,-225.05,2.85,0,0,0,0
843,0,0,-2.48,-224.32,3.79,0,0,0,0
844,0,0,-2.49,-223.59,4.71,0,0,0,0
845,0,0,-2.51,-222.86,5.62,0,0,0,0
846,0,0,-2.51,-222.12,6.50,0,0,0,0
847,0,0,-2.52,-221.37,7.37,0,0,0,0
848,0,0,-2.49,-220.62,8.21,0,0,0,0
849,0,0,-2.49,-219.87,9.04,0,0,0,0
850,0,0,-2.50,-219.11,9.86,0,0,0,0
851,0,0,-2.48,-218.34,10.65,0,0,0,0
852,0,0,-2.47,-217.57,11.43,0,0,0,0
853,0,0,-2.48,-216.80,12.18,0,0,0,0
854,0,0,-2.48,-216.02,12.93,0,0,0,0
855,0,0,-2.49,-215.24,13.65,0,0,0,0
856,0,0,-2.48,-214.45,14.36,0,0,0,0
857,0,0,-2.48,-213.66,15.05,0,0,0,0
858,0,0,-2.48,-212.86,15.72,0,0,0,0
859,0,0,-2.48,-212.06,16.38,0,0,0,0
860,0,0,-2.48,-211.26,17.02,0,0,0,0
861,0,0,-2.47,-210.45,17.65,0,0,0,0
862,0,0,-2.47,-209.64,18.26,0,0,0,0
863,0,0,-2.48,-208.82,18.85,0,0,0,0
864,0,0,-2.48,-208.00,19.43,0,0,0,0
865,0,0,-2.46,-207.17,20.00,0,0,0,0
866,0,0,-2.48,-206.34,20.54,0,0,0,0
867,0,0,-2.50,-205.51,21.08,0,0,0,0
868,0,0,-2.58,-204.67,21.60,0,0,0,0
869,0,0,-2.62,-203.83,22.10,0,0,0,0
870,0,0,-2.50,-202.99,22.59,0,0,0,0
871,0,0,-2.46,-202.14,23.06,0,0,0,0
872,0,0,-2.48,-201.29,23.53,0,0,0,0
873,0,0,-2.49,-200.43,23.97,0,0,0,0
874,0,0,-2.47,-199.58,24.41,0,0,0,0
875,0,0,-2.51,-198.71,24.83,0,0,0,0
876,0,0,-2.59,-197.85,25.23,0,0,0,0
877,0,0,-2.46,-196.98,25.63,0,0,0,0
878,0,0,-2.47,-196.11,26.01,0,0,0,0
879,0,0,-2.46,-195.23,26.37,0,0,0,0
880,0,0,-2.46,-194.35,26.73,0,0,0,0
881,0,0,-2.46,-193.47,27.07,0,0,0,0
882,0,0,-2.46,-192.58,27.40,0,0,0,0
883,0,0,-2.46,-191.70,27.72,0,0,0,0
884,0,0,-2.45,-190.80,28.03,0,0,0,0
885,0,0,-2.46,-189.91,28.32,0,0,0,0
886,0,0,-2.46,-189.01,28.60,0,0,0,0
887,0,0,-2.45,-188.11,28.87,0,0,0,0
888,0,0,-2.46,-187.21,29.13,0,0,0,0
889,0,0,-2.46,-186.30,29.38,0,0,0,0
890,0,0,-2.45,-185.39,29.62,0,0,0,0
891,0,0,-2.45,-184.48,29.85,0,0,0,0
892,0,0,-2.45,-183.57,30.06,0,0,0,0
893,0,0,-2.46,-182.65,30.27,0,0,0,0
894,0,0,-2.51,-181.73,30.47,0,0,0,0
895,0,0,-2.55,-180.81,30.65,0,0,0,0
896,0,0,-2.49,-179.89,30.83,0,0,0,0
897,0,0,-2.61,-178.96,31.00,0,0,0,0
898,0,0,-2.73,-178.03,31.15,0,0,0,0
899,0,0,-2.49,-177.10,31.30,0,0,0,0
900,0,0,-2.46,-176.17,31.44,0,0,0,0
901,0,0,-2.46,-175.23,31.57,0,0,0,0
902,0,0,-2.46,-174.29,31.69,0,0,0,0
903,0,0,-2.46,-173.35,31.80,0,0,0,0
904,0,0,-2.45,-172.41,31.91,0,0,0,0
905,0,0,-2.48,-171.47,32.00,0,0,0,0
906,0,0,-2.48,-170.52,32.09,0,0,0,0
907,0,0,-2.47,-169.58,32.17,0,0,0,0
908,0,0,-2.49,-168.63,32.24,0,0,0,0
909,0,0,-2.47,-167.67,32.31,0,0,0,0
910,0,0,-2.47,-166.72,32.36,0,0,0,0
911,0,0,-2.46,-165.77,32.41,0,0,0,0
912,0,0,-2.46,-164.81,32.46,0,0,0,0
913,0,0,-2.46,-163.85,32.49,0,0,0,0
914,0,0,-3.96,-6.18,-57.76,0,0,0,0
915,0,0,-3.85,-6.21,-56.89,0,0,0,0
916,0,0,-3.83,-6.23,-55.99,0,0,0,0
917,0,0,-3.98,-6.25,-55.08,0,0,0,0
918,0,0,-4.09,-6.27,-54.14,0,0,0,0
919,0,0,-3.29,-6.29,-53.18,0,0,0,0
920,0,0,-3.64,-6.31,-52.21,0,0,0,0
921,0,0,-3.62,-6.33,-51.21,0,0,0,0
922,0,0,-3.66,-6.34,-50.20,0,0,0,0
923,0,0,-3.67,-6.36,-49.16,0,0,0,0
924,0,0,-4.04,-6.37,-48.12,0,0,0,0
925,0,0,-3.92,-6.38,-47.05,0,0,0,0
926,0,0,-3.70,-6.39,-45.98,0,0,0,0
927,0,0,-4.22,-6.41,-44.89,0,0,0,0
928,0,0,-3.60,-6.42,-43.78,0,0,0,0
929,0,0,-3.32,-6.43,-42.67,0,0,0,0
930,0,0,-3.15,-6.43,-41.54,0,0,0,0
931,0,0,-3.25,-6.44,-40.41,0,0,0,0
932,0,0,-3.03,-6.45,-39.27,0,0,0,0
933,0,0,-3.20,-6.46,-38.11,0,0,0,0
934,0,0,-4.66,-6.47,-36.96,0,0,0,0
935,0,0,-3.37,-6.48,-35.79,0,0,0,0
936,0,0,-3.26,-6.49,-34.62,0,0,0,0
937,0,0,-3.40,-6.50,-33.45,0,0,0,0
938,0,0,-4.23,-6.51,-32.27,0,0,0,0
939,0,0,-2.73,-6.52,-31.09,0,0,0,0
940,0,0,-4.37,-6.53,-29.91,0,0,0,0
941,0,0,-3.16,-6.55,-28.73,0,0,0,0
942,0,0,-2.40,-6.56,-27.55,0,0,0,0
943,0,0,-3.27,-6.57,-26.37,0,0,0,0
944,0,0,-3.68,-6.59,-25.20,0,0,0,0
945,0,0,-2.67,-6.60,-24.02,0,0,0,0
946,0,0,-3.88,-6.62,-22.85,0,0,0,0
947,0,0,-4.95,-6.64,-21.69,0,0,0,0
948,0,0,-2.84,-6.66,-20.53,0,0,0,0
949,0,0,-3.81,-6.68,-19.38,0,0,0,0
950,0,0,-4.59,-6.71,-18.23,0,0,0,0
951,0,0,-4.25,-6.73,-17.10,0,0,0,0
952,0,0,-2.83,-6.76,-15.97,0,0,0,0
953,0,0,-2.48,-6.79,-14.86,0,0,0,0
954,0,0,-4.06,-6.82,-13.75,0,0,0,0
955,0,0,-2.52,-6.86,-12.66,0,0,0,0
956,0,0,-3.02,-6.89,-11.58,0,0,0,0
957,0,0,-3.63,-6.93,-10.52,0,0,0,0
958,0,0,-2.78,-6.98,-9.47,0,0,0,0
959,0,0,-3.54,-7.02,-8.44,0,0,0,0
960,0,0,-3.37,-7.07,-7.42,0,0,0,0
961,0,0,-2.42,-7.12,-6.42,0,0,0,0
962,0,0,-3.44,-7.17,-5.44,0,0,0,0
963,0,0,-5.08,-7.22,-4.49,0,0,0,0
964,0,0,-4.79,-7.28,-3.55,0,0,0,0
965,0,0,-3.75,-7.35,-2.63,0,0,0,0
966,0,0,-2.96,-7.41,-1.73,0,0,0,0
967,0,0,-2.82,-7.48,-0.86,0,0,0,0
968,0,0,-3.31,-7.55,-0.02,0,0,0,0
969,0,0,-3.32,-7.63,0.81,0,0,0,0
970,0,0,-2.49,-7.71,1.60,0,0,0,0
971,0,0,-2.81,-7.79,2.37,0,0,0,0
972,0,0,-2.46,-7.88,3.11,0,0,0,0
973,0,0,-2.39,-7.97,3.82,0,0,0,0
974,0,0,-2.39,-8.07,4.51,0,0,0,0
975,0,0,-2.75,-8.17,5.16,0,0,0,0
976,0,0,-3.77,-8.27,5.78,0,0,0,0
977,0,0,-3.39,-8.38,6.36,0,0,0,0
978,0,0,-2.82,-8.50,6.92,0,0,0,0
979,0,0,-2.82,-8.50,6.92,0,0,0,0
980,0,0,-3.14,-8.69,7.77,0,0,0,0
981,0,0,-2.99,-8.95,8.58,0,0,0,0
982,0,0,-3.02,-9.29,9.36,0,0,0,0
983,0,0,-3.21,-9.69,10.10,0,0,0,0
984,0,0,-2.66,-10.16,10.80,0,0,0,0
985,0,0,-3.04,-10.70,11.46,0,0,0,0
986,0,0,-3.08,-11.29,12.09,0,0,0,0
987,0,0,-3.03,-11.95,12.68,0,0,0,0
988,0,0,-2.98,-12.66,13.24,0,0,0,0
989,0,0,-2.88,-13.43,13.76,0,0,0,0
990,0,0,-2.94,-14.25,14.26,0,0,0,0
991,0,0,-3.08,-15.12,14.72,0,0,0,0
992,0,0,-2.95,-16.03,15.15,0,0,0,0
993,0,0,-2.81,-17.00,15.55,0,0,0,0
994,0,0,-2.63,-18.00,15.93,0,0,0,0
995,0,0,-2.70,-19.05,16.28,0,0,0,0
996,0,0,-2.77,-20.14,16.60,0,0,0,0
997,0,0,-2.83,-21.26,16.89,0,0,0,0
998,0,0,-2.84,-22.42,17.16,0,0,0,0
999,0,0,-2.77,-23.61,17.40,0,0,0,0
1000,0,0,-2.78,-24.83,17.62,0,0,0,0
1001,0,0,-2.82,-26.07,17.82,0,0,0,0
1002,0,0,-2.87,-27.34,18.00,0,0,0,0
1003,0,0,-2.87,-28.64,18.16,0,0,0,0
1004,0,0,-2.95,-29.95,18.29,0,0,0,0
1005,0,0,-2.82,-31.28,18.41,0,0,0,0
1006,0,0,-2.85,-32.63,18.51,0,0,0,0
1007,0,0,-3.05,-33.99,18.59,0,0,0,0
1008,0,0,-2.77,-35.37,18.66,0,0,0,0
1009,0,0,-2.64,-36.75,18.71,0,0,0,0
1010,0,0,-2.96,-38.14,18.75,0,0,0,0
1011,0,0,-3.01,-39.53,18.77,0,0,0,0
1012,0,0,-2.67,-40.93,18.78,0,0,0,0
1013,0,0,-2.54,-42.33,18.78,0,0,0,0
1014,0,0,-2.53,-43.72,18.77,0,0,0,0
1015,0,0,-2.79,-45.11,18.74,0,0,0,0
1016,0,0,-2.94,-46.49,18.71,0,0,0,0
1017,0,0,-2.47,-47.86,18.67,0,0,0,0
1018,0,0,-3.03,-49.23,18.62,0,0,0,0
1019,0,0,-3.12,-50.57,18.57,0,0,0,0
1020,0,0,-2.45,-51.90,18.51,0,0,0,0
1021,0,0,-3.21,-53.22,18.44,0,0,0,0
1022,0,0,-2.69,-54.51,18.37,0,0,0,0
1023,0,0,-2.48,-55.78,18.30,0,0,0,0
1024,0,0,-2.85,-57.02,18.23,0,0,0,0
1025,0,0,-2.63,-58.24,18.15,0,0,0,0
1026,0,0,-2.64,-59.43,18.07,0,0,0,0
1027,0,0,-2.62,-60.58,18.00,0,0,0,0
1028,0,0,-2.43,-61.70,17.92,0,0,0,0
1029,0,0,-3.30,-62.79,17.85,0,0,0,0
1030,0,0,-2.62,-63.83,17.78,0,0,0,0
1031,0,0,-2.43,-64.84,17.72,0,0,0,0
1032,0,0,-2.43,-65.80,17.66,0,0,0,0
1033,0,0,-2.43,-66.71,17.60,0,0,0,0
1034,0,0,-2.42,-67.58,17.55,0,0,0,0
1035,0,0,-2.42,-68.39,17.51,0,0,0,0
1036,0,0,-2.43,-69.16,17.48,0,0,0,0
1037,0,0,-2.93,-69.87,17.46,0,0,0,0
1038,0,0,-3.12,-70.52,17.44,0,0,0,0
1039,0,0,-2.42,-71.11,17.44,0,0,0,0
1040,0,0,-2.42,-71.64,17.45,0,0,0,0
1041,0,0,-2.42,-72.11,17.47,0,0,0,0
1042,0,0,-2.43,-72.50,17.51,0,0,0,0
1043,0,0,-2.43,-72.84,17.56,0,0,0,0
1044,0,0,-2.43,-73.10,17.62,0,0,0,0
1045,0,0,-2.43,-73.10,17.62,0,0,0,0
1046,0,0,-2.43,-74.00,17.62,0,0,0,0
1047,0,0,-2.43,-74.91,17.62,0,0,0,0
1048,0,0,-2.62,-75.81,17.62,0,0,0,0
1049,0,0,-2.55,-76.72,17.61,0,0,0,0
1050,0,0,-2.54,-77.62,17.61,0,0,0,0
1051,0,0,-2.67,-78.52,17.60,0,0,0,0
1052,0,0,-2.68,-79.42,17.60,0,0,0,0
1053,0,0,-2.64,-80.32,17.59,0,0,0,0
1054,0,0,-2.53,-81.22,17.58,0,0,0,0
1055,0,0,-2.43,-82.12,17.57,0,0,0,0
1056,0,0,-2.44,-83.02,17.56,0,0,0,0
1057,0,0,-2.43,-83.92,17.55,0,0,0,0
1058,0,0,-2.43,-84.82,17.53,0,0,0,0
1059,0,0,-2.66,-85.72,17.52,0,0,0,0
1060,0,0,-2.78,-86.62,17.51,0,0,0,0
1061,0,0,-2.42,-87.53,17.49,0,0,0,0
1062,0,0,-2.43,-88.43,17.48,0,0,0,0
1063,0,0,-2.43,-89.33,17.46,0,0,0,0
1064,0,0,-2.84,-90.24,17.45,0,0,0,0
1065,0,0,-2.43,-91.14,17.43,0,0,0,0
1066,0,0,-2.43,-92.05,17.41,0,0,0,0
1067,0,0,-2.43,-92.96,17.40,0,0,0,0
1068,0,0,-2.43,-93.86,17.38,0,0,0,0
1069,0,0,-2.43,-94.78,17.36,0,0,0,0
1070,0,0,-2.43,-95.69,17.34,0,0,0,0
1071,0,0,-2.43,-96.60,17.33,0,0,0,0
1072,0,0,-2.43,-97.52,17.31,0,0,0,0
1073,0,0,-2.43,-98.44,17.29,0,0,0,0
1074,0,0,-2.43,-99.36,17.27,0,0,0,0
1075,0,0,-2.43,-100.29,17.25,0,0,0,0
1076,0,0,-2.44,-101.22,17.24,0,0,0,0
1077,0,0,-2.44,-102.15,17.22,0,0,0,0
1078,0,0,-2.45,-103.08,17.20,0,0,0,0
1079,0,0,-2.44,-104.02,17.18,0,0,0,0
1080,0,0,-2.43,-104.96,17.16,0,0,0,0
1081,0,0,-2.44,-105.90,17.15,0,0,0,0
1082,0,0,-2.44,-106.84,17.13,0,0,0,0
1083,0,0,-2.44,-107.80,17.11,0,0,0,0
1084,0,0,-2.44,-108.75,17.10,0,0,0,0
1085,0,0,-2.43,-109.71,17.08,0,0,0,0
1086,0,0,-2.43,-110.67,17.06,0,0,0,0
1087,0,0,-2.43,-111.64,17.05,0,0,0,0
1088,0,0,-2.43,-112.61,17.04,0,0,0,0
1089,0,0,-2.46,-113.58,17.02,0,0,0,0
1090,0,0,-2.45,-114.56,17.01,0,0,0,0
1091,0,0,-2.43,-115.55,17.00,0,0,0,0
1092,0,0,-2.54,-116.54,16.98,0,0,0,0
1093,0,0,-2.53,-117.53,16.97,0,0,0,0
1094,0,0,-2.44,-118.53,16.96,0,0,0,0
1095,0,0,-2.44,-119.54,16.95,0,0,0,0
1096,0,0,-2.43,-120.55,16.94,0,0,0,0
1097,0,0,-2.43,-121.56,16.94,0,0,0,0
1098,0,0,-2.44,-122.59,16.93,0,0,0,0
1099,0,0,-2.43,-123.61,16.92,0,0,0,0
1100,0,0,-2.43,-124.65,16.92,0,0,0,0
1101,0,0,-2.44,-125.69,16.92,0,0,0,0
1102,0,0,-2.45,-126.74,16.91,0,0,0,0
1103,0,0,-2.43,-127.79,16.91,0,0,0,0
1104,0,0,-2.46,-128.85,16.91,0,0,0,0
1105,0,0,-2.66,-129.92,16.92,0,0,0,0
1106,0,0,-2.46,-130.99,16.92,0,0,0,0
1107,0,0,-2.43,-132.07,16.92,0,0,0,0
1108,0,0,-2.46,-133.16,16.93,0,0,0,0
1109,0,0,-2.44,-134.25,16.93,0,0,0,0
1110,0,0,-2.50,-135.36,16.94,0,0,0,0
1111,0,0,-2.48,-136.47,16.95,0,0,0,0
1112,0,0,-2.44,-137.58,16.96,0,0,0,0
1113,0,0,-2.44,-138.71,16.98,0,0,0,0
1114,0,0,-2.44,-139.84,16.99,0,0,0,0
1115,0,0,-2.43,-140.99,17.01,0,0,0,0
1116,0,0,-2.43,-142.14,17.03,0,0,0,0
1117,0,0,-2.45,-143.30,17.05,0,0,0,0
1118,0,0,-2.44,-144.46,17.07,0,0,0,0
1119,0,0,-2.44,-145.64,17.09,0,0,0,0
1120,0,0,-2.46,-146.82,17.12,0,0,0,0
1121,0,0,-2.43,-148.02,17.15,0,0,0,0
1122,0,0,-2.43,-149.22,17.18,0,0,0,0
1123,0,0,-2.44,-150.43,17.21,0,0,0,0
1124,0,0,-2.58,-151.66,17.24,0,0,0,0
1125,0,0,-2.51,-152.89,17.28,0,0,0,0
1126,0,0,-2.46,-154.13,17.32,0,0,0,0
1127,0,0,-2.48,-155.38,17.36,0,0,0,0
1128,0,0,-2.48,-155.38,17.36,0,0,0,0
1129,0,0,-2.47,-157.18,17.27,0,0,0,0
1130,0,0,-2.45,-158.93,17.18,0,0,0,0
1131,0,0,-2.47,-160.63,17.07,0,0,0,0
1132,0,0,-2.49,-162.29,16.96,0,0,0,0
1133,0,0,-2.47,-163.90,16.84,0,0,0,0
1134,0,0,-2.47,-165.46,16.70,0,0,0,0
1135,0,0,-2.46,-166.99,16.55,0,0,0,0
1136,0,0,-2.47,-168.47,16.40,0,0,0,0
1137,0,0,-2.45,-169.91,16.23,0,0,0,0
1138,0,0,-2.47,-171.30,16.05,0,0,0,0
1139,0,0,-2.46,-172.66,15.86,0,0,0,0
1140,0,0,-2.46,-173.98,15.66,0,0,0,0
1141,0,0,-2.46,-175.26,15.45,0,0,0,0
1142,0,0,-2.47,-176.51,15.23,0,0,0,0
1143,0,0,-2.46,-177.72,15.00,0,0,0,0
1144,0,0,-2.65,-178.89,14.75,0,0,0,0
1145,0,0,-2.45,-180.03,14.49,0,0,0,0
1146,0,0,-2.52,-181.14,14.23,0,0,0,0
1147,0,0,-2.46,-182.22,13.95,0,0,0,0
1148,0,0,-2.45,-183.26,13.65,0,0,0,0
1149,0,0,-2.45,-184.27,13.35,0,0,0,0
1150,0,0,-2.45,-185.26,13.03,0,0,0,0
1151,0,0,-2.45,-186.21,12.71,0,0,0,0
1152,0,0,-2.45,-187.14,12.36,0,0,0,0
1153,0,0,-2.44,-188.04,12.01,0,0,0,0
1154,0,0,-2.55,-188.92,11.65,0,0,0,0
1155,0,0,-2.50,-189.77,11.27,0,0,0,0
1156,0,0,-2.44,-190.60,10.88,0,0,0,0
1157,0,0,-2.43,-191.41,10.47,0,0,0,0
1158,0,0,-2.43,-192.19,10.06,0,0,0,0
1159,0,0,-2.43,-192.95,9.63,0,0,0,0
1160,0,0,-2.43,-193.70,9.18,0,0,0,0
1161,0,0,-2.43,-194.42,8.73,0,0,0,0
1162,0,0,-2.43,-195.12,8.26,0,0,0,0
1163,0,0,-2.44,-195.81,7.77,0,0,0,0
1164,0,0,-2.43,-196.49,7.28,0,0,0,0
1165,0,0,-2.44,-197.14,6.77,0,0,0,0
1166,0,0,-2.44,-197.78,6.24,0,0,0,0
1167,0,0,-2.44,-198.41,5.70,0,0,0,0
1168,0,0,-2.43,-199.03,5.15,0,0,0,0
1169,0,0,-2.43,-199.64,4.58,0,0,0,0
1170,0,0,-2.44,-200.23,4.00,0,0,0,0
1171,0,0,-2.44,-200.82,3.41,0,0,0,0
1172,0,0,-2.45,-201.39,2.80,0,0,0,0
1173,0,0,-2.45,-201.96,2.17,0,0,0,0
1174,0,0,-2.44,-202.52,1.53,0,0,0,0
1175,0,0,-2.43,-203.08,0.88,0,0,0,0
1176,0,0,-2.43,-203.63,0.21,0,0,0,0
1177,0,0,-2.43,-204.18,-0.47,0,0,0,0
1178,0,0,-2.44,-204.72,-1.17,0,0,0,0
1179,0,0,-2.44,-205.26,-1.89,0,0,0,0
1180,0,0,-2.44,-205.81,-2.62,0,0,0,0
1181,0,0,-2.53,-206.35,-3.36,0,0,0,0
1182,0,0,-2.62,-206.89,-4.12,0,0,0,0
1183,0,0,-2.46,-207.43,-4.90,0,0,0,0
1184,0,0,-2.43,-207.98,-5.69,0,0,0,0
1185,0,0,-2.52,-208.53,-6.50,0,0,0,0
1186,0,0,-2.55,-209.08,-7.32,0,0,0,0
1187,0,0,-2.44,-209.64,-8.16,0,0,0,0
1188,0,0,-2.44,-210.20,-9.02,0,0,0,0
1189,0,0,-2.44,-210.78,-9.89,0,0,0,0
1190,0,0,-2.44,-211.36,-10.78,0,0,0,0
1191,0,0,-2.44,-211.95,-11.68,0,0,0,0
1192,0,0,-2.43,-212.55,-12.60,0,0,0,0
1193,0,0,-2.43,-213.16,-13.54,0,0,0,0
1194,0,0,-3.38,10.79,-57.76,0,0,0,0
1195,0,0,-3.77,10.72,-56.89,0,0,0,0
1196,0,0,-3.51,10.66,-55.99,0,0,0,0
1197,0,0,-3.36,10.60,-55.08,0,0,0,0
1198,0,0,-3.91,10.55,-54.14,0,0,0,0
1199,0,0,-3.69,10.50,-53.18,0,0,0,0
1200,0,0,-3.27,10.46,-52.21,0,0,0,0
1201,0,0,-3.44,10.42,-51.21,0,0,0,0
1202,0,0,-4.17,10.38,-50.20,0,0,0,0
1203,0,0,-3.22,10.35,-49.16,0,0,0,0
1204,0,0,-3.12,10.33,-48.12,0,0,0,0
1205,0,0,-3.28,10.30,-47.05,0,0,0,0
1206,0,0,-3.62,10.28,-45.98,0,0,0,0
1207,0,0,-3.88,10.27,-44.89,0,0,0,0
1208,0,0,-4.81,10.25,-43.78,0,0,0,0
1209,0,0,-3.55,10.24,-42.67,0,0,0,0
1210,0,0,-3.33,10.24,-41.54,0,0,0,0
1211,0,0,-3.84,10.23,-40.41,0,0,0,0
1212,0,0,-3.01,10.23,-39.27,0,0,0,0
1213,0,0,-3.03,10.23,-38.11,0,0,0,0
1214,0,0,-2.95,10.23,-36.96,0,0,0,0
1215,0,0,-3.18,10.24,-35.79,0,0,0,0
1216,0,0,-2.73,10.25,-34.62,0,0,0,0
1217,0,0,-2.78,10.25,-33.45,0,0,0,0
1218,0,0,-4.32,10.27,-32.27,0,0,0,0
1219,0,0,-5.69,10.28,-31.09,0,0,0,0
1220,0,0,-3.88,10.29,-29.91,0,0,0,0
1221,0,0,-3.23,10.31,-28.73,0,0,0,0
1222,0,0,-3.83,10.32,-27.55,0,0,0,0
1223,0,0,-2.82,10.34,-26.37,0,0,0,0
1224,0,0,-3.03,10.36,-25.20,0,0,0,0
1225,0,0,-2.52,10.38,-24.02,0,0,0,0
1226,0,0,-3.12,10.40,-22.85,0,0,0,0
1227,0,0,-2.46,10.42,-21.69,0,0,0,0
1228,0,0,-3.53,10.44,-20.53,0,0,0,0
1229,0,0,-2.50,10.46,-19.38,0,0,0,0
1230,0,0,-4.27,10.48,-18.23,0,0,0,0
1231,0,0,-2.77,10.50,-17.10,0,0,0,0
1232,0,0,-3.20,10.52,-15.97,0,0,0,0
1233,0,0,-3.47,10.54,-14.86,0,0,0,0
1234,0,0,-3.01,10.56,-13.75,0,0,0,0
1235,0,0,-4.12,10.58,-12.66,0,0,0,0
1236,0,0,-3.99,10.59,-11.58,0,0,0,0
1237,0,0,-3.77,10.61,-10.52,0,0,0,0
1238,0,0,-3.62,10.63,-9.47,0,0,0,0
1239,0,0,-3.74,10.64,-8.44,0,0,0,0
1240,0,0,-2.58,10.65,-7.42,0,0,0,0
1241,0,0,-3.11,10.66,-6.42,0,0,0,0
1242,0,0,-2.89,10.67,-5.44,0,0,0,0
1243,0,0,-3.21,10.68,-4.49,0,0,0,0
1244,0,0,-4.81,10.68,-3.55,0,0,0,0
1245,0,0,-3.19,10.68,-2.63,0,0,0,0
1246,0,0,-4.00,10.69,-1.73,0,0,0,0
1247,0,0,-3.71,10.68,-0.86,0,0,0,0
1248,0,0,-3.22,10.68,-0.02,0,0,0,0
1249,0,0,-3.22,10.67,0.81,0,0,0,0
1250,0,0,-3.00,10.66,1.60,0,0,0,0
1251,0,0,-2.76,10.65,2.37,0,0,0,0
1252,0,0,-2.65,10.63,3.11,0,0,0,0
1253,0,0,-3.33,10.61,3.82,0,0,0,0
1254,0,0,-4.41,10.58,4.51,0,0,0,0
1255,0,0,-3.37,10.56,5.16,0,0,0,0
1256,0,0,-2.77,10.52,5.78,0,0,0,0
1257,0,0,-2.51,10.49,6.36,0,0,0,0
1258,0,0,-2.44,10.45,6.92,0,0,0,0
1259,0,0,-2.51,-75.46,29.40,0,0,0,0
1260,0,0,-2.43,-74.75,29.36,0,0,0,0
1261,0,0,-2.43,-74.02,29.33,0,0,0,0
1262,0,0,-2.51,-73.25,29.30,0,0,0,0
1263,0,0,-2.43,-72.47,29.27,0,0,0,0
1264,0,0,-2.43,-71.66,29.25,0,0,0,0
1265,0,0,-2.42,-70.83,29.24,0,0,0,0
1266,0,0,-2.42,-69.97,29.23,0,0,0,0
1267,0,0,-2.42,-69.09,29.22,0,0,0,0
1268,0,0,-2.42,-68.20,29.22,0,0,0,0
1269,0,0,-3.12,-67.28,29.22,0,0,0,0
1270,0,0,-2.88,-66.34,29.22,0,0,0,0
1271,0,0,-2.42,-65.38,29.23,0,0,0,0
1272,0,0,-2.83,-64.41,29.24,0,0,0,0
1273,0,0,-3.12,-63.42,29.25,0,0,0,0
1274,0,0,-2.98,-62.41,29.27,0,0,0,0
1275,0,0,-2.42,-61.38,29.29,0,0,0,0
1276,0,0,-2.42,-60.34,29.31,0,0,0,0
1277,0,0,-3.04,-59.29,29.33,0,0,0,0
1278,0,0,-2.61,-58.23,29.35,0,0,0,0
1279,0,0,-2.43,-57.15,29.37,0,0,0,0
1280,0,0,-2.42,-56.06,29.40,0,0,0,0
1281,0,0,-2.42,-54.96,29.43,0,0,0,0
1282,0,0,-2.42,-53.84,29.45,0,0,0,0
1283,0,0,-2.49,-52.72,29.48,0,0,0,0
1284,0,0,-2.46,-51.59,29.51,0,0,0,0
1285,0,0,-2.71,-50.46,29.53,0,0,0,0
1286,0,0,-3.08,-49.31,29.56,0,0,0,0
1287,0,0,-2.50,-48.16,29.58,0,0,0,0
1288,0,0,-2.43,-47.00,29.61,0,0,0,0
1289,0,0,-3.06,-45.84,29.63,0,0,0,0
1290,0,0,-2.78,-44.68,29.65,0,0,0,0
1291,0,0,-2.97,-43.51,29.67,0,0,0,0
1292,0,0,-2.69,-42.34,29.69,0,0,0,0
1293,0,0,-2.48,-41.17,29.70,0,0,0,0
1294,0,0,-2.59,-39.99,29.71,0,0,0,0
1295,0,0,-2.70,-38.82,29.72,0,0,0,0
1296,0,0,-2.94,-37.64,29.73,0,0,0,0
1297,0,0,-2.91,-36.47,29.73,0,0,0,0
1298,0,0,-2.91,-35.30,29.73,0,0,0,0
1299,0,0,-2.72,-34.14,29.73,0,0,0,0
1300,0,0,-2.93,-32.97,29.72,0,0,0,0
1301,0,0,-3.09,-31.81,29.71,0,0,0,0
1302,0,0,-2.83,-30.66,29.69,0,0,0,0
1303,0,0,-2.77,-29.51,29.67,0,0,0,0
1304,0,0,-2.67,-28.37,29.64,0,0,0,0
1305,0,0,-2.74,-27.24,29.61,0,0,0,0
1306,0,0,-2.60,-26.11,29.57,0,0,0,0
1307,0,0,-2.74,-25.00,29.53,0,0,0,0
1308,0,0,-2.71,-23.89,29.48,0,0,0,0
1309,0,0,-2.71,-22.79,29.43,0,0,0,0
1310,0,0,-2.69,-21.71,29.37,0,0,0,0
1311,0,0,-2.67,-20.64,29.30,0,0,0,0
1312,0,0,-2.68,-19.58,29.22,0,0,0,0
1313,0,0,-2.67,-18.53,29.14,0,0,0,0
1314,0,0,-2.67,-17.50,29.05,0,0,0,0
1315,0,0,-2.70,-16.49,28.95,0,0,0,0
1316,0,0,-2.74,-15.49,28.84,0,0,0,0
1317,0,0,-2.79,-14.50,28.73,0,0,0,0
1318,0,0,-2.86,-13.54,28.60,0,0,0,0
1319,0,0,-2.89,-12.59,28.47,0,0,0,0
1320,0,0,-2.92,-11.66,28.33,0,0,0,0
1321,0,0,-2.96,-10.75,28.18,0,0,0,0
1322,0,0,-2.99,-9.87,28.02,0,0,0,0
1323,0,0,-3.00,-9.00,27.85,0,0,0,0
1324,0,0,-3.02,-8.16,27.67,0,0,0,0
1325,0,0,-3.07,-7.34,27.48,0,0,0,0
1326,0,0,-3.10,-6.54,27.28,0,0,0,0
1327,0,0,-3.04,-5.77,27.07,0,0,0,0
1328,0,0,-2.81,-5.02,26.85,0,0,0,0
1329,0,0,-3.06,-4.30,26.62,0,0,0,0
1330,0,0,-2.97,-3.60,26.37,0,0,0,0
1331,0,0,-2.86,-2.93,26.12,0,0,0,0
1332,0,0,-3.14,-2.30,25.85,0,0,0,0
1333,0,0,-3.14,-2.30,25.85,0,0,0,0
1334,0,0,-2.98,-1.32,25.49,0,0,0,0
1335,0,0,-3.13,-0.37,25.03,0,0,0,0
1336,0,0,-3.28,0.55,24.46,0,0,0,0
1337,0,0,-3.33,1.44,23.80,0,0,0,0
1338,0,0,-3.23,2.31,23.05,0,0,0,0
1339,0,0,-2.71,3.14,22.23,0,0,0,0
1340,0,0,-2.96,3.94,21.34,0,0,0,0
1341,0,0,-2.95,4.70,20.40,0,0,0,0
1342,0,0,-3.18,5.42,19.42,0,0,0,0
1343,0,0,-2.98,6.10,18.40,0,0,0,0
1344,0,0,-2.73,6.74,17.35,0,0,0,0
1345,0,0,-2.94,7.34,16.29,0,0,0,0
1346,0,0,-2.97,7.89,15.22,0,0,0,0
1347,0,0,-2.96,8.39,14.16,0,0,0,0
1348,0,0,-2.76,8.85,13.10,0,0,0,0
1349,0,0,-2.65,9.25,12.07,0,0,0,0
1350,0,0,-2.53,9.59,11.08,0,0,0,0
1351,0,0,-3.72,9.88,10.12,0,0,0,0
1352,0,0,-2.65,10.12,9.22,0,0,0,0
1353,0,0,-3.18,10.29,8.38,0,0,0,0
1354,0,0,-2.85,10.40,7.61,0,0,0,0
1355,0,0,-2.44,10.45,6.92,0,0,0,0
1356,0,0,-2.46,-176.85,26.82,0,0,0,0
1357,0,0,-2.46,-176.34,26.85,0,0,0,0
1358,0,0,-2.51,-175.81,26.88,0,0,0,0
1359,0,0,-2.66,-175.26,26.90,0,0,0,0
1360,0,0,-2.62,-174.69,26.93,0,0,0,0
1361,0,0,-2.47,-174.10,26.96,0,0,0,0
1362,0,0,-2.46,-173.49,26.99,0,0,0,0
1363,0,0,-2.46,-172.86,27.02,0,0,0,0
1364,0,0,-2.46,-172.22,27.05,0,0,0,0
1365,0,0,-2.46,-171.55,27.08,0,0,0,0
1366,0,0,-2.46,-170.87,27.11,0,0,0,0
1367,0,0,-2.46,-170.18,27.13,0,0,0,0
1368,0,0,-2.46,-169.46,27.16,0,0,0,0
1369,0,0,-2.46,-168.73,27.19,0,0,0,0
1370,0,0,-2.45,-167.99,27.22,0,0,0,0
1371,0,0,-2.49,-167.23,27.25,0,0,0,0
1372,0,0,-2.44,-166.45,27.28,0,0,0,0
1373,0,0,-2.49,-165.66,27.31,0,0,0,0
1374,0,0,-2.50,-164.85,27.33,0,0,0,0
1375,0,0,-2.47,-164.02,27.36,0,0,0,0
1376,0,0,-2.44,-163.19,27.39,0,0,0,0
1377,0,0,-2.46,-162.34,27.42,0,0,0,0
1378,0,0,-2.47,-161.47,27.45,0,0,0,0
1379,0,0,-2.48,-160.59,27.48,0,0,0,0
1380,0,0,-2.45,-159.70,27.50,0,0,0,0
1381,0,0,-2.46,-158.80,27.53,0,0,0,0
1382,0,0,-2.49,-157.88,27.56,0,0,0,0
1383,0,0,-2.46,-156.95,27.59,0,0,0,0
1384,0,0,-2.43,-156.01,27.62,0,0,0,0
1385,0,0,-2.47,-155.06,27.65,0,0,0,0
1386,0,0,-2.48,-154.10,27.67,0,0,0,0
1387,0,0,-2.45,-153.12,27.70,0,0,0,0
1388,0,0,-2.44,-152.14,27.73,0,0,0,0
1389,0,0,-2.45,-151.14,27.76,0,0,0,0
1390,0,0,-2.45,-150.13,27.78,0,0,0,0
1391,0,0,-2.44,-149.12,27.81,0,0,0,0
1392,0,0,-2.45,-148.09,27.84,0,0,0,0
1393,0,0,-2.43,-147.06,27.87,0,0,0,0
1394,0,0,-2.44,-146.01,27.90,0,0,0,0
1395,0,0,-2.50,-144.96,27.92,0,0,0,0
1396,0,0,-2.44,-143.90,27.95,0,0,0,0
1397,0,0,-2.43,-142.83,27.98,0,0,0,0
1398,0,0,-2.45,-141.76,28.00,0,0,0,0
1399,0,0,-2.44,-140.67,28.03,0,0,0,0
1400,0,0,-2.43,-139.58,28.06,0,0,0,0
1401,0,0,-2.51,-138.48,28.09,0,0,0,0
1402,0,0,-2.52,-137.38,28.11,0,0,0,0
1403,0,0,-2.44,-136.27,28.14,0,0,0,0
1404,0,0,-2.47,-135.15,28.17,0,0,0,0
1405,0,0,-2.46,-134.03,28.19,0,0,0,0
1406,0,0,-2.57,-132.90,28.22,0,0,0,0
1407,0,0,-2.69,-131.77,28.25,0,0,0,0
1408,0,0,-2.43,-130.63,28.27,0,0,0,0
1409,0,0,-2.43,-129.49,28.30,0,0,0,0
1410,0,0,-2.43,-128.35,28.32,0,0,0,0
1411,0,0,-2.43,-127.20,28.35,0,0,0,0
1412,0,0,-2.43,-126.05,28.38,0,0,0,0
1413,0,0,-2.43,-124.89,28.40,0,0,0,0
1414,0,0,-2.43,-123.73,28.43,0,0,0,0
1415,0,0,-2.43,-122.57,28.45,0,0,0,0
1416,0,0,-2.42,-121.41,28.48,0,0,0,0
1417,0,0,-2.43,-120.24,28.50,0,0,0,0
1418,0,0,-2.42,-119.07,28.53,0,0,0,0
1419,0,0,-2.43,-117.91,28.55,0,0,0,0
1420,0,0,-2.42,-116.74,28.58,0,0,0,0
1421,0,0,-2.52,-115.57,28.60,0,0,0,0
1422,0,0,-2.43,-114.39,28.63,0,0,0,0
1423,0,0,-2.54,-113.22,28.65,0,0,0,0
1424,0,0,-2.43,-112.05,28.68,0,0,0,0
1425,0,0,-2.42,-110.88,28.70,0,0,0,0
1426,0,0,-2.42,-109.71,28.73,0,0,0,0
1427,0,0,-2.43,-108.54,28.75,0,0,0,0
1428,0,0,-2.42,-107.38,28.77,0,0,0,0
1429,0,0,-2.43,-106.21,28.80,0,0,0,0
1430,0,0,-2.42,-105.05,28.82,0,0,0,0
1431,0,0,-2.42,-103.88,28.85,0,0,0,0
1432,0,0,-2.42,-102.73,28.87,0,0,0,0
1433,0,0,-2.42,-101.57,28.89,0,0,0,0
1434,0,0,-2.43,-100.42,28.92,0,0,0,0
1435,0,0,-2.43,-99.27,28.94,0,0,0,0
1436,0,0,-2.43,-98.12,28.96,0,0,0,0
1437,0,0,-2.43,-96.98,28.98,0,0,0,0
1438,0,0,-2.43,-95.84,29.01,0,0,0,0
1439,0,0,-2.43,-94.71,29.03,0,0,0,0
1440,0,0,-2.90,-93.58,29.05,0,0,0,0
1441,0,0,-3.02,-92.46,29.07,0,0,0,0
1442,0,0,-2.42,-91.34,29.10,0,0,0,0
1443,0,0,-2.42,-90.23,29.12,0,0,0,0
1444,0,0,-2.42,-89.13,29.14,0,0,0,0
1445,0,0,-2.43,-88.03,29.16,0,0,0,0
1446,0,0,-2.43,-86.93,29.18,0,0,0,0
1447,0,0,-2.43,-85.85,29.20,0,0,0,0
1448,0,0,-2.43,-84.77,29.22,0,0,0,0
1449,0,0,-2.42,-83.70,29.24,0,0,0,0
1450,0,0,-2.43,-82.64,29.26,0,0,0,0
1451,0,0,-2.42,-81.59,29.29,0,0,0,0
1452,0,0,-2.42,-80.54,29.31,0,0,0,0
1453,0,0,-2.42,-79.51,29.33,0,0,0,0
1454,0,0,-2.46,-78.48,29.35,0,0,0,0
1455,0,0,-2.60,-77.46,29.37,0,0,0,0
1456,0,0,-2.45,-76.46,29.38,0,0,0,0
1457,0,0,-2.51,-75.46,29.40,0,0,0,0
1458,0,0,-2.46,-176.85,26.82,0,0,0,0
1459,0,0,-2.47,-177.80,26.79,0,0,0,0
1460,0,0,-2.46,-178.74,26.74,0,0,0,0
1461,0,0,-2.46,-179.68,26.67,0,0,0,0
1462,0,0,-2.46,-180.61,26.58,0,0,0,0
1463,0,0,-2.45,-181.53,26.46,0,0,0,0
1464,0,0,-2.45,-182.45,26.32,0,0,0,0
1465,0,0,-2.45,-183.37,26.16,0,0,0,0
1466,0,0,-2.44,-184.27,25.98,0,0,0,0
1467,0,0,-2.45,-185.18,25.78,0,0,0,0
1468,0,0,-2.44,-186.08,25.56,0,0,0,0
1469,0,0,-2.45,-186.97,25.31,0,0,0,0
1470,0,0,-2.44,-187.86,25.05,0,0,0,0
1471,0,0,-2.44,-188.75,24.76,0,0,0,0
1472,0,0,-2.44,-189.63,24.45,0,0,0,0
1473,0,0,-2.45,-190.50,24.12,0,0,0,0
1474,0,0,-2.45,-191.37,23.77,0,0,0,0
1475,0,0,-2.48,-192.24,23.40,0,0,0,0
1476,0,0,-2.61,-193.10,23.00,0,0,0,0
1477,0,0,-2.45,-193.96,22.59,0,0,0,0
1478,0,0,-2.45,-194.81,22.15,0,0,0,0
1479,0,0,-2.44,-195.66,21.70,0,0,0,0
1480,0,0,-2.43,-196.50,21.22,0,0,0,0
1481,0,0,-2.43,-197.34,20.72,0,0,0,0
1482,0,0,-2.44,-198.18,20.20,0,0,0,0
1483,0,0,-2.52,-199.01,19.66,0,0,0,0
1484,0,0,-2.46,-199.84,19.11,0,0,0,0
1485,0,0,-2.44,-200.66,18.53,0,0,0,0
1486,0,0,-2.44,-201.48,17.92,0,0,0,0
1487,0,0,-2.44,-202.30,17.30,0,0,0,0
1488,0,0,-2.45,-203.11,16.66,0,0,0,0
1489,0,0,-2.44,-203.92,16.00,0,0,0,0
1490,0,0,-2.46,-204.72,15.32,0,0,0,0
1491,0,0,-2.45,-205.53,14.62,0,0,0,0
1492,0,0,-2.44,-206.33,13.90,0,0,0,0
1493,0,0,-2.44,-207.12,13.15,0,0,0,0
1494,0,0,-2.45,-207.91,12.39,0,0,0,0
1495,0,0,-2.45,-208.70,11.61,0,0,0,0
1496,0,0,-2.45,-209.49,10.81,0,0,0,0
1497,0,0,-2.45,-210.27,9.99,0,0,0,0
1498,0,0,-2.47,-211.05,9.15,0,0,0,0
1499,0,0,-2.45,-211.83,8.29,0,0,0,0
1500,0,0,-2.44,-212.60,7.41,0,0,0,0
1501,0,0,-2.44,-213.37,6.51,0,0,0,0
1502,0,0,-2.44,-214.14,5.59,0,0,0,0
1503,0,0,-2.46,-214.90,4.65,0,0,0,0
1504,0,0,-2.45,-215.67,3.69,0,0,0,0
1505,0,0,-2.45,-216.43,2.71,0,0,0,0
1506,0,0,-2.46,-217.18,1.72,0,0,0,0
1507,0,0,-2.46,-217.94,0.70,0,0,0,0
1508,0,0,-2.45,-218.69,-0.33,0,0,0,0
1509,0,0,-2.52,-219.44,-1.39,0,0,0,0
1510,0,0,-2.54,-220.19,-2.46,0,0,0,0
1511,0,0,-2.46,-220.93,-3.55,0,0,0,0
1512,0,0,-2.48,-221.68,-4.66,0,0,0,0
