PID,B,L,H,Bx,Ly,ReF,MCODE1,MCODE2,MCODE3
1,0,0,0.00,17.33,8.38,0,0,0,0
2,0,0,0.00,18.78,12.49,0,0,0,0
3,0,0,0.00,19.01,16.08,0,0,0,0
4,0,0,0.00,18.21,19.15,0,0,0,0
5,0,0,0.00,16.57,21.67,0,0,0,0
6,0,0,0.00,14.30,23.65,0,0,0,0
7,0,0,0.00,11.56,25.06,0,0,0,0
8,0,0,0.00,8.57,25.91,0,0,0,0
9,0,0,0.00,5.50,26.17,0,0,0,0
10,0,0,0.00,2.55,25.85,0,0,0,0
11,0,0,0.00,-0.09,24.93,0,0,0,0
12,0,0,0.00,-2.23,23.39,0,0,0,0
13,0,0,0.00,-3.67,21.23,0,0,0,0
14,0,0,0.00,-4.23,18.44,0,0,0,0
15,0,0,0.00,-3.72,15.01,0,0,0,0
16,0,0,0.00,-1.94,10.92,0,0,0,0
17,0,0,0.00,1.30,6.17,0,0,0,0
18,0,0,0.00,1.30,6.17,0,0,0,0
19,0,0,0.00,2.22,6.17,0,0,0,0
20,0,0,0.00,3.19,6.17,0,0,0,0
21,0,0,0.00,4.22,6.17,0,0,0,0
22,0,0,0.00,5.28,6.18,0,0,0,0
23,0,0,0.00,6.38,6.20,0,0,0,0
24,0,0,0.00,7.49,6.23,0,0,0,0
25,0,0,0.00,8.60,6.29,0,0,0,0
26,0,0,0.00,9.72,6.37,0,0,0,0
27,0,0,0.00,10.82,6.48,0,0,0,0
28,0,0,0.00,11.90,6.62,0,0,0,0
29,0,0,0.00,12.95,6.80,0,0,0,0
30,0,0,0.00,13.95,7.01,0,0,0,0
31,0,0,0.00,14.90,7.28,0,0,0,0
32,0,0,0.00,15.79,7.59,0,0,0,0
33,0,0,0.00,16.60,7.96,0,0,0,0
34,0,0,0.00,17.33,8.38,0,0,0,0
