DID,Dist,PID,Dir,Apara,r,slope,cant,LW,RW
1,0.00,1,-0.02,0,90000000000,0,0,2,2
2,0.66,2,-0.18,0,90000000000,0,0,2,2
3,1.34,3,-0.09,0,90000000000,0,0,2,2
4,2.04,4,-0.40,0,90000000000,0,0,2,2
5,2.81,5,-0.07,0,90000000000,0,0,2,2
6,3.54,6,-0.07,0,90000000000,0,0,2,2
7,4.28,7,-0.11,0,90000000000,0,0,2,2
8,5.04,8,-0.04,0,90000000000,0,0,2,2
9,5.81,9,-0.23,0,90000000000,0,0,2,2
10,6.62,10,-0.03,0,90000000000,0,0,2,2
11,7.43,11,-0.24,0,90000000000,0,0,2,2
12,8.27,12,-0.25,0,90000000000,0,0,2,2
13,9.13,13,-0.01,0,90000000000,0,0,2,2
14,9.97,14,-0.60,0,90000000000,0,0,2,2
15,11.01,15,-0.10,0,90000000000,0,0,2,2
16,11.89,16,-0.01,0,90000000000,0,0,2,2
17,12.77,17,-0.35,0,90000000000,0,0,2,2
18,13.73,18,-0.49,0,90000000000,0,0,2,2
19,14.76,19,-0.22,0,90000000000,0,0,2,2
20,15.70,20,-0.67,0,90000000000,0,0,2,2
21,16.89,21,-0.52,0,90000000000,0,0,2,2
22,17.98,22,-0.02,0,90000000000,0,0,2,2
23,18.94,23,-0.57,0,90000000000,0,0,2,2
24,20.08,24,-0.65,0,90000000000,0,0,2,2
25,21.30,25,-0.14,0,90000000000,0,0,2,2
26,22.30,26,-0.86,0,90000000000,0,0,2,2
27,23.82,27,-0.70,0,90000000000,0,0,2,2
28,25.13,28,-1.10,0,90000000000,0,0,2,2
29,27.35,29,-1.27,0,90000000000,0,0,2,2
30,30.77,30,-0.01,0,90000000000,0,0,2,2
31,31.80,31,-0.03,0,90000000000,0,0,2,2
32,32.83,32,-0.48,0,90000000000,0,0,2,2
33,34.01,33,-0.07,0,90000000000,0,0,2,2
34,35.07,34,-0.87,0,90000000000,0,0,2,2
35,36.72,35,-0.63,0,90000000000,0,0,2,2
36,38.04,36,-0.08,0,90000000000,0,0,2,2
37,39.12,37,-0.38,0,90000000000,0,0,2,2
38,40.28,38,-0.57,0,90000000000,0,0,2,2
39,41.57,39,-0.15,0,90000000000,0,0,2,2
40,42.68,40,-0.34,0,90000000000,0,0,2,2
41,43.83,41,-1.00,0,90000000000,0,0,2,2
42,45.86,42,-0.59,0,90000000000,0,0,2,2
43,47.18,43,-0.58,0,90000000000,0,0,2,2
44,48.51,44,-0.13,0,90000000000,0,0,2,2
45,49.63,45,-0.17,0,90000000000,0,0,2,2
46,50.76,46,-0.64,0,90000000000,0,0,2,2
47,52.16,47,-0.50,0,90000000000,0,0,2,2
48,53.43,48,-0.03,0,90000000000,0,0,2,2
49,54.56,49,-0.05,0,90000000000,0,0,2,2
50,55.68,50,-0.24,0,90000000000,0,0,2,2
51,56.84,51,-0.33,0,90000000000,0,0,2,2
52,58.04,52,-0.24,0,90000000000,0,0,2,2
53,59.20,53,-0.13,0,90000000000,0,0,2,2
54,60.34,54,-0.16,0,90000000000,0,0,2,2
55,61.49,55,-0.44,0,90000000000,0,0,2,2
56,62.74,56,-0.22,0,90000000000,0,0,2,2
57,63.90,57,-1.05,0,90000000000,0,0,2,2
58,66.18,58,-0.90,0,90000000000,0,0,2,2
59,68.00,59,-0.20,0,90000000000,0,0,2,2
60,69.16,60,-0.79,0,90000000000,0,0,2,2
61,70.76,61,-0.34,0,90000000000,0,0,2,2
62,71.96,62,-0.24,0,90000000000,0,0,2,2
63,73.11,63,-0.14,0,90000000000,0,0,2,2
64,74.24,64,-0.12,0,90000000000,0,0,2,2
65,75.37,65,-0.01,0,90000000000,0,0,2,2
66,76.48,66,-0.01,0,90000000000,0,0,2,2
67,77.60,67,-0.32,0,90000000000,0,0,2,2
68,78.77,68,-0.43,0,90000000000,0,0,2,2
69,79.98,69,-0.27,0,90000000000,0,0,2,2
70,81.12,70,-0.90,0,90000000000,0,0,2,2
71,82.89,71,-0.64,0,90000000000,0,0,2,2
72,84.26,72,-0.27,0,90000000000,0,0,2,2
73,85.38,73,-0.16,0,90000000000,0,0,2,2
74,86.47,74,-0.46,0,90000000000,0,0,2,2
75,87.67,75,-0.12,0,90000000000,0,0,2,2
76,88.75,76,-0.58,0,90000000000,0,0,2,2
77,90.01,77,-0.42,0,90000000000,0,0,2,2
78,91.16,78,-0.08,0,90000000000,0,0,2,2
79,92.21,79,-0.36,0,90000000000,0,0,2,2
80,93.32,80,-0.02,0,90000000000,0,0,2,2
81,94.35,81,-0.49,0,90000000000,0,0,2,2
82,95.50,82,-0.25,0,90000000000,0,0,2,2
83,96.55,83,-0.25,0,90000000000,0,0,2,2
84,0.00,84,-0.50,0,90000000000,0,0,2,2
85,0.55,85,-0.50,0,90000000000,0,0,2,2
86,1.08,86,-0.64,0,90000000000,0,0,2,2
87,1.64,87,-0.56,0,90000000000,0,0,2,2
88,2.15,88,-0.60,0,90000000000,0,0,2,2
89,2.66,89,-0.62,0,90000000000,0,0,2,2
90,3.16,90,-0.64,0,90000000000,0,0,2,2
91,3.66,91,-0.86,0,90000000000,0,0,2,2
92,4.24,92,-0.76,0,90000000000,0,0,2,2
93,4.75,93,-0.95,0,90000000000,0,0,2,2
94,5.36,94,-0.97,0,90000000000,0,0,2,2
95,5.97,95,-0.88,0,90000000000,0,0,2,2
96,6.49,96,-1.17,0,90000000000,0,0,2,2
97,7.30,97,-0.90,0,90000000000,0,0,2,2
98,7.79,98,-0.92,0,90000000000,0,0,2,2
99,8.28,99,-0.92,0,90000000000,0,0,2,2
100,8.74,100,-0.96,0,90000000000,0,0,2,2
101,9.22,101,-0.99,0,90000000000,0,0,2,2
102,9.69,102,-1.03,0,90000000000,0,0,2,2
103,10.17,103,-1.05,0,90000000000,0,0,2,2
104,10.65,104,-1.08,0,90000000000,0,0,2,2
105,11.13,105,-1.11,0,90000000000,0,0,2,2
106,11.61,106,-1.14,0,90000000000,0,0,2,2
107,12.11,107,-1.17,0,90000000000,0,0,2,2
108,12.60,108,-1.19,0,90000000000,0,0,2,2
109,13.11,109,-1.22,0,90000000000,0,0,2,2
110,13.62,110,-1.24,0,90000000000,0,0,2,2
111,14.14,111,-1.27,0,90000000000,0,0,2,2
112,14.67,112,-1.29,0,90000000000,0,0,2,2
113,15.21,113,-1.31,0,90000000000,0,0,2,2
114,15.76,114,-1.33,0,90000000000,0,0,2,2
115,16.32,115,-1.35,0,90000000000,0,0,2,2
116,16.89,116,-1.37,0,90000000000,0,0,2,2
117,17.47,117,-1.39,0,90000000000,0,0,2,2
118,18.07,118,-1.41,0,90000000000,0,0,2,2
119,18.70,119,-1.42,0,90000000000,0,0,2,2
120,19.31,120,-1.44,0,90000000000,0,0,2,2
121,19.94,121,-1.45,0,90000000000,0,0,2,2
122,20.58,122,-1.46,0,90000000000,0,0,2,2
123,21.24,123,-1.48,0,90000000000,0,0,2,2
124,21.91,124,-1.49,0,90000000000,0,0,2,2
125,22.59,125,-1.50,0,90000000000,0,0,2,2
126,23.29,126,-1.51,0,90000000000,0,0,2,2
127,24.00,127,-1.52,0,90000000000,0,0,2,2
128,24.72,128,-1.53,0,90000000000,0,0,2,2
129,25.46,129,-1.54,0,90000000000,0,0,2,2
130,26.22,130,-1.54,0,90000000000,0,0,2,2
131,27.00,131,-1.55,0,90000000000,0,0,2,2
132,27.79,132,-1.56,0,90000000000,0,0,2,2
133,28.59,133,-1.56,0,90000000000,0,0,2,2
134,29.41,134,-1.57,0,90000000000,0,0,2,2
135,30.24,135,-1.57,0,90000000000,0,0,2,2
136,31.10,136,-1.58,0,90000000000,0,0,2,2
137,31.97,137,-1.58,0,90000000000,0,0,2,2
138,32.85,138,-1.59,0,90000000000,0,0,2,2
139,33.76,139,-1.59,0,90000000000,0,0,2,2
140,34.68,140,-1.59,0,90000000000,0,0,2,2
141,35.63,141,-1.60,0,90000000000,0,0,2,2
142,36.63,142,-1.60,0,90000000000,0,0,2,2
143,37.62,143,-1.60,0,90000000000,0,0,2,2
144,38.62,144,-1.60,0,90000000000,0,0,2,2
145,39.67,145,-1.61,0,90000000000,0,0,2,2
146,40.70,146,-1.61,0,90000000000,0,0,2,2
147,41.75,147,-1.61,0,90000000000,0,0,2,2
148,42.88,148,-1.61,0,90000000000,0,0,2,2
149,43.97,149,-1.61,0,90000000000,0,0,2,2
150,45.13,150,-1.61,0,90000000000,0,0,2,2
151,46.27,151,-1.61,0,90000000000,0,0,2,2
152,47.42,152,-1.61,0,90000000000,0,0,2,2
153,48.58,153,-1.61,0,90000000000,0,0,2,2
154,49.78,154,-1.61,0,90000000000,0,0,2,2
155,51.11,155,-1.61,0,90000000000,0,0,2,2
156,52.46,156,-1.61,0,90000000000,0,0,2,2
157,53.74,157,-1.61,0,90000000000,0,0,2,2
158,55.03,158,-1.61,0,90000000000,0,0,2,2
159,56.42,159,-1.61,0,90000000000,0,0,2,2
160,57.73,160,-1.61,0,90000000000,0,0,2,2
161,59.07,161,-1.60,0,90000000000,0,0,2,2
162,60.44,162,-1.60,0,90000000000,0,0,2,2
163,61.81,163,-1.60,0,90000000000,0,0,2,2
164,63.21,164,-1.60,0,90000000000,0,0,2,2
165,64.63,165,-1.60,0,90000000000,0,0,2,2
166,66.09,166,-1.59,0,90000000000,0,0,2,2
167,67.91,167,-1.59,0,90000000000,0,0,2,2
168,69.96,168,-1.59,0,90000000000,0,0,2,2
169,71.47,169,-1.59,0,90000000000,0,0,2,2
170,73.01,170,-1.59,0,90000000000,0,0,2,2
171,74.58,171,-1.59,0,90000000000,0,0,2,2
172,76.15,172,-1.58,0,90000000000,0,0,2,2
173,77.76,173,-1.58,0,90000000000,0,0,2,2
174,79.38,174,-1.58,0,90000000000,0,0,2,2
175,81.04,175,-1.58,0,90000000000,0,0,2,2
176,82.72,176,-1.58,0,90000000000,0,0,2,2
177,84.42,177,-1.57,0,90000000000,0,0,2,2
178,86.14,178,-1.57,0,90000000000,0,0,2,2
179,87.89,179,-1.57,0,90000000000,0,0,2,2
180,89.67,180,-1.57,0,90000000000,0,0,2,2
181,91.47,181,-1.56,0,90000000000,0,0,2,2
182,93.29,182,-1.56,0,90000000000,0,0,2,2
183,95.14,183,-1.56,0,90000000000,0,0,2,2
184,97.09,184,-1.56,0,90000000000,0,0,2,2
185,99.06,185,-1.55,0,90000000000,0,0,2,2
186,100.99,186,-1.55,0,90000000000,0,0,2,2
187,102.95,187,-1.55,0,90000000000,0,0,2,2
188,104.93,188,-1.54,0,90000000000,0,0,2,2
189,106.94,189,-1.54,0,90000000000,0,0,2,2
190,108.97,190,-1.54,0,90000000000,0,0,2,2
191,111.04,191,-1.53,0,90000000000,0,0,2,2
192,113.13,192,-1.53,0,90000000000,0,0,2,2
193,115.24,193,-1.53,0,90000000000,0,0,2,2
194,0.00,194,-1.59,0,90000000000,0,0,2,2
195,1.98,195,-1.59,0,90000000000,0,0,2,2
196,3.93,196,-1.59,0,90000000000,0,0,2,2
197,5.86,197,-1.59,0,90000000000,0,0,2,2
198,7.77,198,-1.59,0,90000000000,0,0,2,2
199,9.65,199,-1.59,0,90000000000,0,0,2,2
200,11.50,200,-1.59,0,90000000000,0,0,2,2
201,13.33,201,-1.59,0,90000000000,0,0,2,2
202,15.13,202,-1.59,0,90000000000,0,0,2,2
203,16.91,203,-1.59,0,90000000000,0,0,2,2
204,18.66,204,-1.59,0,90000000000,0,0,2,2
205,20.39,205,-1.59,0,90000000000,0,0,2,2
206,22.11,206,-1.59,0,90000000000,0,0,2,2
207,23.79,207,-1.59,0,90000000000,0,0,2,2
208,25.47,208,-1.60,0,90000000000,0,0,2,2
209,27.10,209,-1.60,0,90000000000,0,0,2,2
210,28.72,210,-1.60,0,90000000000,0,0,2,2
211,30.31,211,-1.60,0,90000000000,0,0,2,2
212,31.88,212,-1.60,0,90000000000,0,0,2,2
213,33.43,213,-1.60,0,90000000000,0,0,2,2
214,34.95,214,-1.60,0,90000000000,0,0,2,2
215,36.46,215,-1.60,0,90000000000,0,0,2,2
216,37.94,216,-1.61,0,90000000000,0,0,2,2
217,39.40,217,-1.61,0,90000000000,0,0,2,2
218,40.84,218,-1.61,0,90000000000,0,0,2,2
219,42.26,219,-1.61,0,90000000000,0,0,2,2
220,43.66,220,-1.61,0,90000000000,0,0,2,2
221,45.03,221,-1.62,0,90000000000,0,0,2,2
222,46.39,222,-1.62,0,90000000000,0,0,2,2
223,47.73,223,-1.62,0,90000000000,0,0,2,2
224,49.04,224,-1.62,0,90000000000,0,0,2,2
225,50.34,225,-1.63,0,90000000000,0,0,2,2
226,51.61,226,-1.63,0,90000000000,0,0,2,2
227,52.87,227,-1.64,0,90000000000,0,0,2,2
228,54.11,228,-1.64,0,90000000000,0,0,2,2
229,55.33,229,-1.64,0,90000000000,0,0,2,2
230,56.53,230,-1.65,0,90000000000,0,0,2,2
231,57.71,231,-1.65,0,90000000000,0,0,2,2
232,58.88,232,-1.66,0,90000000000,0,0,2,2
233,60.03,233,-1.66,0,90000000000,0,0,2,2
234,61.15,234,-1.66,0,90000000000,0,0,2,2
235,62.29,235,-1.67,0,90000000000,0,0,2,2
236,63.39,236,-1.68,0,90000000000,0,0,2,2
237,64.48,237,-1.68,0,90000000000,0,0,2,2
238,65.55,238,-1.69,0,90000000000,0,0,2,2
239,66.59,239,-1.70,0,90000000000,0,0,2,2
240,67.62,240,-1.70,0,90000000000,0,0,2,2
241,68.64,241,-1.71,0,90000000000,0,0,2,2
242,69.63,242,-1.72,0,90000000000,0,0,2,2
243,70.62,243,-1.73,0,90000000000,0,0,2,2
244,71.58,244,-1.73,0,90000000000,0,0,2,2
245,72.54,245,-1.74,0,90000000000,0,0,2,2
246,73.48,246,-1.75,0,90000000000,0,0,2,2
247,74.40,247,-1.76,0,90000000000,0,0,2,2
248,75.31,248,-1.77,0,90000000000,0,0,2,2
249,76.21,249,-1.78,0,90000000000,0,0,2,2
250,77.09,250,-1.79,0,90000000000,0,0,2,2
251,77.96,251,-1.80,0,90000000000,0,0,2,2
252,78.82,252,-1.81,0,90000000000,0,0,2,2
253,79.67,253,-1.82,0,90000000000,0,0,2,2
254,80.51,254,-1.84,0,90000000000,0,0,2,2
255,81.34,255,-1.85,0,90000000000,0,0,2,2
256,82.15,256,-1.86,0,90000000000,0,0,2,2
257,82.96,257,-1.88,0,90000000000,0,0,2,2
258,83.75,258,-1.89,0,90000000000,0,0,2,2
259,84.53,259,-1.91,0,90000000000,0,0,2,2
260,85.30,260,-1.92,0,90000000000,0,0,2,2
261,86.06,261,-1.94,0,90000000000,0,0,2,2
262,86.81,262,-1.95,0,90000000000,0,0,2,2
263,87.56,263,-1.97,0,90000000000,0,0,2,2
264,88.30,264,-1.98,0,90000000000,0,0,2,2
265,89.03,265,-2.00,0,90000000000,0,0,2,2
266,89.76,266,-2.01,0,90000000000,0,0,2,2
267,90.48,267,-2.04,0,90000000000,0,0,2,2
268,91.19,268,-2.06,0,90000000000,0,0,2,2
269,91.90,269,-2.07,0,90000000000,0,0,2,2
270,92.60,270,-2.09,0,90000000000,0,0,2,2
271,93.29,271,-2.11,0,90000000000,0,0,2,2
272,93.98,272,-2.13,0,90000000000,0,0,2,2
273,94.67,273,-2.15,0,90000000000,0,0,2,2
274,95.35,274,-2.17,0,90000000000,0,0,2,2
275,96.03,275,-2.19,0,90000000000,0,0,2,2
276,96.71,276,-2.21,0,90000000000,0,0,2,2
277,97.39,277,-2.23,0,90000000000,0,0,2,2
278,98.06,278,-2.25,0,90000000000,0,0,2,2
279,98.74,279,-2.27,0,90000000000,0,0,2,2
280,99.41,280,-2.29,0,90000000000,0,0,2,2
281,100.09,281,-2.31,0,90000000000,0,0,2,2
282,100.76,282,-2.33,0,90000000000,0,0,2,2
283,101.44,283,-2.35,0,90000000000,0,0,2,2
284,102.12,284,-2.36,0,90000000000,0,0,2,2
285,102.80,285,-2.38,0,90000000000,0,0,2,2
286,103.48,286,-2.40,0,90000000000,0,0,2,2
287,104.17,287,-2.42,0,90000000000,0,0,2,2
288,104.86,288,-2.44,0,90000000000,0,0,2,2
289,105.55,289,-2.46,0,90000000000,0,0,2,2
290,106.25,290,-2.47,0,90000000000,0,0,2,2
291,106.96,291,-2.49,0,90000000000,0,0,2,2
292,107.67,292,-2.51,0,90000000000,0,0,2,2
293,108.38,293,-2.52,0,90000000000,0,0,2,2
294,109.11,294,-2.54,0,90000000000,0,0,2,2
295,109.84,295,-2.55,0,90000000000,0,0,2,2
296,110.57,296,-2.57,0,90000000000,0,0,2,2
297,111.32,297,-2.58,0,90000000000,0,0,2,2
298,112.07,298,-2.60,0,90000000000,0,0,2,2
299,112.83,299,-2.61,0,90000000000,0,0,2,2
300,113.60,300,-2.62,0,90000000000,0,0,2,2
301,114.38,301,-2.64,0,90000000000,0,0,2,2
302,115.17,302,-2.64,0,90000000000,0,0,2,2
303,115.97,303,-2.64,0,90000000000,0,0,2,2
304,116.78,304,-2.64,0,90000000000,0,0,2,2
305,0.00,305,-2.72,0,90000000000,0,0,2,2
306,1.24,306,-2.74,0,90000000000,0,0,2,2
307,2.45,307,-2.74,0,90000000000,0,0,2,2
308,3.66,308,-2.74,0,90000000000,0,0,2,2
309,4.84,309,-2.74,0,90000000000,0,0,2,2
310,6.02,310,-2.75,0,90000000000,0,0,2,2
311,7.19,311,-2.75,0,90000000000,0,0,2,2
312,8.34,312,-2.75,0,90000000000,0,0,2,2
313,9.49,313,-2.76,0,90000000000,0,0,2,2
314,10.62,314,-2.76,0,90000000000,0,0,2,2
315,11.74,315,-2.76,0,90000000000,0,0,2,2
316,12.85,316,-2.77,0,90000000000,0,0,2,2
317,13.95,317,-2.77,0,90000000000,0,0,2,2
318,15.04,318,-2.78,0,90000000000,0,0,2,2
319,16.12,319,-2.78,0,90000000000,0,0,2,2
320,17.19,320,-2.79,0,90000000000,0,0,2,2
321,18.25,321,-2.79,0,90000000000,0,0,2,2
322,19.30,322,-2.80,0,90000000000,0,0,2,2
323,20.34,323,-2.81,0,90000000000,0,0,2,2
324,21.37,324,-2.82,0,90000000000,0,0,2,2
325,22.40,325,-2.55,0,90000000000,0,0,2,2
326,23.56,326,-2.72,0,90000000000,0,0,2,2
327,24.61,327,-2.75,0,90000000000,0,0,2,2
328,25.64,328,-2.85,0,90000000000,0,0,2,2
329,26.64,329,-2.86,0,90000000000,0,0,2,2
330,27.62,330,-2.87,0,90000000000,0,0,2,2
331,28.60,331,-2.88,0,90000000000,0,0,2,2
332,29.58,332,-2.89,0,90000000000,0,0,2,2
333,30.54,333,-2.90,0,90000000000,0,0,2,2
334,31.51,334,-2.91,0,90000000000,0,0,2,2
335,32.46,335,-2.92,0,90000000000,0,0,2,2
336,33.42,336,-2.93,0,90000000000,0,0,2,2
337,34.37,337,-2.92,0,90000000000,0,0,2,2
338,35.32,338,-2.93,0,90000000000,0,0,2,2
339,36.27,339,-2.98,0,90000000000,0,0,2,2
340,37.20,340,-2.99,0,90000000000,0,0,2,2
341,38.14,341,-3.01,0,90000000000,0,0,2,2
342,39.07,342,-3.02,0,90000000000,0,0,2,2
343,40.00,343,-3.04,0,90000000000,0,0,2,2
344,40.93,344,-3.05,0,90000000000,0,0,2,2
345,41.86,345,-3.06,0,90000000000,0,0,2,2
346,42.79,346,-3.05,0,90000000000,0,0,2,2
347,43.72,347,-3.02,0,90000000000,0,0,2,2
348,44.66,348,-3.00,0,90000000000,0,0,2,2
349,45.60,349,-3.04,0,90000000000,0,0,2,2
350,46.54,350,3.01,0,90000000000,0,0,2,2
351,47.48,351,3.01,0,90000000000,0,0,2,2
352,48.43,352,2.88,0,90000000000,0,0,2,2
353,49.40,353,3.00,0,90000000000,0,0,2,2
354,50.36,354,3.06,0,90000000000,0,0,2,2
355,51.31,355,3.02,0,90000000000,0,0,2,2
356,52.27,356,3.01,0,90000000000,0,0,2,2
357,53.24,357,2.99,0,90000000000,0,0,2,2
358,54.21,358,2.92,0,90000000000,0,0,2,2
359,55.20,359,2.90,0,90000000000,0,0,2,2
360,56.21,360,2.96,0,90000000000,0,0,2,2
361,57.20,361,2.58,0,90000000000,0,0,2,2
362,58.36,362,2.92,0,90000000000,0,0,2,2
363,59.38,363,2.48,0,90000000000,0,0,2,2
364,60.64,364,2.86,0,90000000000,0,0,2,2
365,61.69,365,2.88,0,90000000000,0,0,2,2
366,62.74,366,2.84,0,90000000000,0,0,2,2
367,63.81,367,2.66,0,90000000000,0,0,2,2
368,64.97,368,2.75,0,90000000000,0,0,2,2
369,66.09,369,2.79,0,90000000000,0,0,2,2
370,67.20,370,2.80,0,90000000000,0,0,2,2
371,68.32,371,2.78,0,90000000000,0,0,2,2
372,69.45,372,2.68,0,90000000000,0,0,2,2
373,70.65,373,2.73,0,90000000000,0,0,2,2
374,71.83,374,2.75,0,90000000000,0,0,2,2
375,73.01,375,2.72,0,90000000000,0,0,2,2
376,74.22,376,2.72,0,90000000000,0,0,2,2
377,75.44,377,2.71,0,90000000000,0,0,2,2
378,76.68,378,2.50,0,90000000000,0,0,2,2
379,78.09,379,2.47,0,90000000000,0,0,2,2
380,79.56,380,2.64,0,90000000000,0,0,2,2
381,80.88,381,2.61,0,90000000000,0,0,2,2
382,82.24,382,2.60,0,90000000000,0,0,2,2
383,83.62,383,2.62,0,90000000000,0,0,2,2
384,85.00,384,2.62,0,90000000000,0,0,2,2
385,0.00,385,2.64,0,90000000000,0,0,2,2
386,0.92,386,2.69,0,90000000000,0,0,2,2
387,1.85,387,2.67,0,90000000000,0,0,2,2
388,2.82,388,2.48,0,90000000000,0,0,2,2
389,3.95,389,2.73,0,90000000000,0,0,2,2
390,4.96,390,2.81,0,90000000000,0,0,2,2
391,5.96,391,2.78,0,90000000000,0,0,2,2
392,7.01,392,2.73,0,90000000000,0,0,2,2
393,8.10,393,2.86,0,90000000000,0,0,2,2
394,9.16,394,2.92,0,90000000000,0,0,2,2
395,10.23,395,2.95,0,90000000000,0,0,2,2
396,11.31,396,2.88,0,90000000000,0,0,2,2
397,12.44,397,2.88,0,90000000000,0,0,2,2
398,13.57,398,3.00,0,90000000000,0,0,2,2
399,14.70,399,3.03,0,90000000000,0,0,2,2
400,15.83,400,3.04,0,90000000000,0,0,2,2
401,16.98,401,3.05,0,90000000000,0,0,2,2
402,18.13,402,3.10,0,90000000000,0,0,2,2
403,19.29,403,3.12,0,90000000000,0,0,2,2
404,20.46,404,-3.11,0,90000000000,0,0,2,2
405,21.64,405,-3.10,0,90000000000,0,0,2,2
406,22.82,406,-2.99,0,90000000000,0,0,2,2
407,24.02,407,-3.06,0,90000000000,0,0,2,2
408,25.21,408,-3.03,0,90000000000,0,0,2,2
409,26.40,409,-3.01,0,90000000000,0,0,2,2
410,27.60,410,-2.99,0,90000000000,0,0,2,2
411,28.80,411,-2.96,0,90000000000,0,0,2,2
412,30.01,412,-2.92,0,90000000000,0,0,2,2
413,31.21,413,-2.90,0,90000000000,0,0,2,2
414,32.42,414,-2.88,0,90000000000,0,0,2,2
415,33.62,415,-2.82,0,90000000000,0,0,2,2
416,34.84,416,-2.81,0,90000000000,0,0,2,2
417,36.05,417,-2.80,0,90000000000,0,0,2,2
418,37.25,418,-2.77,0,90000000000,0,0,2,2
419,38.45,419,-2.74,0,90000000000,0,0,2,2
420,39.65,420,-2.70,0,90000000000,0,0,2,2
421,40.85,421,-2.68,0,90000000000,0,0,2,2
422,42.05,422,-2.60,0,90000000000,0,0,2,2
423,43.28,423,-2.58,0,90000000000,0,0,2,2
424,44.50,424,-2.58,0,90000000000,0,0,2,2
425,45.69,425,-2.54,0,90000000000,0,0,2,2
426,46.88,426,-2.51,0,90000000000,0,0,2,2
427,48.07,427,-2.46,0,90000000000,0,0,2,2
428,49.28,428,-2.41,0,90000000000,0,0,2,2
429,50.49,429,-2.39,0,90000000000,0,0,2,2
430,51.69,430,-2.35,0,90000000000,0,0,2,2
431,52.89,431,-2.31,0,90000000000,0,0,2,2
432,54.10,432,-2.27,0,90000000000,0,0,2,2
433,55.31,433,-2.22,0,90000000000,0,0,2,2
434,56.55,434,-2.18,0,90000000000,0,0,2,2
435,57.79,435,-2.13,0,90000000000,0,0,2,2
436,59.06,436,-2.10,0,90000000000,0,0,2,2
437,60.31,437,-2.06,0,90000000000,0,0,2,2
438,61.58,438,-2.01,0,90000000000,0,0,2,2
439,62.87,439,-1.97,0,90000000000,0,0,2,2
440,64.18,440,-1.92,0,90000000000,0,0,2,2
441,65.52,441,-1.88,0,90000000000,0,0,2,2
442,66.87,442,-1.84,0,90000000000,0,0,2,2
443,68.25,443,-1.80,0,90000000000,0,0,2,2
444,69.66,444,-1.75,0,90000000000,0,0,2,2
445,71.11,445,-1.72,0,90000000000,0,0,2,2
446,72.60,446,-1.68,0,90000000000,0,0,2,2
447,74.13,447,-1.64,0,90000000000,0,0,2,2
448,75.68,448,-1.60,0,90000000000,0,0,2,2
449,77.28,449,-1.60,0,90000000000,0,0,2,2
450,0.00,450,-1.77,0,90000000000,0,0,2,2
451,1.77,451,-1.74,0,90000000000,0,0,2,2
452,3.50,452,-1.71,0,90000000000,0,0,2,2
453,5.17,453,-1.69,0,90000000000,0,0,2,2
454,6.81,454,-1.66,0,90000000000,0,0,2,2
455,8.40,455,-1.63,0,90000000000,0,0,2,2
456,9.95,456,-1.60,0,90000000000,0,0,2,2
457,11.47,457,-1.57,0,90000000000,0,0,2,2
458,12.95,458,-1.54,0,90000000000,0,0,2,2
459,14.39,459,-1.51,0,90000000000,0,0,2,2
460,15.80,460,-1.48,0,90000000000,0,0,2,2
461,17.19,461,-1.44,0,90000000000,0,0,2,2
462,18.56,462,-1.41,0,90000000000,0,0,2,2
463,19.88,463,-1.37,0,90000000000,0,0,2,2
464,21.17,464,-1.34,0,90000000000,0,0,2,2
465,22.43,465,-1.30,0,90000000000,0,0,2,2
466,23.68,466,-1.27,0,90000000000,0,0,2,2
467,24.93,467,-1.24,0,90000000000,0,0,2,2
468,26.18,468,-1.19,0,90000000000,0,0,2,2
469,27.37,469,-1.16,0,90000000000,0,0,2,2
470,28.55,470,-1.12,0,90000000000,0,0,2,2
471,29.72,471,-1.08,0,90000000000,0,0,2,2
472,30.86,472,-1.04,0,90000000000,0,0,2,2
473,31.99,473,-1.01,0,90000000000,0,0,2,2
474,33.11,474,-0.97,0,90000000000,0,0,2,2
475,34.22,475,-0.94,0,90000000000,0,0,2,2
476,35.32,476,-0.90,0,90000000000,0,0,2,2
477,36.42,477,-0.86,0,90000000000,0,0,2,2
478,37.50,478,-0.83,0,90000000000,0,0,2,2
479,38.59,479,-0.79,0,90000000000,0,0,2,2
480,39.67,480,-0.76,0,90000000000,0,0,2,2
481,40.74,481,-0.73,0,90000000000,0,0,2,2
482,41.82,482,-0.70,0,90000000000,0,0,2,2
483,42.89,483,-0.66,0,90000000000,0,0,2,2
484,43.97,484,-0.63,0,90000000000,0,0,2,2
485,45.04,485,-0.61,0,90000000000,0,0,2,2
486,46.11,486,-0.58,0,90000000000,0,0,2,2
487,47.19,487,-0.55,0,90000000000,0,0,2,2
488,48.26,488,-0.52,0,90000000000,0,0,2,2
489,49.34,489,-0.50,0,90000000000,0,0,2,2
490,50.41,490,-0.50,0,90000000000,0,0,2,2
491,51.50,491,-0.44,0,90000000000,0,0,2,2
492,52.58,492,-0.44,0,90000000000,0,0,2,2
493,53.67,493,-0.45,0,90000000000,0,0,2,2
494,54.78,494,-0.43,0,90000000000,0,0,2,2
495,55.88,495,-0.35,0,90000000000,0,0,2,2
496,56.96,496,-0.33,0,90000000000,0,0,2,2
497,58.04,497,-0.31,0,90000000000,0,0,2,2
498,59.12,498,-0.29,0,90000000000,0,0,2,2
499,60.20,499,-0.27,0,90000000000,0,0,2,2
500,61.28,500,-0.25,0,90000000000,0,0,2,2
501,62.35,501,-0.24,0,90000000000,0,0,2,2
502,63.42,502,-0.22,0,90000000000,0,0,2,2
503,64.49,503,-0.21,0,90000000000,0,0,2,2
504,65.56,504,-0.20,0,90000000000,0,0,2,2
505,66.63,505,-0.16,0,90000000000,0,0,2,2
506,67.69,506,-0.15,0,90000000000,0,0,2,2
507,68.74,507,-0.13,0,90000000000,0,0,2,2
508,69.79,508,-0.12,0,90000000000,0,0,2,2
509,70.83,509,-0.10,0,90000000000,0,0,2,2
510,71.87,510,-0.09,0,90000000000,0,0,2,2
511,72.90,511,-0.24,0,90000000000,0,0,2,2
512,73.94,512,-0.18,0,90000000000,0,0,2,2
513,74.97,513,-0.05,0,90000000000,0,0,2,2
514,75.97,514,-0.05,0,90000000000,0,0,2,2
515,0.00,515,0.08,0,90000000000,0,0,2,2
516,0.81,516,0.12,0,90000000000,0,0,2,2
517,1.63,517,0.13,0,90000000000,0,0,2,2
518,2.45,518,0.17,0,90000000000,0,0,2,2
519,3.29,519,0.19,0,90000000000,0,0,2,2
520,4.14,520,0.22,0,90000000000,0,0,2,2
521,5.00,521,0.25,0,90000000000,0,0,2,2
522,5.87,522,0.27,0,90000000000,0,0,2,2
523,6.75,523,0.30,0,90000000000,0,0,2,2
524,7.65,524,0.32,0,90000000000,0,0,2,2
525,8.56,525,0.36,0,90000000000,0,0,2,2
526,9.48,526,0.38,0,90000000000,0,0,2,2
527,10.42,527,0.39,0,90000000000,0,0,2,2
528,11.37,528,0.62,0,90000000000,0,0,2,2
529,12.45,529,0.48,0,90000000000,0,0,2,2
530,13.45,530,0.46,0,90000000000,0,0,2,2
531,14.44,531,0.90,0,90000000000,0,0,2,2
532,15.87,532,0.78,0,90000000000,0,0,2,2
533,17.13,533,0.86,0,90000000000,0,0,2,2
534,18.51,534,0.90,0,90000000000,0,0,2,2
535,19.96,535,0.94,0,90000000000,0,0,2,2
536,21.51,536,0.88,0,90000000000,0,0,2,2
537,22.94,537,0.76,0,90000000000,0,0,2,2
538,24.20,538,0.86,0,90000000000,0,0,2,2
539,25.60,539,0.96,0,90000000000,0,0,2,2
540,27.20,540,0.76,0,90000000000,0,0,2,2
541,28.46,541,0.77,0,90000000000,0,0,2,2
542,29.74,542,0.60,0,90000000000,0,0,2,2
543,30.86,543,0.73,0,90000000000,0,0,2,2
544,32.09,544,1.09,0,90000000000,0,0,2,2
545,34.07,545,0.80,0,90000000000,0,0,2,2
546,35.40,546,0.98,0,90000000000,0,0,2,2
547,37.07,547,0.64,0,90000000000,0,0,2,2
548,38.22,548,0.65,0,90000000000,0,0,2,2
549,39.38,549,0.65,0,90000000000,0,0,2,2
550,40.54,550,0.66,0,90000000000,0,0,2,2
551,41.71,551,0.67,0,90000000000,0,0,2,2
552,42.89,552,0.67,0,90000000000,0,0,2,2
553,44.07,553,0.68,0,90000000000,0,0,2,2
554,45.25,554,0.69,0,90000000000,0,0,2,2
555,46.44,555,0.69,0,90000000000,0,0,2,2
556,47.64,556,0.70,0,90000000000,0,0,2,2
557,48.84,557,0.70,0,90000000000,0,0,2,2
558,50.03,558,0.71,0,90000000000,0,0,2,2
559,51.23,559,0.71,0,90000000000,0,0,2,2
560,52.43,560,0.71,0,90000000000,0,0,2,2
561,53.64,561,0.72,0,90000000000,0,0,2,2
562,54.84,562,0.72,0,90000000000,0,0,2,2
563,56.04,563,0.73,0,90000000000,0,0,2,2
564,57.25,564,0.74,0,90000000000,0,0,2,2
565,58.47,565,0.73,0,90000000000,0,0,2,2
566,59.67,566,0.74,0,90000000000,0,0,2,2
567,60.87,567,0.74,0,90000000000,0,0,2,2
568,62.07,568,0.74,0,90000000000,0,0,2,2
569,63.26,569,0.75,0,90000000000,0,0,2,2
570,64.46,570,0.75,0,90000000000,0,0,2,2
571,65.65,571,0.75,0,90000000000,0,0,2,2
572,66.83,572,0.75,0,90000000000,0,0,2,2
573,68.01,573,0.75,0,90000000000,0,0,2,2
574,69.18,574,0.75,0,90000000000,0,0,2,2
575,70.35,575,0.76,0,90000000000,0,0,2,2
576,71.50,576,0.76,0,90000000000,0,0,2,2
577,72.66,577,0.76,0,90000000000,0,0,2,2
578,73.80,578,0.76,0,90000000000,0,0,2,2
579,74.94,579,0.76,0,90000000000,0,0,2,2
580,76.06,580,0.76,0,90000000000,0,0,2,2
581,77.18,581,0.76,0,90000000000,0,0,2,2
582,78.29,582,0.76,0,90000000000,0,0,2,2
583,79.39,583,0.76,0,90000000000,0,0,2,2
584,80.48,584,0.76,0,90000000000,0,0,2,2
585,81.56,585,0.76,0,90000000000,0,0,2,2
586,82.62,586,0.76,0,90000000000,0,0,2,2
587,83.67,587,0.76,0,90000000000,0,0,2,2
588,84.71,588,0.75,0,90000000000,0,0,2,2
589,85.74,589,0.75,0,90000000000,0,0,2,2
590,86.75,590,0.75,0,90000000000,0,0,2,2
591,87.75,591,0.75,0,90000000000,0,0,2,2
592,88.74,592,0.75,0,90000000000,0,0,2,2
593,89.71,593,0.74,0,90000000000,0,0,2,2
594,90.66,594,0.74,0,90000000000,0,0,2,2
595,91.59,595,0.74,0,90000000000,0,0,2,2
596,92.51,596,0.73,0,90000000000,0,0,2,2
597,93.42,597,0.73,0,90000000000,0,0,2,2
598,94.30,598,0.72,0,90000000000,0,0,2,2
599,95.16,599,0.72,0,90000000000,0,0,2,2
600,96.01,600,0.71,0,90000000000,0,0,2,2
601,96.84,601,0.70,0,90000000000,0,0,2,2
602,97.64,602,0.70,0,90000000000,0,0,2,2
603,98.43,603,0.69,0,90000000000,0,0,2,2
604,99.20,604,0.68,0,90000000000,0,0,2,2
605,99.94,605,0.67,0,90000000000,0,0,2,2
606,100.67,606,0.66,0,90000000000,0,0,2,2
607,101.37,607,0.65,0,90000000000,0,0,2,2
608,102.05,608,0.63,0,90000000000,0,0,2,2
609,102.70,609,0.62,0,90000000000,0,0,2,2
610,103.33,610,0.60,0,90000000000,0,0,2,2
611,103.94,611,0.60,0,90000000000,0,0,2,2
612,0.00,612,0.44,0,90000000000,0,0,2,2
613,1.47,613,0.44,0,90000000000,0,0,2,2
614,2.93,614,0.46,0,90000000000,0,0,2,2
615,4.37,615,0.47,0,90000000000,0,0,2,2
616,5.79,616,0.48,0,90000000000,0,0,2,2
617,7.20,617,0.49,0,90000000000,0,0,2,2
618,8.59,618,0.50,0,90000000000,0,0,2,2
619,9.96,619,0.51,0,90000000000,0,0,2,2
620,11.31,620,0.52,0,90000000000,0,0,2,2
621,12.65,621,0.53,0,90000000000,0,0,2,2
622,13.98,622,0.55,0,90000000000,0,0,2,2
623,15.29,623,0.56,0,90000000000,0,0,2,2
624,16.58,624,0.57,0,90000000000,0,0,2,2
625,17.86,625,0.58,0,90000000000,0,0,2,2
626,19.13,626,0.60,0,90000000000,0,0,2,2
627,20.38,627,0.61,0,90000000000,0,0,2,2
628,21.63,628,0.62,0,90000000000,0,0,2,2
629,22.85,629,0.63,0,90000000000,0,0,2,2
630,24.07,630,0.64,0,90000000000,0,0,2,2
631,25.27,631,0.66,0,90000000000,0,0,2,2
632,26.45,632,0.67,0,90000000000,0,0,2,2
633,27.63,633,0.68,0,90000000000,0,0,2,2
634,28.80,634,0.70,0,90000000000,0,0,2,2
635,29.95,635,0.71,0,90000000000,0,0,2,2
636,31.09,636,0.72,0,90000000000,0,0,2,2
637,32.22,637,0.74,0,90000000000,0,0,2,2
638,33.35,638,0.75,0,90000000000,0,0,2,2
639,34.46,639,0.77,0,90000000000,0,0,2,2
640,35.56,640,0.78,0,90000000000,0,0,2,2
641,36.65,641,0.80,0,90000000000,0,0,2,2
642,37.74,642,0.81,0,90000000000,0,0,2,2
643,38.81,643,0.82,0,90000000000,0,0,2,2
644,39.88,644,0.84,0,90000000000,0,0,2,2
645,40.94,645,0.85,0,90000000000,0,0,2,2
646,41.99,646,0.87,0,90000000000,0,0,2,2
647,43.03,647,0.88,0,90000000000,0,0,2,2
648,44.07,648,0.90,0,90000000000,0,0,2,2
649,45.10,649,0.91,0,90000000000,0,0,2,2
650,46.12,650,0.93,0,90000000000,0,0,2,2
651,47.13,651,0.94,0,90000000000,0,0,2,2
652,48.14,652,0.96,0,90000000000,0,0,2,2
653,49.15,653,0.97,0,90000000000,0,0,2,2
654,50.15,654,0.99,0,90000000000,0,0,2,2
655,51.14,655,1.00,0,90000000000,0,0,2,2
656,52.13,656,1.02,0,90000000000,0,0,2,2
657,53.12,657,1.03,0,90000000000,0,0,2,2
658,54.10,658,1.05,0,90000000000,0,0,2,2
659,55.08,659,1.06,0,90000000000,0,0,2,2
660,56.06,660,1.07,0,90000000000,0,0,2,2
661,57.03,661,1.09,0,90000000000,0,0,2,2
662,57.99,662,1.10,0,90000000000,0,0,2,2
663,58.95,663,1.12,0,90000000000,0,0,2,2
664,59.91,664,1.13,0,90000000000,0,0,2,2
665,60.87,665,1.15,0,90000000000,0,0,2,2
666,61.83,666,1.16,0,90000000000,0,0,2,2
667,62.79,667,1.17,0,90000000000,0,0,2,2
668,63.74,668,1.19,0,90000000000,0,0,2,2
669,64.68,669,1.20,0,90000000000,0,0,2,2
670,65.63,670,1.21,0,90000000000,0,0,2,2
671,66.58,671,1.23,0,90000000000,0,0,2,2
672,67.52,672,1.24,0,90000000000,0,0,2,2
673,68.46,673,1.25,0,90000000000,0,0,2,2
674,69.40,674,1.27,0,90000000000,0,0,2,2
675,70.34,675,1.28,0,90000000000,0,0,2,2
676,71.28,676,1.29,0,90000000000,0,0,2,2
677,72.22,677,1.30,0,90000000000,0,0,2,2
678,73.16,678,1.31,0,90000000000,0,0,2,2
679,74.10,679,1.33,0,90000000000,0,0,2,2
680,75.04,680,1.34,0,90000000000,0,0,2,2
681,75.98,681,1.35,0,90000000000,0,0,2,2
682,76.92,682,1.36,0,90000000000,0,0,2,2
683,77.86,683,1.37,0,90000000000,0,0,2,2
684,78.80,684,1.38,0,90000000000,0,0,2,2
685,79.75,685,1.39,0,90000000000,0,0,2,2
686,80.70,686,1.40,0,90000000000,0,0,2,2
687,81.64,687,1.42,0,90000000000,0,0,2,2
688,82.62,688,1.42,0,90000000000,0,0,2,2
689,83.56,689,1.43,0,90000000000,0,0,2,2
690,84.50,690,1.44,0,90000000000,0,0,2,2
691,85.45,691,1.45,0,90000000000,0,0,2,2
692,86.40,692,1.46,0,90000000000,0,0,2,2
693,87.34,693,1.47,0,90000000000,0,0,2,2
694,88.29,694,1.48,0,90000000000,0,0,2,2
695,89.24,695,1.49,0,90000000000,0,0,2,2
696,90.19,696,1.50,0,90000000000,0,0,2,2
697,91.15,697,1.50,0,90000000000,0,0,2,2
698,92.10,698,1.51,0,90000000000,0,0,2,2
699,93.05,699,1.52,0,90000000000,0,0,2,2
700,94.01,700,1.53,0,90000000000,0,0,2,2
701,94.97,701,1.53,0,90000000000,0,0,2,2
702,95.93,702,1.53,0,90000000000,0,0,2,2
703,0.00,703,1.57,0,90000000000,0,0,2,2
704,0.35,704,1.57,0,90000000000,0,0,2,2
705,0.72,705,1.57,0,90000000000,0,0,2,2
706,1.12,706,1.57,0,90000000000,0,0,2,2
707,1.53,707,1.57,0,90000000000,0,0,2,2
708,1.97,708,1.57,0,90000000000,0,0,2,2
709,2.43,709,1.57,0,90000000000,0,0,2,2
710,2.90,710,1.57,0,90000000000,0,0,2,2
711,3.40,711,1.57,0,90000000000,0,0,2,2
712,3.91,712,1.57,0,90000000000,0,0,2,2
713,4.45,713,1.57,0,90000000000,0,0,2,2
714,5.00,714,1.57,0,90000000000,0,0,2,2
715,5.58,715,1.57,0,90000000000,0,0,2,2
716,6.17,716,1.57,0,90000000000,0,0,2,2
717,6.78,717,1.57,0,90000000000,0,0,2,2
718,7.41,718,1.57,0,90000000000,0,0,2,2
719,8.05,719,1.57,0,90000000000,0,0,2,2
720,8.72,720,1.56,0,90000000000,0,0,2,2
721,9.40,721,1.56,0,90000000000,0,0,2,2
722,10.10,722,1.56,0,90000000000,0,0,2,2
723,10.82,723,1.56,0,90000000000,0,0,2,2
724,11.55,724,1.56,0,90000000000,0,0,2,2
725,12.30,725,1.56,0,90000000000,0,0,2,2
726,13.06,726,1.56,0,90000000000,0,0,2,2
727,13.85,727,1.56,0,90000000000,0,0,2,2
728,14.64,728,1.56,0,90000000000,0,0,2,2
729,15.45,729,1.56,0,90000000000,0,0,2,2
730,16.28,730,1.56,0,90000000000,0,0,2,2
731,17.12,731,1.56,0,90000000000,0,0,2,2
732,17.98,732,1.56,0,90000000000,0,0,2,2
733,18.85,733,1.56,0,90000000000,0,0,2,2
734,19.74,734,1.56,0,90000000000,0,0,2,2
735,20.64,735,1.56,0,90000000000,0,0,2,2
736,21.55,736,1.56,0,90000000000,0,0,2,2
737,22.48,737,1.56,0,90000000000,0,0,2,2
738,23.42,738,1.56,0,90000000000,0,0,2,2
739,24.38,739,1.56,0,90000000000,0,0,2,2
740,25.34,740,1.56,0,90000000000,0,0,2,2
741,26.32,741,1.56,0,90000000000,0,0,2,2
742,27.31,742,1.56,0,90000000000,0,0,2,2
743,28.32,743,1.56,0,90000000000,0,0,2,2
744,29.34,744,1.56,0,90000000000,0,0,2,2
745,30.36,745,1.56,0,90000000000,0,0,2,2
746,31.40,746,1.56,0,90000000000,0,0,2,2
747,32.45,747,1.56,0,90000000000,0,0,2,2
748,33.51,748,1.56,0,90000000000,0,0,2,2
749,34.58,749,1.56,0,90000000000,0,0,2,2
750,35.66,750,1.56,0,90000000000,0,0,2,2
751,36.75,751,1.56,0,90000000000,0,0,2,2
752,37.85,752,1.56,0,90000000000,0,0,2,2
753,38.96,753,1.56,0,90000000000,0,0,2,2
754,40.08,754,1.56,0,90000000000,0,0,2,2
755,41.21,755,1.56,0,90000000000,0,0,2,2
756,42.34,756,1.56,0,90000000000,0,0,2,2
757,43.49,757,1.56,0,90000000000,0,0,2,2
758,44.64,758,1.56,0,90000000000,0,0,2,2
759,45.80,759,1.56,0,90000000000,0,0,2,2
760,46.97,760,1.56,0,90000000000,0,0,2,2
761,48.16,761,1.56,0,90000000000,0,0,2,2
762,49.35,762,1.56,0,90000000000,0,0,2,2
763,50.55,763,1.56,0,90000000000,0,0,2,2
764,51.74,764,1.56,0,90000000000,0,0,2,2
765,52.95,765,1.56,0,90000000000,0,0,2,2
766,54.16,766,1.56,0,90000000000,0,0,2,2
767,55.38,767,1.56,0,90000000000,0,0,2,2
768,56.60,768,1.56,0,90000000000,0,0,2,2
769,57.83,769,1.56,0,90000000000,0,0,2,2
770,59.06,770,1.56,0,90000000000,0,0,2,2
771,60.30,771,1.56,0,90000000000,0,0,2,2
772,61.54,772,1.56,0,90000000000,0,0,2,2
773,62.79,773,1.56,0,90000000000,0,0,2,2
774,64.04,774,1.56,0,90000000000,0,0,2,2
775,65.30,775,1.56,0,90000000000,0,0,2,2
776,66.56,776,1.56,0,90000000000,0,0,2,2
777,67.82,777,1.56,0,90000000000,0,0,2,2
778,69.09,778,1.56,0,90000000000,0,0,2,2
779,70.36,779,1.56,0,90000000000,0,0,2,2
780,71.63,780,1.56,0,90000000000,0,0,2,2
781,72.91,781,1.56,0,90000000000,0,0,2,2
782,74.18,782,1.56,0,90000000000,0,0,2,2
783,75.46,783,1.56,0,90000000000,0,0,2,2
784,76.74,784,1.56,0,90000000000,0,0,2,2
785,78.03,785,1.56,0,90000000000,0,0,2,2
786,79.31,786,1.56,0,90000000000,0,0,2,2
787,80.60,787,1.56,0,90000000000,0,0,2,2
788,81.89,788,1.56,0,90000000000,0,0,2,2
789,83.17,789,1.56,0,90000000000,0,0,2,2
790,84.46,790,1.56,0,90000000000,0,0,2,2
791,85.76,791,1.56,0,90000000000,0,0,2,2
792,87.06,792,1.56,0,90000000000,0,0,2,2
793,88.35,793,1.56,0,90000000000,0,0,2,2
794,89.64,794,1.56,0,90000000000,0,0,2,2
795,90.95,795,1.56,0,90000000000,0,0,2,2
796,92.27,796,1.56,0,90000000000,0,0,2,2
797,93.55,797,1.56,0,90000000000,0,0,2,2
798,94.83,798,1.56,0,90000000000,0,0,2,2
799,96.11,799,1.56,0,90000000000,0,0,2,2
800,97.39,800,1.56,0,90000000000,0,0,2,2
801,98.66,801,1.56,0,90000000000,0,0,2,2
802,99.94,802,1.56,0,90000000000,0,0,2,2
803,101.21,803,1.56,0,90000000000,0,0,2,2
804,102.54,804,1.56,0,90000000000,0,0,2,2
805,103.81,805,1.56,0,90000000000,0,0,2,2
806,105.08,806,1.56,0,90000000000,0,0,2,2
807,106.36,807,1.56,0,90000000000,0,0,2,2
808,107.63,808,1.56,0,90000000000,0,0,2,2
809,108.88,809,1.56,0,90000000000,0,0,2,2
810,110.25,810,1.56,0,90000000000,0,0,2,2
811,111.49,811,1.56,0,90000000000,0,0,2,2
812,112.73,812,1.56,0,90000000000,0,0,2,2
813,113.95,813,1.56,0,90000000000,0,0,2,2
814,115.22,814,1.56,0,90000000000,0,0,2,2
815,116.43,815,1.56,0,90000000000,0,0,2,2
816,117.65,816,1.56,0,90000000000,0,0,2,2
817,118.89,817,1.56,0,90000000000,0,0,2,2
818,120.12,818,1.56,0,90000000000,0,0,2,2
819,121.31,819,1.56,0,90000000000,0,0,2,2
820,122.51,820,1.57,0,90000000000,0,0,2,2
821,123.68,821,1.57,0,90000000000,0,0,2,2
822,124.87,822,1.57,0,90000000000,0,0,2,2
823,126.03,823,1.57,0,90000000000,0,0,2,2
824,127.21,824,1.57,0,90000000000,0,0,2,2
825,128.36,825,1.57,0,90000000000,0,0,2,2
826,129.50,826,1.57,0,90000000000,0,0,2,2
827,130.63,827,1.57,0,90000000000,0,0,2,2
828,131.75,828,1.57,0,90000000000,0,0,2,2
829,132.88,829,1.57,0,90000000000,0,0,2,2
830,134.00,830,1.57,0,90000000000,0,0,2,2
831,135.10,831,1.57,0,90000000000,0,0,2,2
832,136.19,832,1.57,0,90000000000,0,0,2,2
833,137.26,833,1.57,0,90000000000,0,0,2,2
834,138.36,834,1.57,0,90000000000,0,0,2,2
835,139.46,835,1.57,0,90000000000,0,0,2,2
836,140.50,836,1.57,0,90000000000,0,0,2,2
837,141.52,837,1.57,0,90000000000,0,0,2,2
838,142.54,838,1.57,0,90000000000,0,0,2,2
839,143.54,839,1.57,0,90000000000,0,0,2,2
840,144.53,840,1.57,0,90000000000,0,0,2,2
841,145.51,841,1.57,0,90000000000,0,0,2,2
842,146.47,842,1.57,0,90000000000,0,0,2,2
843,147.43,843,1.57,0,90000000000,0,0,2,2
844,148.37,844,1.57,0,90000000000,0,0,2,2
845,149.29,845,1.57,0,90000000000,0,0,2,2
846,150.21,846,1.57,0,90000000000,0,0,2,2
847,151.11,847,1.57,0,90000000000,0,0,2,2
848,151.99,848,1.57,0,90000000000,0,0,2,2
849,152.87,849,1.57,0,90000000000,0,0,2,2
850,153.72,850,1.57,0,90000000000,0,0,2,2
851,154.56,851,1.57,0,90000000000,0,0,2,2
852,155.41,852,1.57,0,90000000000,0,0,2,2
853,156.22,853,1.57,0,90000000000,0,0,2,2
854,157.01,854,1.57,0,90000000000,0,0,2,2
855,157.81,855,1.57,0,90000000000,0,0,2,2
856,158.63,856,1.57,0,90000000000,0,0,2,2
857,159.40,857,1.57,0,90000000000,0,0,2,2
858,160.13,858,1.57,0,90000000000,0,0,2,2
859,160.86,859,1.57,0,90000000000,0,0,2,2
860,161.67,860,1.57,0,90000000000,0,0,2,2
861,162.37,861,1.57,0,90000000000,0,0,2,2
862,163.08,862,1.57,0,90000000000,0,0,2,2
863,163.72,863,1.57,0,90000000000,0,0,2,2
864,164.43,864,1.57,0,90000000000,0,0,2,2
865,165.13,865,1.58,0,90000000000,0,0,2,2
866,165.77,866,1.58,0,90000000000,0,0,2,2
867,166.36,867,1.58,0,90000000000,0,0,2,2
868,167.01,868,1.58,0,90000000000,0,0,2,2
869,167.55,869,1.58,0,90000000000,0,0,2,2
870,0.00,870,1.60,0,90000000000,0,0,2,2
871,1.55,871,1.64,0,90000000000,0,0,2,2
872,3.26,872,1.68,0,90000000000,0,0,2,2
873,4.84,873,1.74,0,90000000000,0,0,2,2
874,6.23,874,1.79,0,90000000000,0,0,2,2
875,7.56,875,1.81,0,90000000000,0,0,2,2
876,9.02,876,1.86,0,90000000000,0,0,2,2
877,10.41,877,1.92,0,90000000000,0,0,2,2
878,11.71,878,2.02,0,90000000000,0,0,2,2
879,12.84,879,2.03,0,90000000000,0,0,2,2
880,14.07,880,2.15,0,90000000000,0,0,2,2
881,15.15,881,2.21,0,90000000000,0,0,2,2
882,16.23,882,2.27,0,90000000000,0,0,2,2
883,17.29,883,2.31,0,90000000000,0,0,2,2
884,18.36,884,2.11,0,90000000000,0,0,2,2
885,19.86,885,2.17,0,90000000000,0,0,2,2
886,21.28,886,2.24,0,90000000000,0,0,2,2
887,22.64,887,2.20,0,90000000000,0,0,2,2
888,24.12,888,2.62,0,90000000000,0,0,2,2
889,25.16,889,2.68,0,90000000000,0,0,2,2
890,26.21,890,2.72,0,90000000000,0,0,2,2
891,27.27,891,2.77,0,90000000000,0,0,2,2
892,28.34,892,2.79,0,90000000000,0,0,2,2
893,29.43,893,2.84,0,90000000000,0,0,2,2
894,30.53,894,2.88,0,90000000000,0,0,2,2
895,31.64,895,2.51,0,90000000000,0,0,2,2
896,32.99,896,2.76,0,90000000000,0,0,2,2
897,34.19,897,2.84,0,90000000000,0,0,2,2
898,35.37,898,2.97,0,90000000000,0,0,2,2
899,36.54,899,2.92,0,90000000000,0,0,2,2
900,37.73,900,2.91,0,90000000000,0,0,2,2
901,38.94,901,3.05,0,90000000000,0,0,2,2
902,40.13,902,3.07,0,90000000000,0,0,2,2
903,41.33,903,3.08,0,90000000000,0,0,2,2
904,42.54,904,3.08,0,90000000000,0,0,2,2
905,43.76,905,3.11,0,90000000000,0,0,2,2
906,44.98,906,2.88,0,90000000000,0,0,2,2
907,46.24,907,3.02,0,90000000000,0,0,2,2
908,47.48,908,2.73,0,90000000000,0,0,2,2
909,48.81,909,-3.13,0,90000000000,0,0,2,2
910,50.03,910,-3.13,0,90000000000,0,0,2,2
911,51.25,911,-2.89,0,90000000000,0,0,2,2
912,52.51,912,-2.80,0,90000000000,0,0,2,2
913,53.79,913,-3.06,0,90000000000,0,0,2,2
914,55.00,914,-2.42,0,90000000000,0,0,2,2
915,56.58,915,-3.11,0,90000000000,0,0,2,2
916,57.76,916,-2.33,0,90000000000,0,0,2,2
917,59.45,917,-2.33,0,90000000000,0,0,2,2
