PID,B,L,H,Bx,Ly,ReF,MCODE1,MCODE2,MCODE3
1,0,0,-3.38,2.02,-66.84,0,0,0,0
2,0,0,-3.39,2.02,-66.18,0,0,0,0
3,0,0,-3.26,2.02,-65.51,0,0,0,0
4,0,0,-3.20,2.01,-64.81,0,0,0,0
5,0,0,-3.50,2.01,-64.10,0,0,0,0
6,0,0,-3.55,2.01,-63.38,0,0,0,0
7,0,0,-3.50,2.01,-62.64,0,0,0,0
8,0,0,-3.42,2.00,-61.88,0,0,0,0
9,0,0,-3.45,2.00,-61.11,0,0,0,0
10,0,0,-3.63,1.99,-60.32,0,0,0,0
11,0,0,-3.61,1.98,-59.52,0,0,0,0
12,0,0,-3.40,1.98,-58.70,0,0,0,0
13,0,0,-3.19,1.97,-57.87,0,0,0,0
14,0,0,-3.20,1.96,-57.03,0,0,0,0
15,0,0,-3.79,1.95,-56.17,0,0,0,0
16,0,0,-3.87,1.94,-55.30,0,0,0,0
17,0,0,-3.87,1.94,-54.41,0,0,0,0
18,0,0,-3.54,1.93,-53.52,0,0,0,0
19,0,0,-3.06,1.92,-52.61,0,0,0,0
20,0,0,-3.26,1.90,-51.69,0,0,0,0
21,0,0,-4.00,1.89,-50.75,0,0,0,0
22,0,0,-3.46,1.88,-49.81,0,0,0,0
23,0,0,-3.45,1.87,-48.86,0,0,0,0
24,0,0,-4.06,1.86,-47.89,0,0,0,0
25,0,0,-3.32,1.85,-46.91,0,0,0,0
26,0,0,-3.46,1.83,-45.93,0,0,0,0
27,0,0,-4.61,1.82,-44.94,0,0,0,0
28,0,0,-3.76,1.81,-43.93,0,0,0,0
29,0,0,-5.74,1.79,-42.92,0,0,0,0
30,0,0,-2.49,1.78,-41.90,0,0,0,0
31,0,0,-2.49,1.77,-40.87,0,0,0,0
32,0,0,-2.47,1.75,-39.83,0,0,0,0
33,0,0,-3.02,1.74,-38.78,0,0,0,0
34,0,0,-3.09,1.72,-37.73,0,0,0,0
35,0,0,-4.36,1.71,-36.67,0,0,0,0
36,0,0,-3.58,1.69,-35.61,0,0,0,0
37,0,0,-3.50,1.68,-34.53,0,0,0,0
38,0,0,-3.06,1.66,-33.45,0,0,0,0
39,0,0,-3.76,1.65,-32.37,0,0,0,0
40,0,0,-3.93,1.63,-31.28,0,0,0,0
41,0,0,-4.31,1.62,-30.19,0,0,0,0
42,0,0,-2.61,1.60,-29.09,0,0,0,0
43,0,0,-3.35,1.59,-27.98,0,0,0,0
44,0,0,-2.62,1.57,-26.87,0,0,0,0
45,0,0,-2.76,1.56,-25.76,0,0,0,0
46,0,0,-2.57,1.54,-24.65,0,0,0,0
47,0,0,-3.40,1.53,-23.53,0,0,0,0
48,0,0,-2.79,1.51,-22.41,0,0,0,0
49,0,0,-2.82,1.50,-21.29,0,0,0,0
50,0,0,-2.76,1.48,-20.16,0,0,0,0
51,0,0,-2.49,1.47,-19.03,0,0,0,0
52,0,0,-2.87,1.45,-17.90,0,0,0,0
53,0,0,-2.60,1.44,-16.77,0,0,0,0
54,0,0,-2.75,1.43,-15.64,0,0,0,0
55,0,0,-2.93,1.41,-14.51,0,0,0,0
56,0,0,-3.47,1.40,-13.38,0,0,0,0
57,0,0,-3.22,1.39,-12.25,0,0,0,0
58,0,0,-5.20,1.37,-11.12,0,0,0,0
59,0,0,-3.76,1.36,-9.99,0,0,0,0
60,0,0,-3.99,1.35,-8.86,0,0,0,0
61,0,0,-2.85,1.33,-7.74,0,0,0,0
62,0,0,-2.44,1.32,-6.61,0,0,0,0
63,0,0,-2.72,1.31,-5.49,0,0,0,0
64,0,0,-2.56,1.30,-4.37,0,0,0,0
65,0,0,-2.43,1.29,-3.25,0,0,0,0
66,0,0,-2.42,1.28,-2.13,0,0,0,0
67,0,0,-2.43,1.27,-1.02,0,0,0,0
68,0,0,-2.80,1.26,0.09,0,0,0,0
69,0,0,-3.31,1.25,1.19,0,0,0,0
70,0,0,-3.01,1.24,2.29,0,0,0,0
71,0,0,-4.40,1.24,3.38,0,0,0,0
72,0,0,-3.58,1.23,4.47,0,0,0,0
73,0,0,-3.28,1.22,5.56,0,0,0,0
74,0,0,-3.45,1.22,6.63,0,0,0,0
75,0,0,-2.92,1.21,7.71,0,0,0,0
76,0,0,-2.79,1.20,8.77,0,0,0,0
77,0,0,-3.48,1.20,9.83,0,0,0,0
78,0,0,-3.02,1.20,10.89,0,0,0,0
79,0,0,-2.94,1.19,11.93,0,0,0,0
80,0,0,-2.54,1.19,12.97,0,0,0,0
81,0,0,-2.53,1.19,14.00,0,0,0,0
82,0,0,-3.07,1.19,15.02,0,0,0,0
83,0,0,-2.81,1.19,16.03,0,0,0,0
84,0,0,-2.81,1.19,16.03,0,0,0,0
85,0,0,-2.90,0.94,16.51,0,0,0,0
86,0,0,-2.87,0.69,16.97,0,0,0,0
87,0,0,-2.66,0.43,17.42,0,0,0,0
88,0,0,-2.73,0.16,17.86,0,0,0,0
89,0,0,-2.82,-0.12,18.28,0,0,0,0
90,0,0,-2.88,-0.40,18.69,0,0,0,0
91,0,0,-2.88,-0.69,19.08,0,0,0,0
92,0,0,-3.21,-0.99,19.46,0,0,0,0
93,0,0,-3.37,-1.30,19.83,0,0,0,0
94,0,0,-2.99,-1.62,20.19,0,0,0,0
95,0,0,-3.37,-1.95,20.53,0,0,0,0
96,0,0,-3.59,-2.28,20.86,0,0,0,0
97,0,0,-2.93,-2.63,21.18,0,0,0,0
98,0,0,-2.78,-2.98,21.48,0,0,0,0
99,0,0,-2.92,-3.34,21.78,0,0,0,0
100,0,0,-2.93,-3.72,22.06,0,0,0,0
101,0,0,-2.87,-4.10,22.33,0,0,0,0
102,0,0,-2.84,-4.49,22.59,0,0,0,0
103,0,0,-2.90,-4.90,22.84,0,0,0,0
104,0,0,-2.92,-5.31,23.07,0,0,0,0
105,0,0,-2.91,-5.74,23.30,0,0,0,0
106,0,0,-2.90,-6.17,23.52,0,0,0,0
107,0,0,-2.89,-6.62,23.72,0,0,0,0
108,0,0,-2.88,-7.08,23.92,0,0,0,0
109,0,0,-2.87,-7.55,24.10,0,0,0,0
110,0,0,-2.87,-8.03,24.28,0,0,0,0
111,0,0,-2.86,-8.52,24.45,0,0,0,0
112,0,0,-2.85,-9.03,24.60,0,0,0,0
113,0,0,-2.83,-9.55,24.75,0,0,0,0
114,0,0,-2.81,-10.08,24.89,0,0,0,0
115,0,0,-2.80,-10.62,25.02,0,0,0,0
116,0,0,-2.79,-11.18,25.15,0,0,0,0
117,0,0,-2.76,-11.74,25.26,0,0,0,0
118,0,0,-2.68,-12.33,25.37,0,0,0,0
119,0,0,-2.51,-12.92,25.47,0,0,0,0
120,0,0,-2.45,-13.53,25.56,0,0,0,0
121,0,0,-2.45,-14.15,25.64,0,0,0,0
122,0,0,-2.43,-14.79,25.72,0,0,0,0
123,0,0,-2.43,-15.44,25.79,0,0,0,0
124,0,0,-2.43,-16.11,25.85,0,0,0,0
125,0,0,-2.45,-16.79,25.90,0,0,0,0
126,0,0,-2.45,-17.48,25.95,0,0,0,0
127,0,0,-2.44,-18.19,26.00,0,0,0,0
128,0,0,-2.47,-18.92,26.03,0,0,0,0
129,0,0,-2.47,-19.66,26.07,0,0,0,0
130,0,0,-2.53,-20.41,26.09,0,0,0,0
131,0,0,-2.62,-21.18,26.11,0,0,0,0
132,0,0,-2.63,-21.97,26.13,0,0,0,0
133,0,0,-2.64,-22.77,26.14,0,0,0,0
134,0,0,-2.65,-23.59,26.14,0,0,0,0
135,0,0,-2.65,-24.43,26.14,0,0,0,0
136,0,0,-2.65,-25.28,26.14,0,0,0,0
137,0,0,-2.68,-26.15,26.13,0,0,0,0
138,0,0,-2.70,-27.04,26.12,0,0,0,0
139,0,0,-2.71,-27.94,26.11,0,0,0,0
140,0,0,-2.73,-28.86,26.09,0,0,0,0
141,0,0,-2.85,-29.80,26.07,0,0,0,0
142,0,0,-2.54,-30.76,26.04,0,0,0,0
143,0,0,-2.69,-31.73,26.01,0,0,0,0
144,0,0,-2.84,-32.72,25.98,0,0,0,0
145,0,0,-2.57,-33.74,25.95,0,0,0,0
146,0,0,-2.58,-34.76,25.91,0,0,0,0
147,0,0,-2.47,-35.81,25.87,0,0,0,0
148,0,0,-2.82,-36.88,25.83,0,0,0,0
149,0,0,-2.93,-37.97,25.79,0,0,0,0
150,0,0,-2.57,-39.07,25.75,0,0,0,0
151,0,0,-2.42,-40.20,25.70,0,0,0,0
152,0,0,-2.53,-41.34,25.66,0,0,0,0
153,0,0,-2.57,-42.51,25.61,0,0,0,0
154,0,0,-2.42,-43.69,25.56,0,0,0,0
155,0,0,-2.99,-44.90,25.52,0,0,0,0
156,0,0,-2.43,-46.12,25.47,0,0,0,0
157,0,0,-2.73,-47.37,25.42,0,0,0,0
158,0,0,-2.98,-48.64,25.37,0,0,0,0
159,0,0,-2.46,-49.92,25.32,0,0,0,0
160,0,0,-2.45,-51.23,25.28,0,0,0,0
161,0,0,-2.60,-52.56,25.23,0,0,0,0
162,0,0,-2.43,-53.92,25.18,0,0,0,0
163,0,0,-2.43,-55.29,25.14,0,0,0,0
164,0,0,-2.43,-56.69,25.10,0,0,0,0
165,0,0,-2.54,-58.10,25.05,0,0,0,0
166,0,0,-2.74,-59.54,25.01,0,0,0,0
167,0,0,-3.83,-61.01,24.97,0,0,0,0
168,0,0,-2.42,-62.49,24.94,0,0,0,0
169,0,0,-2.43,-64.00,24.91,0,0,0,0
170,0,0,-2.58,-65.53,24.87,0,0,0,0
171,0,0,-2.43,-67.09,24.85,0,0,0,0
172,0,0,-2.42,-68.67,24.82,0,0,0,0
173,0,0,-2.42,-70.27,24.80,0,0,0,0
174,0,0,-2.43,-71.90,24.78,0,0,0,0
175,0,0,-2.53,-73.55,24.76,0,0,0,0
176,0,0,-2.42,-75.22,24.75,0,0,0,0
177,0,0,-2.51,-76.92,24.74,0,0,0,0
178,0,0,-2.54,-78.65,24.74,0,0,0,0
179,0,0,-2.42,-80.39,24.74,0,0,0,0
180,0,0,-2.43,-82.17,24.75,0,0,0,0
181,0,0,-2.42,-83.97,24.76,0,0,0,0
182,0,0,-2.43,-85.79,24.77,0,0,0,0
183,0,0,-2.43,-87.64,24.79,0,0,0,0
184,0,0,-2.96,-89.52,24.82,0,0,0,0
185,0,0,-2.42,-91.42,24.85,0,0,0,0
186,0,0,-2.43,-93.35,24.88,0,0,0,0
187,0,0,-2.42,-95.30,24.93,0,0,0,0
188,0,0,-2.43,-97.28,24.98,0,0,0,0
189,0,0,-2.43,-99.29,25.03,0,0,0,0
190,0,0,-2.43,-101.32,25.09,0,0,0,0
191,0,0,-2.42,-103.38,25.16,0,0,0,0
192,0,0,-2.43,-105.47,25.24,0,0,0,0
193,0,0,-2.42,-107.59,25.32,0,0,0,0
194,0,0,-2.42,-107.59,25.32,0,0,0,0
195,0,0,-2.43,-109.57,25.28,0,0,0,0
196,0,0,-2.42,-111.52,25.24,0,0,0,0
197,0,0,-2.46,-113.45,25.20,0,0,0,0
198,0,0,-2.51,-115.35,25.16,0,0,0,0
199,0,0,-2.43,-117.23,25.13,0,0,0,0
200,0,0,-2.42,-119.08,25.09,0,0,0,0
201,0,0,-2.43,-120.91,25.05,0,0,0,0
202,0,0,-2.43,-122.71,25.01,0,0,0,0
203,0,0,-2.43,-124.49,24.98,0,0,0,0
204,0,0,-2.42,-126.25,24.94,0,0,0,0
205,0,0,-2.42,-127.98,24.90,0,0,0,0
206,0,0,-2.57,-129.68,24.86,0,0,0,0
207,0,0,-2.63,-131.37,24.83,0,0,0,0
208,0,0,-2.42,-133.03,24.79,0,0,0,0
209,0,0,-2.48,-134.66,24.75,0,0,0,0
210,0,0,-2.53,-136.28,24.71,0,0,0,0
211,0,0,-2.45,-137.87,24.66,0,0,0,0
212,0,0,-2.42,-139.44,24.62,0,0,0,0
213,0,0,-2.43,-140.98,24.58,0,0,0,0
214,0,0,-2.43,-142.51,24.53,0,0,0,0
215,0,0,-2.48,-144.01,24.48,0,0,0,0
216,0,0,-2.44,-145.49,24.44,0,0,0,0
217,0,0,-2.43,-146.95,24.39,0,0,0,0
218,0,0,-2.53,-148.38,24.33,0,0,0,0
219,0,0,-2.43,-149.80,24.28,0,0,0,0
220,0,0,-2.46,-151.20,24.22,0,0,0,0
221,0,0,-2.48,-152.57,24.16,0,0,0,0
222,0,0,-2.43,-153.93,24.10,0,0,0,0
223,0,0,-2.47,-155.26,24.04,0,0,0,0
224,0,0,-2.49,-156.57,23.97,0,0,0,0
225,0,0,-2.47,-157.87,23.90,0,0,0,0
226,0,0,-2.44,-159.14,23.83,0,0,0,0
227,0,0,-2.45,-160.40,23.75,0,0,0,0
228,0,0,-2.46,-161.63,23.67,0,0,0,0
229,0,0,-2.48,-162.85,23.59,0,0,0,0
230,0,0,-2.47,-164.05,23.50,0,0,0,0
231,0,0,-2.47,-165.23,23.41,0,0,0,0
232,0,0,-2.47,-166.39,23.32,0,0,0,0
233,0,0,-2.46,-167.53,23.22,0,0,0,0
234,0,0,-2.46,-168.65,23.12,0,0,0,0
235,0,0,-2.67,-169.76,23.01,0,0,0,0
236,0,0,-2.51,-170.85,22.90,0,0,0,0
237,0,0,-2.62,-171.92,22.79,0,0,0,0
238,0,0,-2.47,-172.98,22.67,0,0,0,0
239,0,0,-2.46,-174.01,22.54,0,0,0,0
240,0,0,-2.45,-175.04,22.41,0,0,0,0
241,0,0,-2.46,-176.04,22.28,0,0,0,0
242,0,0,-2.46,-177.03,22.14,0,0,0,0
243,0,0,-2.45,-178.00,21.99,0,0,0,0
244,0,0,-2.46,-178.95,21.84,0,0,0,0
245,0,0,-2.46,-179.89,21.69,0,0,0,0
246,0,0,-2.46,-180.82,21.53,0,0,0,0
247,0,0,-2.46,-181.73,21.36,0,0,0,0
248,0,0,-2.45,-182.62,21.19,0,0,0,0
249,0,0,-2.45,-183.50,21.01,0,0,0,0
250,0,0,-2.44,-184.37,20.82,0,0,0,0
251,0,0,-2.45,-185.21,20.63,0,0,0,0
252,0,0,-2.45,-186.05,20.43,0,0,0,0
253,0,0,-2.45,-186.87,20.23,0,0,0,0
254,0,0,-2.58,-187.68,20.02,0,0,0,0
255,0,0,-2.54,-188.47,19.80,0,0,0,0
256,0,0,-2.43,-189.25,19.57,0,0,0,0
257,0,0,-2.43,-190.02,19.34,0,0,0,0
258,0,0,-2.43,-190.77,19.10,0,0,0,0
259,0,0,-2.43,-191.51,18.86,0,0,0,0
260,0,0,-2.44,-192.24,18.60,0,0,0,0
261,0,0,-2.43,-192.96,18.34,0,0,0,0
262,0,0,-2.43,-193.66,18.07,0,0,0,0
263,0,0,-2.48,-194.35,17.79,0,0,0,0
264,0,0,-2.54,-195.03,17.51,0,0,0,0
265,0,0,-2.60,-195.70,17.21,0,0,0,0
266,0,0,-2.57,-196.35,16.91,0,0,0,0
267,0,0,-2.44,-197.00,16.60,0,0,0,0
268,0,0,-2.43,-197.63,16.28,0,0,0,0
269,0,0,-2.43,-198.26,15.95,0,0,0,0
270,0,0,-2.43,-198.87,15.61,0,0,0,0
271,0,0,-2.44,-199.47,15.27,0,0,0,0
272,0,0,-2.44,-200.06,14.91,0,0,0,0
273,0,0,-2.44,-200.64,14.55,0,0,0,0
274,0,0,-2.43,-201.22,14.18,0,0,0,0
275,0,0,-2.43,-201.78,13.79,0,0,0,0
276,0,0,-2.43,-202.33,13.40,0,0,0,0
277,0,0,-2.43,-202.88,13.00,0,0,0,0
278,0,0,-2.43,-203.41,12.59,0,0,0,0
279,0,0,-2.44,-203.94,12.16,0,0,0,0
280,0,0,-2.44,-204.45,11.73,0,0,0,0
281,0,0,-2.44,-204.96,11.29,0,0,0,0
282,0,0,-2.44,-205.46,10.83,0,0,0,0
283,0,0,-2.44,-205.96,10.37,0,0,0,0
284,0,0,-2.43,-206.44,9.90,0,0,0,0
285,0,0,-2.43,-206.92,9.41,0,0,0,0
286,0,0,-2.43,-207.39,8.91,0,0,0,0
287,0,0,-2.43,-207.85,8.41,0,0,0,0
288,0,0,-2.43,-208.31,7.89,0,0,0,0
289,0,0,-2.43,-208.76,7.36,0,0,0,0
290,0,0,-2.43,-209.20,6.82,0,0,0,0
291,0,0,-2.43,-209.64,6.26,0,0,0,0
292,0,0,-2.43,-210.07,5.70,0,0,0,0
293,0,0,-2.43,-210.49,5.12,0,0,0,0
294,0,0,-2.43,-210.91,4.53,0,0,0,0
295,0,0,-2.43,-211.32,3.93,0,0,0,0
296,0,0,-2.43,-211.73,3.32,0,0,0,0
297,0,0,-2.43,-212.13,2.69,0,0,0,0
298,0,0,-2.43,-212.53,2.05,0,0,0,0
299,0,0,-2.43,-212.93,1.40,0,0,0,0
300,0,0,-2.43,-213.31,0.74,0,0,0,0
301,0,0,-2.43,-213.70,0.06,0,0,0,0
302,0,0,-2.43,-214.08,-0.63,0,0,0,0
303,0,0,-2.51,-214.46,-1.33,0,0,0,0
304,0,0,-2.63,-214.83,-2.05,0,0,0,0
305,0,0,-2.63,-214.83,-2.05,0,0,0,0
306,0,0,-2.46,-215.31,-3.18,0,0,0,0
307,0,0,-2.47,-215.79,-4.29,0,0,0,0
308,0,0,-2.44,-216.25,-5.40,0,0,0,0
309,0,0,-2.44,-216.72,-6.50,0,0,0,0
310,0,0,-2.44,-217.17,-7.58,0,0,0,0
311,0,0,-2.44,-217.62,-8.66,0,0,0,0
312,0,0,-2.44,-218.06,-9.72,0,0,0,0
313,0,0,-2.44,-218.50,-10.78,0,0,0,0
314,0,0,-2.44,-218.92,-11.83,0,0,0,0
315,0,0,-2.43,-219.34,-12.87,0,0,0,0
316,0,0,-2.43,-219.75,-13.90,0,0,0,0
317,0,0,-2.44,-220.15,-14.92,0,0,0,0
318,0,0,-2.43,-220.55,-15.94,0,0,0,0
319,0,0,-2.45,-220.93,-16.95,0,0,0,0
320,0,0,-2.44,-221.31,-17.95,0,0,0,0
321,0,0,-2.44,-221.68,-18.94,0,0,0,0
322,0,0,-2.44,-222.03,-19.93,0,0,0,0
323,0,0,-2.44,-222.38,-20.91,0,0,0,0
324,0,0,-2.45,-222.72,-21.89,0,0,0,0
325,0,0,-2.43,-223.05,-22.86,0,0,0,0
326,0,0,-3.00,-223.37,-23.82,0,0,0,0
327,0,0,-2.70,-223.67,-24.78,0,0,0,0
328,0,0,-2.44,-223.97,-25.74,0,0,0,0
329,0,0,-2.43,-224.26,-26.69,0,0,0,0
330,0,0,-2.43,-224.53,-27.64,0,0,0,0
331,0,0,-2.44,-224.79,-28.58,0,0,0,0
332,0,0,-2.44,-225.05,-29.52,0,0,0,0
333,0,0,-2.44,-225.29,-30.46,0,0,0,0
334,0,0,-2.44,-225.51,-31.40,0,0,0,0
335,0,0,-2.43,-225.73,-32.33,0,0,0,0
336,0,0,-2.49,-225.93,-33.26,0,0,0,0
337,0,0,-2.44,-226.12,-34.19,0,0,0,0
338,0,0,-2.56,-226.30,-35.11,0,0,0,0
339,0,0,-2.44,-226.47,-36.04,0,0,0,0
340,0,0,-2.44,-226.62,-36.96,0,0,0,0
341,0,0,-2.44,-226.75,-37.89,0,0,0,0
342,0,0,-2.45,-226.88,-38.81,0,0,0,0
343,0,0,-2.46,-226.99,-39.74,0,0,0,0
344,0,0,-2.44,-227.08,-40.66,0,0,0,0
345,0,0,-2.46,-227.16,-41.59,0,0,0,0
346,0,0,-2.49,-227.23,-42.51,0,0,0,0
347,0,0,-2.56,-227.28,-43.44,0,0,0,0
348,0,0,-2.45,-227.32,-44.37,0,0,0,0
349,0,0,-2.58,-227.34,-45.30,0,0,0,0
350,0,0,-2.49,-227.35,-46.23,0,0,0,0
351,0,0,-2.61,-227.34,-47.17,0,0,0,0
352,0,0,-2.48,-227.31,-48.11,0,0,0,0
353,0,0,-2.73,-227.27,-49.05,0,0,0,0
354,0,0,-2.61,-227.21,-50.00,0,0,0,0
355,0,0,-2.63,-227.13,-50.95,0,0,0,0
356,0,0,-2.71,-227.04,-51.90,0,0,0,0
357,0,0,-2.77,-226.93,-52.86,0,0,0,0
358,0,0,-2.69,-226.80,-53.82,0,0,0,0
359,0,0,-2.53,-226.66,-54.79,0,0,0,0
360,0,0,-2.71,-226.50,-55.76,0,0,0,0
361,0,0,-2.69,-226.32,-56.74,0,0,0,0
362,0,0,-3.28,-226.12,-57.73,0,0,0,0
363,0,0,-3.21,-225.90,-58.72,0,0,0,0
364,0,0,-2.47,-225.67,-59.72,0,0,0,0
365,0,0,-2.61,-225.41,-60.72,0,0,0,0
366,0,0,-2.59,-225.14,-61.74,0,0,0,0
367,0,0,-2.48,-224.85,-62.76,0,0,0,0
368,0,0,-2.92,-224.53,-63.78,0,0,0,0
369,0,0,-2.65,-224.20,-64.82,0,0,0,0
370,0,0,-2.49,-223.85,-65.86,0,0,0,0
371,0,0,-2.54,-223.48,-66.92,0,0,0,0
372,0,0,-2.47,-223.09,-67.98,0,0,0,0
373,0,0,-2.81,-222.67,-69.05,0,0,0,0
374,0,0,-2.64,-222.24,-70.13,0,0,0,0
375,0,0,-2.67,-221.78,-71.22,0,0,0,0
376,0,0,-2.54,-221.31,-72.33,0,0,0,0
377,0,0,-2.59,-220.81,-73.44,0,0,0,0
378,0,0,-2.65,-220.29,-74.56,0,0,0,0
379,0,0,-3.30,-219.75,-75.70,0,0,0,0
380,0,0,-2.58,-219.19,-76.84,0,0,0,0
381,0,0,-2.83,-218.60,-78.00,0,0,0,0
382,0,0,-2.52,-217.99,-79.17,0,0,0,0
383,0,0,-2.86,-217.36,-80.36,0,0,0,0
384,0,0,-2.63,-216.71,-81.55,0,0,0,0
385,0,0,-2.63,-216.71,-81.55,0,0,0,0
386,0,0,-2.78,-216.29,-82.36,0,0,0,0
387,0,0,-2.86,-215.89,-83.19,0,0,0,0
388,0,0,-3.09,-215.51,-84.06,0,0,0,0
389,0,0,-2.50,-215.15,-84.95,0,0,0,0
390,0,0,-2.71,-214.81,-85.88,0,0,0,0
391,0,0,-2.76,-214.49,-86.83,0,0,0,0
392,0,0,-2.55,-214.19,-87.80,0,0,0,0
393,0,0,-2.89,-213.92,-88.80,0,0,0,0
394,0,0,-2.73,-213.67,-89.83,0,0,0,0
395,0,0,-2.69,-213.44,-90.87,0,0,0,0
396,0,0,-2.66,-213.23,-91.93,0,0,0,0
397,0,0,-2.89,-213.05,-93.01,0,0,0,0
398,0,0,-2.65,-212.89,-94.11,0,0,0,0
399,0,0,-2.73,-212.75,-95.23,0,0,0,0
400,0,0,-2.68,-212.64,-96.35,0,0,0,0
401,0,0,-2.76,-212.56,-97.49,0,0,0,0
402,0,0,-2.68,-212.50,-98.65,0,0,0,0
403,0,0,-2.70,-212.46,-99.81,0,0,0,0
404,0,0,-2.68,-212.45,-100.98,0,0,0,0
405,0,0,-2.65,-212.47,-102.15,0,0,0,0
406,0,0,-2.62,-212.52,-103.33,0,0,0,0
407,0,0,-2.46,-212.59,-104.52,0,0,0,0
408,0,0,-2.45,-212.69,-105.70,0,0,0,0
409,0,0,-2.46,-212.82,-106.89,0,0,0,0
410,0,0,-2.45,-212.98,-108.08,0,0,0,0
411,0,0,-2.45,-213.17,-109.26,0,0,0,0
412,0,0,-2.44,-213.38,-110.45,0,0,0,0
413,0,0,-2.54,-213.63,-111.62,0,0,0,0
414,0,0,-2.62,-213.90,-112.80,0,0,0,0
415,0,0,-2.64,-214.21,-113.96,0,0,0,0
416,0,0,-2.46,-214.55,-115.11,0,0,0,0
417,0,0,-2.61,-214.92,-116.26,0,0,0,0
418,0,0,-2.55,-215.32,-117.39,0,0,0,0
419,0,0,-2.58,-215.76,-118.51,0,0,0,0
420,0,0,-2.64,-216.22,-119.61,0,0,0,0
421,0,0,-2.54,-216.72,-120.70,0,0,0,0
422,0,0,-2.47,-217.25,-121.77,0,0,0,0
423,0,0,-2.76,-217.82,-122.82,0,0,0,0
424,0,0,-2.53,-218.42,-123.85,0,0,0,0
425,0,0,-2.54,-219.06,-124.86,0,0,0,0
426,0,0,-2.59,-219.73,-125.85,0,0,0,0
427,0,0,-2.57,-220.44,-126.81,0,0,0,0
428,0,0,-2.71,-221.18,-127.74,0,0,0,0
429,0,0,-2.51,-221.96,-128.65,0,0,0,0
430,0,0,-2.51,-222.77,-129.52,0,0,0,0
431,0,0,-2.61,-223.63,-130.37,0,0,0,0
432,0,0,-2.59,-224.52,-131.18,0,0,0,0
433,0,0,-2.51,-225.45,-131.96,0,0,0,0
434,0,0,-2.73,-226.41,-132.71,0,0,0,0
435,0,0,-2.82,-227.42,-133.42,0,0,0,0
436,0,0,-2.55,-228.46,-134.09,0,0,0,0
437,0,0,-2.51,-229.55,-134.72,0,0,0,0
438,0,0,-2.52,-230.67,-135.31,0,0,0,0
439,0,0,-2.51,-231.83,-135.86,0,0,0,0
440,0,0,-2.63,-233.04,-136.37,0,0,0,0
441,0,0,-2.51,-234.28,-136.83,0,0,0,0
442,0,0,-2.50,-235.57,-137.24,0,0,0,0
443,0,0,-2.52,-236.90,-137.61,0,0,0,0
444,0,0,-2.45,-238.27,-137.93,0,0,0,0
445,0,0,-2.67,-239.69,-138.19,0,0,0,0
446,0,0,-2.47,-241.15,-138.41,0,0,0,0
447,0,0,-2.69,-242.65,-138.57,0,0,0,0
448,0,0,-2.53,-244.19,-138.67,0,0,0,0
449,0,0,-2.48,-245.78,-138.72,0,0,0,0
450,0,0,-2.48,-245.78,-138.72,0,0,0,0
451,0,0,-2.51,-247.52,-139.06,0,0,0,0
452,0,0,-2.45,-249.22,-139.36,0,0,0,0
453,0,0,-2.51,-250.88,-139.60,0,0,0,0
454,0,0,-2.50,-252.50,-139.79,0,0,0,0
455,0,0,-2.46,-254.08,-139.93,0,0,0,0
456,0,0,-2.45,-255.63,-140.02,0,0,0,0
457,0,0,-2.61,-257.14,-140.07,0,0,0,0
458,0,0,-2.45,-258.62,-140.07,0,0,0,0
459,0,0,-2.44,-260.06,-140.03,0,0,0,0
460,0,0,-2.46,-261.46,-139.94,0,0,0,0
461,0,0,-2.69,-262.83,-139.81,0,0,0,0
462,0,0,-2.43,-264.16,-139.64,0,0,0,0
463,0,0,-2.53,-265.46,-139.42,0,0,0,0
464,0,0,-2.50,-266.72,-139.17,0,0,0,0
465,0,0,-2.44,-267.95,-138.88,0,0,0,0
466,0,0,-2.51,-269.15,-138.55,0,0,0,0
467,0,0,-2.80,-270.31,-138.18,0,0,0,0
468,0,0,-2.44,-271.44,-137.78,0,0,0,0
469,0,0,-2.45,-272.54,-137.34,0,0,0,0
470,0,0,-2.67,-273.61,-136.87,0,0,0,0
471,0,0,-2.50,-274.64,-136.37,0,0,0,0
472,0,0,-2.56,-275.65,-135.83,0,0,0,0
473,0,0,-2.49,-276.62,-135.26,0,0,0,0
474,0,0,-2.54,-277.57,-134.66,0,0,0,0
475,0,0,-2.55,-278.48,-134.04,0,0,0,0
476,0,0,-2.43,-279.36,-133.38,0,0,0,0
477,0,0,-2.45,-280.22,-132.70,0,0,0,0
478,0,0,-2.44,-281.04,-131.99,0,0,0,0
479,0,0,-2.45,-281.84,-131.26,0,0,0,0
480,0,0,-2.47,-282.61,-130.50,0,0,0,0
481,0,0,-2.47,-283.35,-129.72,0,0,0,0
482,0,0,-2.51,-284.07,-128.92,0,0,0,0
483,0,0,-2.54,-284.75,-128.09,0,0,0,0
484,0,0,-2.58,-285.41,-127.25,0,0,0,0
485,0,0,-2.57,-286.05,-126.38,0,0,0,0
486,0,0,-2.51,-286.66,-125.50,0,0,0,0
487,0,0,-2.55,-287.24,-124.60,0,0,0,0
488,0,0,-2.51,-287.80,-123.68,0,0,0,0
489,0,0,-2.54,-288.33,-122.75,0,0,0,0
490,0,0,-2.47,-288.84,-121.80,0,0,0,0
491,0,0,-2.65,-289.33,-120.84,0,0,0,0
492,0,0,-2.70,-289.79,-119.87,0,0,0,0
493,0,0,-2.53,-290.23,-118.89,0,0,0,0
494,0,0,-2.77,-290.64,-117.89,0,0,0,0
495,0,0,-2.52,-291.03,-116.89,0,0,0,0
496,0,0,-2.47,-291.41,-115.87,0,0,0,0
497,0,0,-2.44,-291.75,-114.85,0,0,0,0
498,0,0,-2.49,-292.08,-113.83,0,0,0,0
499,0,0,-2.52,-292.39,-112.79,0,0,0,0
500,0,0,-2.50,-292.68,-111.76,0,0,0,0
501,0,0,-2.49,-292.94,-110.72,0,0,0,0
502,0,0,-2.55,-293.19,-109.67,0,0,0,0
503,0,0,-2.53,-293.42,-108.63,0,0,0,0
504,0,0,-2.59,-293.62,-107.58,0,0,0,0
505,0,0,-2.51,-293.81,-106.53,0,0,0,0
506,0,0,-2.47,-293.98,-105.49,0,0,0,0
507,0,0,-2.46,-294.14,-104.45,0,0,0,0
508,0,0,-2.45,-294.27,-103.41,0,0,0,0
509,0,0,-2.41,-294.39,-102.37,0,0,0,0
510,0,0,-2.43,-294.49,-101.34,0,0,0,0
511,0,0,-2.46,-294.58,-100.32,0,0,0,0
512,0,0,-2.22,-294.65,-99.30,0,0,0,0
513,0,0,-2.40,-294.70,-98.29,0,0,0,0
514,0,0,-2.37,-294.74,-97.29,0,0,0,0
515,0,0,-2.37,-294.74,-97.29,0,0,0,0
516,0,0,-2.40,-294.69,-96.49,0,0,0,0
517,0,0,-2.46,-294.61,-95.67,0,0,0,0
518,0,0,-2.45,-294.50,-94.85,0,0,0,0
519,0,0,-2.48,-294.36,-94.03,0,0,0,0
520,0,0,-2.51,-294.20,-93.20,0,0,0,0
521,0,0,-2.51,-294.02,-92.36,0,0,0,0
522,0,0,-2.50,-293.81,-91.51,0,0,0,0
523,0,0,-2.51,-293.57,-90.66,0,0,0,0
524,0,0,-2.49,-293.31,-89.81,0,0,0,0
525,0,0,-2.49,-293.02,-88.94,0,0,0,0
526,0,0,-2.60,-292.71,-88.08,0,0,0,0
527,0,0,-2.48,-292.38,-87.21,0,0,0,0
528,0,0,-2.53,-292.03,-86.33,0,0,0,0
529,0,0,-2.03,-291.65,-85.45,0,0,0,0
530,0,0,-1.79,-291.26,-84.56,0,0,0,0
531,0,0,-1.94,-290.84,-83.67,0,0,0,0
532,0,0,-0.90,-290.40,-82.78,0,0,0,0
533,0,0,-0.14,-289.95,-81.89,0,0,0,0
534,0,0,-1.07,-289.47,-80.99,0,0,0,0
535,0,0,-0.04,-288.98,-80.08,0,0,0,0
536,0,0,-1.18,-288.47,-79.18,0,0,0,0
537,0,0,-2.16,-287.94,-78.27,0,0,0,0
538,0,0,-2.83,-287.39,-77.36,0,0,0,0
539,0,0,-1.94,-286.83,-76.44,0,0,0,0
540,0,0,-0.76,-286.25,-75.53,0,0,0,0
541,0,0,-0.13,-285.66,-74.61,0,0,0,0
542,0,0,-0.78,-285.05,-73.69,0,0,0,0
543,0,0,-0.89,-284.43,-72.77,0,0,0,0
544,0,0,-0.38,-283.79,-71.85,0,0,0,0
545,0,0,-2.01,-283.14,-70.93,0,0,0,0
546,0,0,-1.32,-282.48,-70.01,0,0,0,0
547,0,0,-2.53,-281.81,-69.08,0,0,0,0
548,0,0,-2.58,-281.12,-68.16,0,0,0,0
549,0,0,-2.49,-280.42,-67.23,0,0,0,0
550,0,0,-2.51,-279.72,-66.31,0,0,0,0
551,0,0,-2.49,-279.00,-65.39,0,0,0,0
552,0,0,-2.49,-278.27,-64.46,0,0,0,0
553,0,0,-2.44,-277.54,-63.54,0,0,0,0
554,0,0,-2.43,-276.79,-62.62,0,0,0,0
555,0,0,-2.50,-276.04,-61.70,0,0,0,0
556,0,0,-2.43,-275.28,-60.78,0,0,0,0
557,0,0,-2.52,-274.52,-59.86,0,0,0,0
558,0,0,-2.50,-273.74,-58.95,0,0,0,0
559,0,0,-2.45,-272.97,-58.03,0,0,0,0
560,0,0,-2.45,-272.18,-57.12,0,0,0,0
561,0,0,-2.47,-271.40,-56.22,0,0,0,0
562,0,0,-2.48,-270.60,-55.31,0,0,0,0
563,0,0,-2.45,-269.81,-54.41,0,0,0,0
564,0,0,-2.59,-269.01,-53.51,0,0,0,0
565,0,0,-2.40,-268.21,-52.61,0,0,0,0
566,0,0,-2.47,-267.40,-51.72,0,0,0,0
567,0,0,-2.43,-266.60,-50.83,0,0,0,0
568,0,0,-2.49,-265.79,-49.95,0,0,0,0
569,0,0,-2.47,-264.99,-49.07,0,0,0,0
570,0,0,-2.62,-264.18,-48.19,0,0,0,0
571,0,0,-2.56,-263.38,-47.32,0,0,0,0
572,0,0,-2.53,-262.57,-46.46,0,0,0,0
573,0,0,-2.54,-261.77,-45.60,0,0,0,0
574,0,0,-2.54,-260.97,-44.74,0,0,0,0
575,0,0,-2.53,-260.17,-43.89,0,0,0,0
576,0,0,-2.50,-259.38,-43.05,0,0,0,0
577,0,0,-2.47,-258.59,-42.21,0,0,0,0
578,0,0,-2.46,-257.80,-41.38,0,0,0,0
579,0,0,-2.48,-257.02,-40.55,0,0,0,0
580,0,0,-2.47,-256.25,-39.73,0,0,0,0
581,0,0,-2.50,-255.48,-38.92,0,0,0,0
582,0,0,-2.54,-254.72,-38.12,0,0,0,0
583,0,0,-2.50,-253.96,-37.32,0,0,0,0
584,0,0,-2.49,-253.21,-36.53,0,0,0,0
585,0,0,-2.48,-252.47,-35.75,0,0,0,0
586,0,0,-2.50,-251.74,-34.98,0,0,0,0
587,0,0,-2.53,-251.02,-34.21,0,0,0,0
588,0,0,-2.56,-250.30,-33.45,0,0,0,0
589,0,0,-2.58,-249.60,-32.71,0,0,0,0
590,0,0,-2.54,-248.91,-31.97,0,0,0,0
591,0,0,-2.49,-248.23,-31.24,0,0,0,0
592,0,0,-2.47,-247.56,-30.52,0,0,0,0
593,0,0,-2.47,-246.90,-29.80,0,0,0,0
594,0,0,-2.53,-246.26,-29.10,0,0,0,0
595,0,0,-2.54,-245.63,-28.41,0,0,0,0
596,0,0,-2.51,-245.01,-27.73,0,0,0,0
597,0,0,-2.53,-244.41,-27.06,0,0,0,0
598,0,0,-2.55,-243.82,-26.40,0,0,0,0
599,0,0,-2.52,-243.25,-25.75,0,0,0,0
600,0,0,-2.51,-242.70,-25.11,0,0,0,0
601,0,0,-2.51,-242.16,-24.48,0,0,0,0
602,0,0,-2.50,-241.64,-23.87,0,0,0,0
603,0,0,-2.55,-241.13,-23.26,0,0,0,0
604,0,0,-2.56,-240.65,-22.67,0,0,0,0
605,0,0,-2.52,-240.18,-22.09,0,0,0,0
606,0,0,-2.50,-239.73,-21.52,0,0,0,0
607,0,0,-2.49,-239.30,-20.97,0,0,0,0
608,0,0,-2.52,-238.90,-20.43,0,0,0,0
609,0,0,-2.52,-238.51,-19.90,0,0,0,0
610,0,0,-2.53,-238.14,-19.38,0,0,0,0
611,0,0,-2.52,-237.80,-18.88,0,0,0,0
612,0,0,-2.52,-237.80,-18.88,0,0,0,0
613,0,0,-2.47,-237.18,-17.54,0,0,0,0
614,0,0,-2.50,-236.56,-16.23,0,0,0,0
615,0,0,-2.59,-235.92,-14.94,0,0,0,0
616,0,0,-2.49,-235.29,-13.67,0,0,0,0
617,0,0,-2.49,-234.64,-12.42,0,0,0,0
618,0,0,-2.47,-233.99,-11.20,0,0,0,0
619,0,0,-2.48,-233.34,-9.99,0,0,0,0
620,0,0,-2.49,-232.68,-8.81,0,0,0,0
621,0,0,-2.48,-232.01,-7.65,0,0,0,0
622,0,0,-2.49,-231.34,-6.51,0,0,0,0
623,0,0,-2.56,-230.66,-5.38,0,0,0,0
624,0,0,-2.52,-229.98,-4.29,0,0,0,0
625,0,0,-2.56,-229.29,-3.21,0,0,0,0
626,0,0,-2.52,-228.60,-2.15,0,0,0,0
627,0,0,-2.61,-227.90,-1.11,0,0,0,0
628,0,0,-2.52,-227.19,-0.09,0,0,0,0
629,0,0,-2.53,-226.48,0.91,0,0,0,0
630,0,0,-2.50,-225.77,1.89,0,0,0,0
631,0,0,-2.48,-225.05,2.85,0,0,0,0
632,0,0,-2.48,-224.32,3.79,0,0,0,0
633,0,0,-2.49,-223.59,4.71,0,0,0,0
634,0,0,-2.51,-222.86,5.62,0,0,0,0
635,0,0,-2.51,-222.12,6.50,0,0,0,0
636,0,0,-2.52,-221.37,7.37,0,0,0,0
637,0,0,-2.49,-220.62,8.21,0,0,0,0
638,0,0,-2.49,-219.87,9.04,0,0,0,0
639,0,0,-2.50,-219.11,9.86,0,0,0,0
640,0,0,-2.48,-218.34,10.65,0,0,0,0
641,0,0,-2.47,-217.57,11.43,0,0,0,0
642,0,0,-2.48,-216.80,12.18,0,0,0,0
643,0,0,-2.48,-216.02,12.93,0,0,0,0
644,0,0,-2.49,-215.24,13.65,0,0,0,0
645,0,0,-2.48,-214.45,14.36,0,0,0,0
646,0,0,-2.48,-213.66,15.05,0,0,0,0
647,0,0,-2.48,-212.86,15.72,0,0,0,0
648,0,0,-2.48,-212.06,16.38,0,0,0,0
649,0,0,-2.48,-211.26,17.02,0,0,0,0
650,0,0,-2.47,-210.45,17.65,0,0,0,0
651,0,0,-2.47,-209.64,18.26,0,0,0,0
652,0,0,-2.48,-208.82,18.85,0,0,0,0
653,0,0,-2.48,-208.00,19.43,0,0,0,0
654,0,0,-2.46,-207.17,20.00,0,0,0,0
655,0,0,-2.48,-206.34,20.54,0,0,0,0
656,0,0,-2.50,-205.51,21.08,0,0,0,0
657,0,0,-2.58,-204.67,21.60,0,0,0,0
658,0,0,-2.62,-203.83,22.10,0,0,0,0
659,0,0,-2.50,-202.99,22.59,0,0,0,0
660,0,0,-2.46,-202.14,23.06,0,0,0,0
661,0,0,-2.48,-201.29,23.53,0,0,0,0
662,0,0,-2.49,-200.43,23.97,0,0,0,0
663,0,0,-2.47,-199.58,24.41,0,0,0,0
664,0,0,-2.51,-198.71,24.83,0,0,0,0
665,0,0,-2.59,-197.85,25.23,0,0,0,0
666,0,0,-2.46,-196.98,25.63,0,0,0,0
667,0,0,-2.47,-196.11,26.01,0,0,0,0
668,0,0,-2.46,-195.23,26.37,0,0,0,0
669,0,0,-2.46,-194.35,26.73,0,0,0,0
670,0,0,-2.46,-193.47,27.07,0,0,0,0
671,0,0,-2.46,-192.58,27.40,0,0,0,0
672,0,0,-2.46,-191.70,27.72,0,0,0,0
673,0,0,-2.45,-190.80,28.03,0,0,0,0
674,0,0,-2.46,-189.91,28.32,0,0,0,0
675,0,0,-2.46,-189.01,28.60,0,0,0,0
676,0,0,-2.45,-188.11,28.87,0,0,0,0
677,0,0,-2.46,-187.21,29.13,0,0,0,0
678,0,0,-2.46,-186.30,29.38,0,0,0,0
679,0,0,-2.45,-185.39,29.62,0,0,0,0
680,0,0,-2.45,-184.48,29.85,0,0,0,0
681,0,0,-2.45,-183.57,30.06,0,0,0,0
682,0,0,-2.46,-182.65,30.27,0,0,0,0
683,0,0,-2.51,-181.73,30.47,0,0,0,0
684,0,0,-2.55,-180.81,30.65,0,0,0,0
685,0,0,-2.49,-179.89,30.83,0,0,0,0
686,0,0,-2.61,-178.96,31.00,0,0,0,0
687,0,0,-2.73,-178.03,31.15,0,0,0,0
688,0,0,-2.49,-177.10,31.30,0,0,0,0
689,0,0,-2.46,-176.17,31.44,0,0,0,0
690,0,0,-2.46,-175.23,31.57,0,0,0,0
691,0,0,-2.46,-174.29,31.69,0,0,0,0
692,0,0,-2.46,-173.35,31.80,0,0,0,0
693,0,0,-2.45,-172.41,31.91,0,0,0,0
694,0,0,-2.48,-171.47,32.00,0,0,0,0
695,0,0,-2.48,-170.52,32.09,0,0,0,0
696,0,0,-2.47,-169.58,32.17,0,0,0,0
697,0,0,-2.49,-168.63,32.24,0,0,0,0
698,0,0,-2.47,-167.67,32.31,0,0,0,0
699,0,0,-2.47,-166.72,32.36,0,0,0,0
700,0,0,-2.46,-165.77,32.41,0,0,0,0
701,0,0,-2.46,-164.81,32.46,0,0,0,0
702,0,0,-2.46,-163.85,32.49,0,0,0,0
703,0,0,-2.46,-163.85,32.49,0,0,0,0
704,0,0,-2.44,-163.50,32.49,0,0,0,0
705,0,0,-2.45,-163.13,32.49,0,0,0,0
706,0,0,-2.46,-162.74,32.49,0,0,0,0
707,0,0,-2.46,-162.32,32.49,0,0,0,0
708,0,0,-2.45,-161.89,32.50,0,0,0,0
709,0,0,-2.43,-161.43,32.50,0,0,0,0
710,0,0,-2.45,-160.95,32.50,0,0,0,0
711,0,0,-2.47,-160.46,32.50,0,0,0,0
712,0,0,-2.48,-159.94,32.50,0,0,0,0
713,0,0,-2.46,-159.41,32.51,0,0,0,0
714,0,0,-2.47,-158.85,32.51,0,0,0,0
715,0,0,-2.47,-158.28,32.51,0,0,0,0
716,0,0,-2.46,-157.69,32.51,0,0,0,0
717,0,0,-2.47,-157.08,32.52,0,0,0,0
718,0,0,-2.47,-156.45,32.52,0,0,0,0
719,0,0,-2.45,-155.80,32.52,0,0,0,0
720,0,0,-2.46,-155.14,32.53,0,0,0,0
721,0,0,-2.49,-154.46,32.53,0,0,0,0
722,0,0,-2.45,-153.76,32.54,0,0,0,0
723,0,0,-2.43,-153.04,32.54,0,0,0,0
724,0,0,-2.43,-152.31,32.54,0,0,0,0
725,0,0,-2.43,-151.56,32.55,0,0,0,0
726,0,0,-2.44,-150.79,32.55,0,0,0,0
727,0,0,-2.43,-150.01,32.56,0,0,0,0
728,0,0,-2.43,-149.22,32.57,0,0,0,0
729,0,0,-2.43,-148.40,32.57,0,0,0,0
730,0,0,-2.43,-147.58,32.58,0,0,0,0
731,0,0,-2.45,-146.73,32.58,0,0,0,0
732,0,0,-2.42,-145.88,32.59,0,0,0,0
733,0,0,-2.42,-145.00,32.59,0,0,0,0
734,0,0,-2.43,-144.12,32.60,0,0,0,0
735,0,0,-2.43,-143.22,32.61,0,0,0,0
736,0,0,-2.43,-142.30,32.61,0,0,0,0
737,0,0,-2.43,-141.38,32.62,0,0,0,0
738,0,0,-2.43,-140.44,32.63,0,0,0,0
739,0,0,-2.46,-139.48,32.63,0,0,0,0
740,0,0,-2.50,-138.52,32.64,0,0,0,0
741,0,0,-2.45,-137.54,32.65,0,0,0,0
742,0,0,-2.46,-136.55,32.66,0,0,0,0
743,0,0,-2.43,-135.55,32.66,0,0,0,0
744,0,0,-2.53,-134.53,32.67,0,0,0,0
745,0,0,-2.47,-133.50,32.68,0,0,0,0
746,0,0,-2.50,-132.47,32.69,0,0,0,0
747,0,0,-2.44,-131.42,32.70,0,0,0,0
748,0,0,-2.43,-130.36,32.70,0,0,0,0
749,0,0,-2.43,-129.29,32.71,0,0,0,0
750,0,0,-2.42,-128.21,32.72,0,0,0,0
751,0,0,-2.42,-127.12,32.73,0,0,0,0
752,0,0,-2.42,-126.02,32.74,0,0,0,0
753,0,0,-2.42,-124.91,32.75,0,0,0,0
754,0,0,-2.42,-123.79,32.75,0,0,0,0
755,0,0,-2.42,-122.66,32.76,0,0,0,0
756,0,0,-2.42,-121.53,32.77,0,0,0,0
757,0,0,-2.43,-120.38,32.78,0,0,0,0
758,0,0,-2.43,-119.23,32.79,0,0,0,0
759,0,0,-2.42,-118.07,32.80,0,0,0,0
760,0,0,-2.49,-116.90,32.81,0,0,0,0
761,0,0,-2.61,-115.72,32.82,0,0,0,0
762,0,0,-2.42,-114.54,32.83,0,0,0,0
763,0,0,-2.45,-113.35,32.84,0,0,0,0
764,0,0,-2.46,-112.15,32.85,0,0,0,0
765,0,0,-2.43,-110.95,32.86,0,0,0,0
766,0,0,-2.42,-109.74,32.86,0,0,0,0
767,0,0,-2.43,-108.52,32.87,0,0,0,0
768,0,0,-2.43,-107.30,32.88,0,0,0,0
769,0,0,-2.42,-106.07,32.89,0,0,0,0
770,0,0,-2.42,-104.84,32.90,0,0,0,0
771,0,0,-2.42,-103.60,32.91,0,0,0,0
772,0,0,-2.42,-102.36,32.92,0,0,0,0
773,0,0,-2.42,-101.11,32.93,0,0,0,0
774,0,0,-2.43,-99.86,32.94,0,0,0,0
775,0,0,-2.43,-98.60,32.95,0,0,0,0
776,0,0,-2.42,-97.34,32.96,0,0,0,0
777,0,0,-2.43,-96.08,32.97,0,0,0,0
778,0,0,-2.45,-94.81,32.98,0,0,0,0
779,0,0,-2.42,-93.54,32.99,0,0,0,0
780,0,0,-2.43,-92.27,33.00,0,0,0,0
781,0,0,-2.42,-90.99,33.01,0,0,0,0
782,0,0,-2.42,-89.71,33.02,0,0,0,0
783,0,0,-2.42,-88.43,33.03,0,0,0,0
784,0,0,-2.43,-87.15,33.04,0,0,0,0
785,0,0,-2.42,-85.87,33.05,0,0,0,0
786,0,0,-2.43,-84.58,33.06,0,0,0,0
787,0,0,-2.43,-83.30,33.07,0,0,0,0
788,0,0,-2.43,-82.01,33.08,0,0,0,0
789,0,0,-2.43,-80.72,33.09,0,0,0,0
790,0,0,-2.43,-79.44,33.10,0,0,0,0
791,0,0,-2.61,-78.15,33.11,0,0,0,0
792,0,0,-2.43,-76.86,33.12,0,0,0,0
793,0,0,-2.44,-75.58,33.13,0,0,0,0
794,0,0,-2.43,-74.29,33.14,0,0,0,0
795,0,0,-2.71,-73.00,33.15,0,0,0,0
796,0,0,-2.42,-71.72,33.15,0,0,0,0
797,0,0,-2.43,-70.44,33.16,0,0,0,0
798,0,0,-2.43,-69.15,33.17,0,0,0,0
799,0,0,-2.43,-67.87,33.18,0,0,0,0
800,0,0,-2.43,-66.60,33.19,0,0,0,0
801,0,0,-2.43,-65.32,33.20,0,0,0,0
802,0,0,-2.43,-64.05,33.21,0,0,0,0
803,0,0,-2.42,-62.78,33.22,0,0,0,0
804,0,0,-2.85,-61.51,33.23,0,0,0,0
805,0,0,-2.98,-60.25,33.24,0,0,0,0
806,0,0,-3.10,-58.99,33.24,0,0,0,0
807,0,0,-2.86,-57.73,33.25,0,0,0,0
808,0,0,-3.09,-56.48,33.26,0,0,0,0
809,0,0,-3.14,-55.24,33.27,0,0,0,0
810,0,0,-2.54,-53.99,33.28,0,0,0,0
811,0,0,-2.53,-52.76,33.29,0,0,0,0
812,0,0,-2.59,-51.52,33.29,0,0,0,0
813,0,0,-2.57,-50.29,33.30,0,0,0,0
814,0,0,-2.88,-49.07,33.31,0,0,0,0
815,0,0,-2.81,-47.86,33.32,0,0,0,0
816,0,0,-2.68,-46.65,33.32,0,0,0,0
817,0,0,-2.97,-45.44,33.33,0,0,0,0
818,0,0,-2.67,-44.25,33.34,0,0,0,0
819,0,0,-2.74,-43.06,33.35,0,0,0,0
820,0,0,-2.89,-41.87,33.35,0,0,0,0
821,0,0,-2.81,-40.70,33.36,0,0,0,0
822,0,0,-2.64,-39.53,33.37,0,0,0,0
823,0,0,-2.58,-38.37,33.37,0,0,0,0
824,0,0,-2.87,-37.22,33.38,0,0,0,0
825,0,0,-2.76,-36.07,33.39,0,0,0,0
826,0,0,-2.69,-34.94,33.39,0,0,0,0
827,0,0,-2.64,-33.81,33.40,0,0,0,0
828,0,0,-2.69,-32.69,33.40,0,0,0,0
829,0,0,-2.91,-31.58,33.41,0,0,0,0
830,0,0,-2.70,-30.48,33.41,0,0,0,0
831,0,0,-2.56,-29.40,33.42,0,0,0,0
832,0,0,-2.76,-28.32,33.42,0,0,0,0
833,0,0,-2.73,-27.25,33.43,0,0,0,0
834,0,0,-2.44,-26.19,33.43,0,0,0,0
835,0,0,-2.78,-25.14,33.44,0,0,0,0
836,0,0,-2.82,-24.11,33.44,0,0,0,0
837,0,0,-2.78,-23.08,33.45,0,0,0,0
838,0,0,-2.83,-22.07,33.45,0,0,0,0
839,0,0,-2.83,-21.07,33.45,0,0,0,0
840,0,0,-2.87,-20.08,33.46,0,0,0,0
841,0,0,-2.90,-19.10,33.46,0,0,0,0
842,0,0,-2.87,-18.13,33.46,0,0,0,0
843,0,0,-2.94,-17.18,33.47,0,0,0,0
844,0,0,-2.98,-16.24,33.47,0,0,0,0
845,0,0,-3.02,-15.32,33.47,0,0,0,0
846,0,0,-3.06,-14.40,33.47,0,0,0,0
847,0,0,-3.08,-13.50,33.48,0,0,0,0
848,0,0,-3.16,-12.62,33.48,0,0,0,0
849,0,0,-3.18,-11.75,33.48,0,0,0,0
850,0,0,-3.16,-10.89,33.48,0,0,0,0
851,0,0,-3.12,-10.05,33.48,0,0,0,0
852,0,0,-3.28,-9.23,33.48,0,0,0,0
853,0,0,-3.29,-8.42,33.48,0,0,0,0
854,0,0,-3.22,-7.62,33.48,0,0,0,0
855,0,0,-3.08,-6.84,33.48,0,0,0,0
856,0,0,-3.40,-6.08,33.48,0,0,0,0
857,0,0,-3.25,-5.33,33.48,0,0,0,0
858,0,0,-3.17,-4.60,33.48,0,0,0,0
859,0,0,-3.05,-3.88,33.48,0,0,0,0
860,0,0,-3.47,-3.19,33.48,0,0,0,0
861,0,0,-3.32,-2.51,33.48,0,0,0,0
862,0,0,-3.06,-1.84,33.47,0,0,0,0
863,0,0,-3.01,-1.20,33.47,0,0,0,0
864,0,0,-3.33,-0.57,33.47,0,0,0,0
865,0,0,-3.68,0.04,33.47,0,0,0,0
866,0,0,-3.42,0.63,33.46,0,0,0,0
867,0,0,-3.29,1.20,33.46,0,0,0,0
868,0,0,-2.94,1.75,33.46,0,0,0,0
869,0,0,-2.97,2.28,33.45,0,0,0,0
870,0,0,-2.97,2.28,33.45,0,0,0,0
871,0,0,-2.82,3.83,33.40,0,0,0,0
872,0,0,-3.68,5.30,33.29,0,0,0,0
873,0,0,-2.98,6.71,33.12,0,0,0,0
874,0,0,-2.67,8.04,32.89,0,0,0,0
875,0,0,-2.96,9.31,32.60,0,0,0,0
876,0,0,-3.70,10.51,32.26,0,0,0,0
877,0,0,-3.00,11.65,31.86,0,0,0,0
878,0,0,-2.43,12.73,31.42,0,0,0,0
879,0,0,-2.43,13.75,30.92,0,0,0,0
880,0,0,-2.96,14.71,30.37,0,0,0,0
881,0,0,-2.88,15.61,29.78,0,0,0,0
882,0,0,-2.71,16.46,29.14,0,0,0,0
883,0,0,-2.89,17.26,28.46,0,0,0,0
884,0,0,-2.61,18.00,27.74,0,0,0,0
885,0,0,-3.69,18.70,26.98,0,0,0,0
886,0,0,-2.71,19.34,26.18,0,0,0,0
887,0,0,-3.59,19.94,25.34,0,0,0,0
888,0,0,-2.53,20.49,24.47,0,0,0,0
889,0,0,-2.43,21.01,23.56,0,0,0,0
890,0,0,-2.43,21.47,22.62,0,0,0,0
891,0,0,-2.44,21.90,21.66,0,0,0,0
892,0,0,-2.44,22.30,20.66,0,0,0,0
893,0,0,-2.55,22.65,19.64,0,0,0,0
894,0,0,-2.54,22.97,18.59,0,0,0,0
895,0,0,-2.52,23.26,17.52,0,0,0,0
896,0,0,-3.27,23.52,16.42,0,0,0,0
897,0,0,-2.89,23.74,15.31,0,0,0,0
898,0,0,-2.60,23.94,14.18,0,0,0,0
899,0,0,-2.51,24.11,13.03,0,0,0,0
900,0,0,-2.72,24.26,11.87,0,0,0,0
901,0,0,-2.48,24.38,10.69,0,0,0,0
902,0,0,-2.45,24.49,9.50,0,0,0,0
903,0,0,-2.49,24.57,8.30,0,0,0,0
904,0,0,-2.46,24.64,7.09,0,0,0,0
905,0,0,-2.51,24.69,5.88,0,0,0,0
906,0,0,-2.51,24.72,4.66,0,0,0,0
907,0,0,-2.83,24.74,3.44,0,0,0,0
908,0,0,-2.98,24.75,2.21,0,0,0,0
909,0,0,-2.45,24.76,0.99,0,0,0,0
910,0,0,-2.46,24.75,-0.23,0,0,0,0
911,0,0,-2.46,24.74,-1.45,0,0,0,0
912,0,0,-2.77,24.72,-2.67,0,0,0,0
913,0,0,-3.21,24.70,-3.88,0,0,0,0
914,0,0,-3.10,24.68,-5.08,0,0,0,0
915,0,0,-4.15,24.66,-6.27,0,0,0,0
916,0,0,-4.11,24.64,-7.45,0,0,0,0
917,0,0,-2.88,24.63,-8.61,0,0,0,0
