DID,Dist,PID,Dir,Apara,r,slope,cant,LW,RW
1,0.00,1,-0.38,0,90000000000,0,0,2,2
2,1.68,2,-0.21,0,90000000000,0,0,2,2
3,3.20,3,-0.02,0,90000000000,0,0,2,2
4,4.60,4,0.18,0,90000000000,0,0,2,2
5,5.94,5,0.38,0,90000000000,0,0,2,2
6,7.25,6,0.56,0,90000000000,0,0,2,2
7,8.57,7,0.73,0,90000000000,0,0,2,2
8,9.92,8,0.88,0,90000000000,0,0,2,2
9,11.33,9,1.01,0,90000000000,0,0,2,2
10,12.78,10,1.13,0,90000000000,0,0,2,2
11,14.29,11,1.23,0,90000000000,0,0,2,2
12,15.85,12,1.33,0,90000000000,0,0,2,2
13,17.46,13,1.43,0,90000000000,0,0,2,2
14,19.10,14,1.53,0,90000000000,0,0,2,2
15,20.76,15,1.62,0,90000000000,0,0,2,2
16,22.45,16,1.72,0,90000000000,0,0,2,2
17,24.16,17,1.82,0,90000000000,0,0,2,2
18,25.87,18,1.93,0,90000000000,0,0,2,2
19,27.59,19,2.04,0,90000000000,0,0,2,2
20,29.32,20,2.16,0,90000000000,0,0,2,2
21,31.07,21,2.29,0,90000000000,0,0,2,2
22,32.85,22,2.43,0,90000000000,0,0,2,2
23,34.68,23,2.56,0,90000000000,0,0,2,2
24,36.59,24,2.70,0,90000000000,0,0,2,2
25,38.59,25,2.83,0,90000000000,0,0,2,2
26,40.73,26,2.95,0,90000000000,0,0,2,2
27,43.04,27,2.95,0,90000000000,0,0,2,2
28,0.00,28,-2.92,0,90000000000,0,0,2,2
29,1.88,29,-2.79,0,90000000000,0,0,2,2
30,3.63,30,-2.65,0,90000000000,0,0,2,2
31,5.27,31,-2.51,0,90000000000,0,0,2,2
32,6.84,32,-2.37,0,90000000000,0,0,2,2
33,8.36,33,-2.23,0,90000000000,0,0,2,2
34,9.85,34,-2.10,0,90000000000,0,0,2,2
35,11.33,35,-1.98,0,90000000000,0,0,2,2
36,12.82,36,-1.87,0,90000000000,0,0,2,2
37,14.31,37,-1.76,0,90000000000,0,0,2,2
38,15.81,38,-1.66,0,90000000000,0,0,2,2
39,17.32,39,-1.57,0,90000000000,0,0,2,2
40,18.84,40,-1.49,0,90000000000,0,0,2,2
41,20.36,41,-1.40,0,90000000000,0,0,2,2
42,21.87,42,-1.32,0,90000000000,0,0,2,2
43,23.37,43,-1.23,0,90000000000,0,0,2,2
44,24.85,44,-1.33,0,90000000000,0,0,2,2
45,27.38,45,-1.08,0,90000000000,0,0,2,2
46,28.88,46,-0.97,0,90000000000,0,0,2,2
47,30.29,47,-1.22,0,90000000000,0,0,2,2
48,32.88,48,-0.72,0,90000000000,0,0,2,2
49,34.18,49,-0.59,0,90000000000,0,0,2,2
50,35.44,50,-0.44,0,90000000000,0,0,2,2
51,36.69,51,-0.27,0,90000000000,0,0,2,2
52,37.93,52,-0.09,0,90000000000,0,0,2,2
53,39.19,53,0.08,0,90000000000,0,0,2,2
54,40.51,54,0.08,0,90000000000,0,0,2,2
