LID,BPID,FPID,BLID,FLID
1,55,56,0,2
2,56,57,1,3
3,57,58,2,4
4,58,59,3,5
5,59,60,4,6
6,60,61,5,7
7,61,62,6,8
8,62,63,7,9
9,63,64,8,10
10,64,65,9,11
11,65,66,10,12
12,66,67,11,13
13,67,68,12,14
14,68,69,13,15
15,69,70,14,16
16,70,71,15,17
17,71,72,16,0
18,73,74,0,19
19,74,75,18,20
20,75,76,19,21
21,76,77,20,22
22,77,78,21,23
23,78,79,22,24
24,79,80,23,25
25,80,81,24,26
26,81,82,25,27
27,82,83,26,28
28,83,84,27,29
29,84,85,28,30
30,85,86,29,31
31,86,87,30,32
32,87,88,31,33
33,88,89,32,34
34,89,90,33,0
35,91,92,0,36
36,92,93,35,37
37,93,94,36,38
38,94,95,37,39
39,95,96,38,40
40,96,97,39,41
41,97,98,40,42
42,98,99,41,43
43,99,100,42,44
44,100,101,43,45
45,101,102,44,46
46,102,103,45,47
47,103,104,46,48
48,104,105,47,49
49,105,106,48,50
50,106,107,49,51
51,107,108,50,52
52,108,109,51,53
53,109,110,52,54
54,110,111,53,55
55,111,112,54,56
56,112,113,55,57
57,113,114,56,58
58,114,115,57,59
59,115,116,58,60
60,116,117,59,61
61,117,118,60,62
62,118,119,61,63
63,119,120,62,64
64,120,121,63,65
65,121,122,64,66
66,122,123,65,67
67,123,124,66,68
68,124,125,67,69
69,125,126,68,0
70,127,128,0,71
71,128,129,70,72
72,129,130,71,73
73,130,131,72,74
74,131,132,73,75
75,132,133,74,76
76,133,134,75,77
77,134,135,76,78
78,135,136,77,79
79,136,137,78,80
80,137,138,79,81
81,138,139,80,82
82,139,140,81,83
83,140,141,82,84
84,141,142,83,85
85,142,143,84,86
86,143,144,85,87
87,144,145,86,88
88,145,146,87,89
89,146,147,88,90
90,147,148,89,91
91,148,149,90,92
92,149,150,91,93
93,150,151,92,94
94,151,152,93,95
95,152,153,94,96
96,153,154,95,97
97,154,155,96,98
98,155,156,97,99
99,156,157,98,100
100,157,158,99,101
101,158,159,100,102
102,159,160,101,103
103,160,161,102,104
104,161,162,103,0
